// MilkShape 3D ASCII

Frames: 30
Frame: 1

Meshes: 2
"turret" 1 0
188
1 0.033962 -0.038574 0.064320 0.490437 0.118591 -1
1 -0.782020 0.964146 0.064320 0.388685 0.046880 -1
1 -1.206338 0.964146 0.064455 0.335772 0.046880 -1
1 -1.112667 0.497682 0.063762 0.347453 0.080240 -1
1 -1.112667 0.497682 -0.067676 0.347453 0.080240 -1
1 -1.206338 0.964146 -0.066983 0.335772 0.046880 -1
1 -0.782020 0.964146 -0.067118 0.388685 0.046880 -1
1 0.033962 -0.038574 -0.067118 0.490437 0.118591 -1
1 0.149207 0.964146 0.064320 0.504808 0.046880 -1
1 -0.081282 0.964146 0.064320 0.476066 0.046880 -1
1 0.149207 0.964146 -0.067118 0.504808 0.046880 -1
1 -0.081282 0.964146 -0.067118 0.476066 0.046880 -1
1 1.318460 -0.038574 -0.067118 0.650613 0.118591 -1
1 1.318460 1.441594 -0.067118 0.650613 0.012734 -1
1 1.318460 1.441594 0.064320 0.650613 0.012734 -1
1 1.318460 -0.038574 0.064320 0.650613 0.118591 -1
1 -1.206338 0.497682 0.064455 0.335772 0.080240 -1
1 -1.206338 0.497682 -0.066983 0.335772 0.080240 -1
1 -1.112667 -0.208941 -0.067676 0.347453 0.130775 -1
1 -1.112667 -0.208941 0.063762 0.347453 0.130775 -1
1 0.033962 -1.089497 -0.067118 0.490437 0.193750 -1
1 0.033962 -1.089497 0.064320 0.490437 0.193750 -1
1 -1.367906 -1.089497 0.063812 0.315625 0.193750 -1
1 -1.367906 -0.208941 0.063812 0.315625 0.130775 -1
1 -1.367906 -0.208941 -0.067626 0.315625 0.130775 -1
1 -1.367906 -1.089497 -0.067626 0.315625 0.193750 -1
1 1.539091 -1.089497 -0.067175 0.678125 0.193750 -1
1 1.539091 -0.038574 -0.067175 0.678125 0.118591 -1
1 1.539091 -0.038574 0.064263 0.678125 0.118591 -1
1 1.539091 -1.089497 0.064263 0.678125 0.193750 -1
1 -0.081282 1.325544 -0.067118 0.476066 0.021034 -1
1 -0.282020 1.325544 -0.067118 0.451034 0.021034 -1
1 -0.282020 1.325544 0.064320 0.451034 0.021034 -1
1 -0.081282 1.325544 0.064320 0.476066 0.021034 -1
1 -0.282020 1.444866 -0.067118 0.451034 0.012500 -1
1 -0.782020 1.444866 -0.067118 0.388685 0.012500 -1
1 -0.782020 1.444866 0.064320 0.388685 0.012500 -1
1 -0.282020 1.444866 0.064320 0.451034 0.012500 -1
1 0.713002 1.104002 -0.067118 0.575112 0.036878 -1
1 0.149207 1.104002 -0.067118 0.504808 0.036878 -1
1 0.149207 1.104002 0.064320 0.504808 0.036878 -1
1 0.713002 1.104002 0.064320 0.575112 0.036878 -1
1 0.713002 1.441594 -0.067118 0.575112 0.012734 -1
1 0.713002 1.441594 0.064320 0.575112 0.012734 -1
1 0.433098 -1.417923 -0.070719 0.315625 0.339129 -1
1 0.433098 -1.077477 -0.070719 0.315625 0.212500 -1
1 0.629737 -1.077477 -0.070719 0.420594 0.212500 -1
1 0.629737 -1.417923 -0.070719 0.420594 0.339129 -1
1 0.629737 -1.417923 0.070719 0.420594 0.339129 -1
1 0.629737 -1.077477 0.070719 0.420594 0.212500 -1
1 0.433098 -1.077477 0.070719 0.315625 0.212500 -1
1 0.433098 -1.417923 0.070719 0.315625 0.339129 -1
1 0.629737 -1.573173 -0.070719 0.420594 0.396875 -1
1 0.629737 -1.573173 0.070719 0.420594 0.396875 -1
1 0.433098 -1.573173 0.070719 0.315625 0.396875 -1
1 0.433098 -1.573173 -0.070719 0.315625 0.396875 -1
1 1.129737 -1.573173 -0.070719 0.687500 0.396875 -1
1 1.129737 -1.417923 -0.070719 0.687500 0.339129 -1
1 1.129737 -1.417923 0.070719 0.687500 0.339129 -1
1 1.129737 -1.573173 0.070719 0.687500 0.396875 -1
1 0.708830 0.313558 0.101032 0.687500 0.396875 -1
1 0.708830 0.479842 0.101032 0.687500 0.212500 -1
1 0.284589 0.479842 0.101032 0.315625 0.212500 -1
1 0.284589 0.313558 0.101032 0.315625 0.396875 -1
1 0.284589 0.313558 -0.021446 0.315625 0.396875 -1
1 0.284589 0.479842 -0.021446 0.315625 0.212500 -1
1 0.708830 0.479842 -0.021446 0.687500 0.212500 -1
1 0.708830 0.313558 -0.021446 0.687500 0.396875 -1
1 0.622092 0.777749 0.101039 0.421328 0.265895 -1
1 0.622092 0.944101 0.101039 0.421328 0.212500 -1
1 0.439602 0.944101 0.101039 0.315625 0.212500 -1
1 0.439602 0.777749 0.101039 0.315625 0.265895 -1
1 0.439602 0.777749 -0.021439 0.315625 0.265895 -1
1 0.439602 0.944101 -0.021439 0.315625 0.212500 -1
1 0.622092 0.944101 -0.021439 0.421328 0.212500 -1
1 0.622092 0.777749 -0.021439 0.421328 0.265895 -1
1 0.775269 0.640392 0.101039 0.510052 0.309983 -1
1 0.775269 0.806744 0.101039 0.510052 0.256588 -1
1 0.592779 0.806744 0.101039 0.404349 0.256588 -1
1 0.592779 0.640392 0.101039 0.404349 0.309983 -1
1 0.592779 0.640392 -0.021439 0.404349 0.309983 -1
1 0.592779 0.806744 -0.021439 0.404349 0.256588 -1
1 0.775269 0.806744 -0.021439 0.510052 0.256588 -1
1 0.775269 0.640392 -0.021439 0.510052 0.309983 -1
1 0.928446 0.503035 0.101039 0.598776 0.354071 -1
1 0.928446 0.669387 0.101039 0.598776 0.300676 -1
1 0.745956 0.669387 0.101039 0.493073 0.300676 -1
1 0.745956 0.503035 0.101039 0.493073 0.354071 -1
1 0.745956 0.503035 -0.021439 0.493073 0.354071 -1
1 0.745956 0.669387 -0.021439 0.493073 0.300676 -1
1 0.928446 0.669387 -0.021439 0.598776 0.300676 -1
1 0.928446 0.503035 -0.021439 0.598776 0.354071 -1
1 1.081622 0.369680 0.101039 0.687500 0.396875 -1
1 1.081622 0.536032 0.101039 0.687500 0.343480 -1
1 0.899132 0.536032 0.101039 0.581797 0.343480 -1
1 0.899132 0.369680 0.101039 0.581797 0.396875 -1
1 0.899132 0.369680 -0.021439 0.581797 0.396875 -1
1 0.899132 0.536032 -0.021439 0.581797 0.343480 -1
1 1.081622 0.536032 -0.021439 0.687500 0.343480 -1
1 1.081622 0.369680 -0.021439 0.687500 0.396875 -1
1 -0.238671 -1.417893 0.070719 0.687500 0.339130 -1
1 -0.238671 -1.077447 0.070719 0.687500 0.212500 -1
1 -0.435311 -1.077447 0.070719 0.582531 0.212500 -1
1 -0.435311 -1.417893 0.070719 0.582531 0.339130 -1
1 -0.435311 -1.417893 -0.070719 0.582531 0.339130 -1
1 -0.435311 -1.077447 -0.070719 0.582531 0.212500 -1
1 -0.238671 -1.077447 -0.070719 0.687500 0.212500 -1
1 -0.238671 -1.417893 -0.070719 0.687500 0.339130 -1
1 -0.435311 -1.573143 0.070719 0.582531 0.396875 -1
1 -0.435311 -1.573143 -0.070719 0.582531 0.396875 -1
1 -0.238671 -1.573143 -0.070719 0.687500 0.396875 -1
1 -0.238671 -1.573143 0.070719 0.687500 0.396875 -1
1 -0.935311 -1.573143 0.070719 0.315625 0.396875 -1
1 -0.935311 -1.417893 0.070719 0.315625 0.339130 -1
1 -0.935311 -1.417893 -0.070719 0.315625 0.339130 -1
1 -0.935311 -1.573143 -0.070719 0.315625 0.396875 -1
1 -1.563059 -0.375010 -0.061239 0.548675 0.255063 -1
1 -1.563059 -0.208727 -0.061239 0.548675 0.212500 -1
1 -1.360288 -0.208727 -0.061239 0.687500 0.212500 -1
1 -1.360288 -0.375010 -0.061239 0.687500 0.255063 -1
1 -1.360288 -0.375010 0.061239 0.687500 0.255063 -1
1 -1.360288 -0.208727 0.061239 0.687500 0.212500 -1
1 -1.563059 -0.208727 0.061239 0.548675 0.212500 -1
1 -1.563059 -0.375010 0.061239 0.548675 0.255063 -1
1 -1.733259 -0.512310 -0.061239 0.432150 0.290207 -1
1 -1.733259 -0.346027 -0.061239 0.432150 0.247644 -1
1 -1.530488 -0.346027 -0.061239 0.570975 0.247644 -1
1 -1.530488 -0.512310 -0.061239 0.570975 0.290207 -1
1 -1.530488 -0.512310 0.061239 0.570975 0.290207 -1
1 -1.530488 -0.346027 0.061239 0.570975 0.247644 -1
1 -1.733259 -0.346027 0.061239 0.432150 0.247644 -1
1 -1.733259 -0.512310 0.061239 0.432150 0.290207 -1
1 -1.903459 -0.929040 -0.061239 0.315625 0.396875 -1
1 -1.903459 -0.479327 -0.061239 0.315625 0.281764 -1
1 -1.700688 -0.479327 -0.061239 0.454450 0.281764 -1
1 -1.700688 -0.929040 -0.061239 0.454450 0.396875 -1
1 -1.700688 -0.929040 0.061239 0.454450 0.396875 -1
1 -1.700688 -0.479327 0.061239 0.454450 0.281764 -1
1 -1.903459 -0.479327 0.061239 0.315625 0.281764 -1
1 -1.903459 -0.929040 0.061239 0.315625 0.396875 -1
1 0.596034 -0.404728 0.101494 0.687500 0.396875 -1
1 0.596034 -0.227896 0.101494 0.687500 0.212500 -1
1 -0.403966 -0.227896 0.101494 0.315625 0.212500 -1
1 -0.403966 -0.404728 0.101494 0.315625 0.396875 -1
1 -0.403966 -0.404728 -0.020983 0.315625 0.396875 -1
1 -0.403966 -0.227896 -0.020983 0.315625 0.212500 -1
1 0.596034 -0.227896 -0.020983 0.687500 0.212500 -1
1 0.596034 -0.404728 -0.020983 0.687500 0.396875 -1
1 -0.075691 0.313588 0.101044 0.687500 0.396875 -1
1 -0.075691 0.479871 0.101044 0.687500 0.212500 -1
1 -0.499931 0.479871 0.101044 0.315625 0.212500 -1
1 -0.499931 0.313588 0.101044 0.315625 0.396875 -1
1 -0.499931 0.313588 -0.021433 0.315625 0.396875 -1
1 -0.499931 0.479871 -0.021433 0.315625 0.212500 -1
1 -0.075691 0.479871 -0.021433 0.687500 0.212500 -1
1 -0.075691 0.313588 -0.021433 0.687500 0.396875 -1
1 -0.412520 0.777695 -0.021439 0.581797 0.265895 -1
1 -0.412520 0.944012 -0.021439 0.581797 0.212500 -1
1 -0.230029 0.944012 -0.021439 0.687500 0.212500 -1
1 -0.230029 0.777695 -0.021439 0.687500 0.265895 -1
1 -0.230029 0.777695 0.101039 0.687500 0.265895 -1
1 -0.230029 0.944012 0.101039 0.687500 0.212500 -1
1 -0.412520 0.944012 0.101039 0.581797 0.212500 -1
1 -0.412520 0.777695 0.101039 0.581797 0.265895 -1
1 -0.565698 0.640367 -0.021439 0.493073 0.309983 -1
1 -0.565698 0.806684 -0.021439 0.493073 0.256588 -1
1 -0.383207 0.806684 -0.021439 0.598776 0.256588 -1
1 -0.383207 0.640367 -0.021439 0.598776 0.309983 -1
1 -0.383207 0.640367 0.101039 0.598776 0.309983 -1
1 -0.383207 0.806684 0.101039 0.598776 0.256588 -1
1 -0.565698 0.806684 0.101039 0.493073 0.256588 -1
1 -0.565698 0.640367 0.101039 0.493073 0.309983 -1
1 -0.718876 0.503039 -0.021439 0.404349 0.354071 -1
1 -0.718876 0.669356 -0.021439 0.404349 0.300676 -1
1 -0.536385 0.669356 -0.021439 0.510052 0.300676 -1
1 -0.536385 0.503039 -0.021439 0.510052 0.354071 -1
1 -0.536385 0.503039 0.101039 0.510052 0.354071 -1
1 -0.536385 0.669356 0.101039 0.510052 0.300676 -1
1 -0.718876 0.669356 0.101039 0.404349 0.300676 -1
1 -0.718876 0.503039 0.101039 0.404349 0.354071 -1
1 -0.872055 0.369711 -0.021439 0.315625 0.396875 -1
1 -0.872055 0.536028 -0.021439 0.315625 0.343480 -1
1 -0.689563 0.536028 -0.021439 0.421328 0.343480 -1
1 -0.689563 0.369711 -0.021439 0.421328 0.396875 -1
1 -0.689563 0.369711 0.101039 0.421328 0.396875 -1
1 -0.689563 0.536028 0.101039 0.421328 0.343480 -1
1 -0.872055 0.536028 0.101039 0.315625 0.343480 -1
1 -0.872055 0.369711 0.101039 0.315625 0.396875 -1
113
-0.000178 -0.000135 1.000000
0.000106 0.000086 1.000000
0.002138 -0.000496 0.999998
0.001870 -0.000583 0.999998
-0.001611 0.000516 -0.999999
-0.003859 0.000711 -0.999992
0.000117 0.000515 -1.000000
0.000176 0.000064 -1.000000
-0.707107 0.707107 0.000000
0.000000 0.000000 1.000000
-0.000000 -0.000000 1.000000
-0.447214 0.894427 0.000000
0.894427 0.447214 0.000000
0.447214 0.894427 0.000000
-0.894427 0.447214 0.000000
0.000000 -0.000000 -1.000000
0.000000 0.000000 -1.000000
0.000000 0.000000 1.000000
0.000087 -0.000106 1.000000
-0.000075 0.000012 -1.000000
0.000000 0.000000 -1.000000
-0.894427 -0.447214 0.000000
-0.447214 -0.894427 0.000000
-0.007400 0.000000 -0.999973
0.007400 0.000000 0.999973
0.000259 -0.000297 -1.000000
-0.000285 0.000041 1.000000
0.000123 -0.000169 -1.000000
-0.000110 -0.000031 1.000000
0.000083 -0.000445 -1.000000
0.000362 0.000000 -1.000000
-0.000083 0.000081 1.000000
0.000197 0.000000 1.000000
0.000000 -1.000000 0.000000
0.894427 -0.447214 0.000000
0.447214 -0.894427 0.000000
0.000149 -0.000159 1.000000
0.000038 0.000000 1.000000
-0.000149 0.000023 -1.000000
-0.000260 0.000000 -1.000000
-0.000000 -0.000000 1.000000
-0.000000 -0.000000 -1.000000
-0.000000 0.000000 1.000000
-0.000000 0.000000 -1.000000
0.000000 0.000000 1.000000
0.000000 0.000000 -1.000000
-0.000000 0.000000 1.000000
-0.707106 0.000000 -0.707107
-0.666667 0.666667 -0.333334
0.408249 0.408248 -0.816496
0.365149 0.182574 -0.912871
0.218218 0.436436 0.872872
0.666667 0.666667 0.333334
-0.408249 0.408248 0.816496
-0.707107 0.000000 0.707106
0.000000 -0.894427 -0.447214
-0.000000 -0.447214 0.894427
-0.666667 -0.666667 0.333333
-0.408248 -0.408248 -0.816497
0.666667 -0.333333 -0.666667
0.408248 0.816497 -0.408248
0.666667 0.333333 0.666667
0.408248 -0.816497 0.408248
0.408248 -0.408248 0.816497
0.666667 0.666667 0.333333
-0.408248 0.408248 0.816497
-0.666667 -0.666667 0.333333
-0.408248 -0.408248 -0.816497
-0.666667 0.666667 -0.333333
0.408248 0.408248 -0.816497
0.666667 -0.666667 -0.333333
0.707107 0.000000 0.707107
-0.365148 0.182574 0.912871
-0.218218 0.436436 -0.872872
0.707107 0.000000 -0.707107
0.000000 -0.894427 0.447214
0.000000 -0.447214 -0.894427
-0.666667 -0.333333 0.666667
-0.408248 0.816497 0.408248
-0.666667 0.333333 -0.666667
-0.408248 -0.816497 -0.408248
-0.408248 -0.408248 -0.816497
-0.666667 0.666667 -0.333333
0.408249 0.408248 -0.816496
0.666667 -0.666667 -0.333333
0.408248 -0.408248 0.816497
0.666667 0.666667 0.333333
-0.408249 0.408248 0.816496
-0.666667 -0.666667 0.333333
-0.408248 -0.408248 -0.816497
0.408248 -0.408248 0.816497
-0.408248 -0.408248 -0.816497
-0.666667 0.666667 -0.333333
0.408248 0.408248 -0.816497
0.408248 -0.408248 0.816497
0.666667 0.666667 0.333333
-0.408249 0.408248 0.816496
-0.408248 -0.408248 -0.816497
-0.666667 0.666667 -0.333333
0.408249 0.408248 -0.816496
0.666667 -0.666667 -0.333333
0.408248 -0.408248 0.816497
0.666666 0.666667 0.333334
-0.408249 0.408248 0.816496
-0.666667 -0.666667 0.333334
-0.408248 -0.408248 -0.816497
0.408249 0.408248 -0.816496
0.666667 -0.666667 -0.333333
0.408248 -0.408248 0.816497
0.666667 0.666667 0.333334
-0.408249 0.408248 0.816496
0.408248 0.408248 -0.816496
0.666667 -0.666667 -0.333333
308
1 0 1 2 0 1 2 3
1 0 2 3 0 2 3 3
1 4 5 6 4 5 6 2
1 4 6 7 4 6 7 2
1 1 6 5 8 8 8 1
1 1 5 2 8 8 8 1
1 8 9 0 9 10 0 3
1 10 11 9 11 12 13 1
1 10 9 8 11 13 14 1
1 7 11 10 7 15 16 2
1 12 13 14 12 13 12 1
1 12 14 15 12 12 13 1
1 14 0 15 17 0 18 3
1 12 7 13 19 7 20 2
1 16 2 5 21 8 8 1
1 16 5 17 21 8 22 1
1 5 4 17 5 4 23 2
1 16 3 2 24 3 2 3
1 17 4 3 22 21 22 1
1 17 3 16 22 22 21 1
1 18 4 7 25 4 7 2
1 19 3 4 14 22 21 1
1 19 4 18 14 21 11 1
1 0 3 19 0 3 26 3
1 20 7 12 27 7 19 2
1 21 15 0 28 18 0 3
1 20 18 7 27 25 7 2
1 21 0 19 28 0 26 3
1 22 23 24 21 11 14 1
1 22 24 25 21 14 22 1
1 24 18 20 29 25 27 2
1 24 20 25 29 27 30 2
1 23 19 18 11 14 11 1
1 23 18 24 11 11 14 1
1 22 21 19 31 28 26 3
1 22 19 23 31 26 32 3
1 25 20 21 22 33 33 1
1 25 21 22 22 33 21 1
1 26 27 28 34 13 12 1
1 26 28 29 34 12 35 1
1 28 15 21 36 18 28 3
1 28 21 29 36 28 37 3
1 26 20 12 38 27 19 2
1 26 12 27 38 19 39 2
1 29 21 20 35 33 33 1
1 29 20 26 35 33 34 1
1 27 12 15 13 12 13 1
1 27 15 28 13 13 12 1
1 30 31 32 13 12 13 1
1 30 32 33 13 13 12 1
1 33 9 11 12 13 12 1
1 33 11 30 12 12 13 1
1 1 0 32 1 0 40 3
1 31 7 6 41 7 6 2
1 34 35 36 13 14 11 1
1 34 36 37 13 11 12 1
1 35 6 1 14 8 8 1
1 35 1 36 14 8 11 1
1 37 32 31 12 13 12 1
1 37 31 34 12 12 13 1
1 38 39 40 11 14 11 1
1 38 40 41 11 11 14 1
1 41 0 14 42 0 17 3
1 13 7 38 20 7 43 2
1 39 10 8 14 11 14 1
1 39 8 40 14 14 11 1
1 13 42 43 13 14 11 1
1 13 43 14 13 11 12 1
1 43 41 14 44 42 17 3
1 42 38 41 14 11 14 1
1 42 41 43 14 14 11 1
1 13 38 42 20 43 45 2
1 32 9 33 40 10 46 3
1 32 0 9 40 0 10 3
1 36 32 37 44 40 44 3
1 36 1 32 44 1 40 3
1 34 31 35 45 41 45 2
1 31 6 35 41 6 45 2
1 30 11 31 45 15 41 2
1 11 7 31 15 7 41 2
1 38 10 39 43 16 45 2
1 38 7 10 43 7 16 2
1 40 8 41 44 9 42 3
1 8 0 41 9 0 42 3
1 44 45 46 47 48 49 1
1 44 46 47 47 49 50 1
1 48 49 50 51 52 53 1
1 48 50 51 51 53 54 1
1 51 50 45 54 53 48 1
1 51 45 44 54 48 47 1
1 47 46 49 50 49 52 1
1 47 49 48 50 52 51 1
1 45 50 49 48 53 52 1
1 45 49 46 48 52 49 1
1 52 53 54 55 56 57 1
1 52 54 55 55 57 58 1
1 54 51 44 57 54 47 1
1 54 44 55 57 47 58 1
1 53 48 51 56 51 54 1
1 53 51 54 56 54 57 1
1 55 44 47 58 47 50 1
1 55 47 52 58 50 55 1
1 56 57 58 59 60 61 1
1 56 58 59 59 61 62 1
1 58 48 53 61 51 56 1
1 58 53 59 61 56 62 1
1 57 47 48 60 50 51 1
1 57 48 58 60 51 61 1
1 56 52 47 59 55 50 1
1 56 47 57 59 50 60 1
1 59 53 52 62 56 55 1
1 59 52 56 62 55 59 1
1 60 61 62 63 64 65 1
1 60 62 63 63 65 66 1
1 64 65 66 67 68 69 1
1 64 66 67 67 69 70 1
1 67 66 61 70 69 64 1
1 67 61 60 70 64 63 1
1 63 62 65 66 65 68 1
1 63 65 64 66 68 67 1
1 61 66 65 64 69 68 1
1 61 65 62 64 68 65 1
1 63 64 67 66 67 70 1
1 63 67 60 66 70 63 1
1 68 69 70 63 64 65 1
1 68 70 71 63 65 66 1
1 72 73 74 67 68 69 1
1 72 74 75 67 69 70 1
1 75 74 69 70 69 64 1
1 75 69 68 70 64 63 1
1 71 70 73 66 65 68 1
1 71 73 72 66 68 67 1
1 69 74 73 64 69 68 1
1 69 73 70 64 68 65 1
1 71 72 75 66 67 70 1
1 71 75 68 66 70 63 1
1 76 77 78 63 64 65 1
1 76 78 79 63 65 66 1
1 80 81 82 67 68 69 1
1 80 82 83 67 69 70 1
1 83 82 77 70 69 64 1
1 83 77 76 70 64 63 1
1 79 78 81 66 65 68 1
1 79 81 80 66 68 67 1
1 77 82 81 64 69 68 1
1 77 81 78 64 68 65 1
1 79 80 83 66 67 70 1
1 79 83 76 66 70 63 1
1 84 85 86 63 64 65 1
1 84 86 87 63 65 66 1
1 88 89 90 67 68 69 1
1 88 90 91 67 69 70 1
1 91 90 85 70 69 64 1
1 91 85 84 70 64 63 1
1 87 86 89 66 65 68 1
1 87 89 88 66 68 67 1
1 85 90 89 64 69 68 1
1 85 89 86 64 68 65 1
1 87 88 91 66 67 70 1
1 87 91 84 66 70 63 1
1 92 93 94 63 64 65 1
1 92 94 95 63 65 66 1
1 96 97 98 67 68 69 1
1 96 98 99 67 69 70 1
1 99 98 93 70 69 64 1
1 99 93 92 70 64 63 1
1 95 94 97 66 65 68 1
1 95 97 96 66 68 67 1
1 93 98 97 64 69 68 1
1 93 97 94 64 68 65 1
1 95 96 99 66 67 70 1
1 95 99 92 66 70 63 1
1 100 101 102 71 64 65 1
1 100 102 103 71 65 72 1
1 104 105 106 73 68 69 1
1 104 106 107 73 69 74 1
1 107 106 101 74 69 64 1
1 107 101 100 74 64 71 1
1 103 102 105 72 65 68 1
1 103 105 104 72 68 73 1
1 101 106 105 64 69 68 1
1 101 105 102 64 68 65 1
1 108 109 110 75 76 70 1
1 108 110 111 75 70 63 1
1 110 107 100 70 74 71 1
1 110 100 111 70 71 63 1
1 109 104 107 76 73 74 1
1 109 107 110 76 74 70 1
1 111 100 103 63 71 72 1
1 111 103 108 63 72 75 1
1 112 113 114 77 78 79 1
1 112 114 115 77 79 80 1
1 114 104 109 79 73 76 1
1 114 109 115 79 76 80 1
1 113 103 104 78 72 73 1
1 113 104 114 78 73 79 1
1 112 108 103 77 75 72 1
1 112 103 113 77 72 78 1
1 115 109 108 80 76 75 1
1 115 108 112 80 75 77 1
1 116 117 118 81 82 83 1
1 116 118 119 81 83 84 1
1 120 121 122 85 86 87 1
1 120 122 123 85 87 88 1
1 123 122 117 88 87 82 1
1 123 117 116 88 82 81 1
1 119 118 121 84 83 86 1
1 119 121 120 84 86 85 1
1 117 122 121 82 87 86 1
1 117 121 118 82 86 83 1
1 119 120 123 84 85 88 1
1 119 123 116 84 88 81 1
1 124 125 126 89 82 83 1
1 124 126 127 89 83 84 1
1 128 129 130 90 86 87 1
1 128 130 131 90 87 88 1
1 131 130 125 88 87 82 1
1 131 125 124 88 82 89 1
1 127 126 129 84 83 86 1
1 127 129 128 84 86 90 1
1 125 130 129 82 87 86 1
1 125 129 126 82 86 83 1
1 127 128 131 84 90 88 1
1 127 131 124 84 88 89 1
1 132 133 134 81 82 83 1
1 132 134 135 81 83 84 1
1 136 137 138 85 86 87 1
1 136 138 139 85 87 88 1
1 139 138 133 88 87 82 1
1 139 133 132 88 82 81 1
1 135 134 137 84 83 86 1
1 135 137 136 84 86 85 1
1 133 138 137 82 87 86 1
1 133 137 134 82 86 83 1
1 135 136 139 84 85 88 1
1 135 139 132 84 88 81 1
1 140 141 142 63 64 65 1
1 140 142 143 63 65 66 1
1 144 145 146 67 68 69 1
1 144 146 147 67 69 70 1
1 147 146 141 70 69 64 1
1 147 141 140 70 64 63 1
1 143 142 145 66 65 68 1
1 143 145 144 66 68 67 1
1 141 146 145 64 69 68 1
1 141 145 142 64 68 65 1
1 143 144 147 66 67 70 1
1 143 147 140 66 70 63 1
1 148 149 150 63 64 65 1
1 148 150 151 63 65 66 1
1 152 153 154 67 68 69 1
1 152 154 155 67 69 70 1
1 155 154 149 70 69 64 1
1 155 149 148 70 64 63 1
1 151 150 153 66 65 68 1
1 151 153 152 66 68 67 1
1 149 154 153 64 69 68 1
1 149 153 150 64 68 65 1
1 151 152 155 66 67 70 1
1 151 155 148 66 70 63 1
1 156 157 158 91 92 93 1
1 156 158 159 91 93 70 1
1 160 161 162 94 95 96 1
1 160 162 163 94 96 88 1
1 163 162 157 88 96 92 1
1 163 157 156 88 92 91 1
1 159 158 161 70 93 95 1
1 159 161 160 70 95 94 1
1 157 162 161 92 96 95 1
1 157 161 158 92 95 93 1
1 159 160 163 70 94 88 1
1 159 163 156 70 88 91 1
1 164 165 166 97 98 99 1
1 164 166 167 97 99 100 1
1 168 169 170 101 102 103 1
1 168 170 171 101 103 104 1
1 171 170 165 104 103 98 1
1 171 165 164 104 98 97 1
1 167 166 169 100 99 102 1
1 167 169 168 100 102 101 1
1 165 170 169 98 103 102 1
1 165 169 166 98 102 99 1
1 167 168 171 100 101 104 1
1 167 171 164 100 104 97 1
1 172 173 174 105 92 106 1
1 172 174 175 105 106 107 1
1 176 177 178 108 109 110 1
1 176 178 179 108 110 88 1
1 179 178 173 88 110 92 1
1 179 173 172 88 92 105 1
1 175 174 177 107 106 109 1
1 175 177 176 107 109 108 1
1 173 178 177 92 110 109 1
1 173 177 174 92 109 106 1
1 175 176 179 107 108 88 1
1 175 179 172 107 88 105 1
1 180 181 182 105 92 111 1
1 180 182 183 105 111 112 1
1 184 185 186 63 64 65 1
1 184 186 187 63 65 66 1
1 187 186 181 66 65 92 1
1 187 181 180 66 92 105 1
1 183 182 185 112 111 64 1
1 183 185 184 112 64 63 1
1 181 186 185 92 65 64 1
1 181 185 182 92 64 111 1
1 183 184 187 112 63 66 1
1 183 187 180 112 66 105 1
"gun" 1 0
154
1 1.739065 -0.066084 0.097578 0.454450 0.212500 -1
1 1.739065 -0.066084 -0.068705 0.454450 0.212500 -1
1 1.536294 -0.066084 -0.068705 0.315625 0.212500 -1
1 1.536294 -0.066084 0.097578 0.315625 0.212500 -1
1 1.536294 -0.188562 0.097578 0.315625 0.396875 -1
1 1.536294 -0.188562 -0.068705 0.315625 0.396875 -1
1 1.739065 -0.188562 -0.068705 0.454450 0.396875 -1
1 1.739065 -0.188562 0.097578 0.454450 0.396875 -1
1 1.909265 -0.066084 0.234878 0.570975 0.212500 -1
1 1.909265 -0.066084 0.068595 0.570975 0.212500 -1
1 1.706494 -0.066084 0.068595 0.432150 0.212500 -1
1 1.706494 -0.066084 0.234878 0.432150 0.212500 -1
1 1.706494 -0.188562 0.234878 0.432150 0.396875 -1
1 1.706494 -0.188562 0.068595 0.432150 0.396875 -1
1 1.909265 -0.188562 0.068595 0.570975 0.396875 -1
1 1.909265 -0.188562 0.234878 0.570975 0.396875 -1
1 2.079465 -0.066084 0.817608 0.687500 0.212500 -1
1 2.079465 -0.066084 0.201895 0.687500 0.212500 -1
1 1.876694 -0.066084 0.201895 0.548675 0.212500 -1
1 1.876694 -0.066084 0.817608 0.548675 0.212500 -1
1 1.876694 -0.188562 0.817608 0.548675 0.396875 -1
1 1.876694 -0.188562 0.201895 0.548675 0.396875 -1
1 2.079465 -0.188562 0.201895 0.687500 0.396875 -1
1 2.079465 -0.188562 0.817608 0.687500 0.396875 -1
1 2.035712 -0.067152 0.815934 0.865128 0.190625 -1
1 2.035712 -0.008319 0.815934 0.865128 0.150913 -1
1 1.928829 -0.008319 0.815934 0.865128 0.150913 -1
1 1.928829 -0.067152 0.815934 0.865128 0.190625 -1
1 1.928829 -0.067152 0.743778 0.971875 0.190625 -1
1 1.928829 -0.008319 0.743778 0.971875 0.150913 -1
1 2.035712 -0.008319 0.743778 0.971875 0.150913 -1
1 2.035712 -0.067152 0.743778 0.971875 0.190625 -1
1 1.928829 0.031681 0.743778 0.971875 0.123914 -1
1 1.928829 0.031681 0.815934 0.865128 0.123914 -1
1 2.035712 0.031681 0.743778 0.971875 0.123914 -1
1 2.035712 0.031681 0.815934 0.865128 0.123914 -1
1 1.928829 0.106681 0.743778 0.971875 0.073290 -1
1 1.928829 0.106681 0.815934 0.865128 0.073290 -1
1 2.035712 0.106681 0.743778 0.971875 0.073290 -1
1 2.035712 0.106681 0.815934 0.865128 0.073290 -1
1 2.035712 0.116681 0.815934 0.865128 0.066540 -1
1 2.035712 0.116681 0.743778 0.971875 0.066540 -1
1 1.928829 0.116681 0.743778 0.971875 0.066540 -1
1 1.928829 0.116681 0.815934 0.865128 0.066540 -1
1 2.035727 -0.018319 0.815934 0.865128 0.157663 -1
1 1.928814 -0.018319 0.815934 0.865128 0.157663 -1
1 2.035727 0.031681 0.825934 0.850334 0.123914 -1
1 2.035727 0.106681 0.825934 0.850334 0.073290 -1
1 1.928814 0.106681 0.825934 0.850334 0.073290 -1
1 1.928814 0.031681 0.825934 0.850334 0.123914 -1
1 2.035727 0.073335 0.975934 0.628425 0.095798 -1
1 2.035727 0.049415 0.975934 0.628425 0.111944 -1
1 2.035727 0.031681 0.975740 0.628712 0.123914 -1
1 2.035727 0.106681 0.975934 0.628425 0.073290 -1
1 1.928814 0.049415 0.975785 0.628645 0.111944 -1
1 1.928814 0.073335 0.975934 0.628425 0.095798 -1
1 1.928814 0.106681 0.975934 0.628425 0.073290 -1
1 1.928814 0.031681 0.975934 0.628425 0.123914 -1
1 2.035727 -0.018319 0.825934 0.922606 0.593750 -1
1 2.035727 -0.018319 0.815934 0.962500 0.593750 -1
1 2.035712 0.031681 0.815934 0.962500 0.425000 -1
1 2.035727 0.031681 0.825934 0.922606 0.425000 -1
1 1.928814 -0.018319 0.825934 0.922606 0.593750 -1
1 1.928814 -0.018319 0.815934 0.962500 0.593750 -1
1 1.928814 0.031681 0.825934 0.922606 0.425000 -1
1 1.928829 0.031681 0.815934 0.962500 0.425000 -1
1 2.035727 -0.018319 0.975934 0.324202 0.593750 -1
1 2.035727 0.031681 0.975740 0.324975 0.425000 -1
1 1.928814 -0.018319 0.975934 0.324202 0.593750 -1
1 1.928814 0.031681 0.975934 0.324202 0.425000 -1
1 1.928814 0.031681 1.050934 0.025121 0.727244 -1
1 1.928814 -0.018319 1.050934 0.025121 0.762062 -1
1 2.035727 -0.018319 1.050934 0.025121 0.762062 -1
1 2.035727 0.031681 1.050934 0.025121 0.727244 -1
1 2.035712 0.106681 0.815934 0.959375 0.675017 -1
1 2.035712 0.116681 0.815934 0.959375 0.668053 -1
1 2.035727 0.187482 0.815934 0.959375 0.618750 -1
1 1.928814 0.187482 0.815934 0.959375 0.618750 -1
1 1.928829 0.116681 0.815934 0.959375 0.668053 -1
1 1.928829 0.106681 0.815934 0.959375 0.675017 -1
1 2.035727 0.106681 0.825934 0.919620 0.675017 -1
1 2.035727 0.187482 0.825934 0.919620 0.618750 -1
1 1.928814 0.187482 0.825934 0.919620 0.618750 -1
1 1.928814 0.106681 0.825934 0.919620 0.675017 -1
1 2.035727 0.187482 0.975934 0.323287 0.618750 -1
1 1.928814 0.187482 0.975934 0.323287 0.618750 -1
1 2.035727 0.160588 0.975934 0.323287 0.637478 -1
1 1.928814 0.160588 0.975934 0.323287 0.637478 -1
1 1.928814 0.106681 0.975934 0.323287 0.675017 -1
1 2.035727 0.106681 0.975934 0.323287 0.675017 -1
1 1.928814 0.160588 1.050934 0.025121 0.637478 -1
1 1.928814 0.106681 1.050934 0.025121 0.675017 -1
1 2.035727 0.106681 1.050934 0.025121 0.675017 -1
1 2.035727 0.160588 1.050934 0.025121 0.637478 -1
1 2.035727 0.073335 1.050934 0.025121 0.698238 -1
1 2.035727 0.073335 0.975934 0.323287 0.698238 -1
1 1.928814 0.073335 1.050934 0.025121 0.698238 -1
1 1.928814 0.073335 0.975934 0.323287 0.698238 -1
1 1.928814 0.049415 1.050934 0.025121 0.714895 -1
1 1.928814 0.049415 0.975785 0.323879 0.714895 -1
1 1.928814 0.031681 0.975934 0.323287 0.727244 -1
1 2.035727 0.049415 1.050934 0.025121 0.714895 -1
1 2.035727 0.031681 0.975740 0.324057 0.727244 -1
1 2.035727 0.049415 0.975934 0.323287 0.714895 -1
1 2.035727 -0.018319 0.975934 0.323287 0.762062 -1
1 1.928833 -0.068311 1.050964 0.025000 0.796875 -1
1 1.928833 -0.068311 0.975952 0.323215 0.796875 -1
1 2.035706 -0.068311 0.975952 0.323215 0.796875 -1
1 2.035706 -0.068311 1.050964 0.025000 0.796875 -1
1 1.928814 -0.018319 0.975934 0.323287 0.762062 -1
1 1.928814 0.049415 1.050934 0.799531 0.943566 -1
1 1.928814 0.073335 1.050934 0.799531 0.892737 -1
1 1.928814 0.073335 0.975934 0.971534 0.892737 -1
1 1.928814 0.049415 0.975785 0.971875 0.943566 -1
1 2.035727 0.073335 1.050934 0.799531 0.892737 -1
1 2.035727 0.049415 1.050934 0.799531 0.943566 -1
1 2.035727 0.049415 0.975934 0.971534 0.943566 -1
1 2.035727 0.073335 0.975934 0.971534 0.892737 -1
1 1.928814 0.049415 1.350934 0.111518 0.943566 -1
1 1.928814 0.031681 1.350934 0.111518 0.981250 -1
1 2.035727 0.031681 1.350934 0.111518 0.981250 -1
1 2.035727 0.049415 1.350934 0.111518 0.943566 -1
1 1.928814 0.106681 1.350934 0.111518 0.821875 -1
1 1.928814 0.085300 1.350934 0.111518 0.867311 -1
1 2.035727 0.085300 1.350934 0.111518 0.867311 -1
1 2.035727 0.106681 1.350934 0.111518 0.821875 -1
1 2.035727 0.031681 1.050934 0.799531 0.981250 -1
1 1.928814 0.031681 1.050934 0.799531 0.981250 -1
1 2.035727 0.106681 1.050934 0.799531 0.821875 -1
1 1.928814 0.106681 1.050934 0.799531 0.821875 -1
1 1.928814 0.082608 1.385934 0.031250 0.873030 -1
1 1.928814 0.052106 1.385934 0.031250 0.937847 -1
1 2.035727 0.052106 1.385934 0.031250 0.937847 -1
1 2.035727 0.082608 1.385934 0.031250 0.873030 -1
1 1.515691 -0.104444 0.016511 0.000000 0.000000 -1
1 1.515691 -0.149827 0.016511 0.000000 1.000000 -1
1 1.561074 -0.104444 0.016511 1.000000 0.000000 -1
1 1.561074 -0.149827 0.016511 1.000000 1.000000 -1
1 1.561074 -0.104444 0.016511 0.000000 0.000000 -1
1 1.561074 -0.149827 0.016511 0.000000 1.000000 -1
1 1.561074 -0.104444 -0.017135 1.000000 0.000000 -1
1 1.561074 -0.149827 -0.017135 1.000000 1.000000 -1
1 1.561074 -0.104444 -0.017135 0.000000 0.000000 -1
1 1.561074 -0.149827 -0.017135 0.000000 1.000000 -1
1 1.515691 -0.104444 -0.017135 1.000000 0.000000 -1
1 1.515691 -0.149827 -0.017135 1.000000 1.000000 -1
1 1.515691 -0.104444 -0.017135 0.000000 0.000000 -1
1 1.515691 -0.149827 -0.017135 0.000000 1.000000 -1
1 1.515691 -0.104444 0.016511 1.000000 0.000000 -1
1 1.515691 -0.149827 0.016511 1.000000 1.000000 -1
1 1.515691 -0.104444 0.016511 0.000000 1.000000 -1
1 1.561074 -0.104444 0.016511 1.000000 1.000000 -1
1 1.515691 -0.149827 0.016511 0.000000 0.000000 -1
1 1.561074 -0.149827 0.016511 1.000000 0.000000 -1
87
0.408248 0.816497 0.408248
0.666667 0.333333 -0.666667
-0.408248 0.816497 -0.408248
-0.666667 0.333333 0.666667
-0.408248 -0.816497 0.408248
-0.666667 -0.333333 -0.666667
0.408248 -0.816497 -0.408248
0.666667 -0.333333 0.666667
-0.408248 -0.816496 0.408249
-0.666667 -0.333333 -0.666667
0.408248 -0.816497 -0.408248
0.666667 -0.333333 0.666667
0.408248 0.816497 0.408248
0.666667 0.333333 -0.666667
-0.408248 0.816497 -0.408248
-0.408248 -0.816497 0.408248
-0.666667 -0.333333 -0.666667
0.408248 -0.816497 -0.408248
0.408248 -0.408248 0.816497
0.832050 0.000000 -0.554700
-1.000000 0.000000 0.000000
-0.666667 -0.666667 0.333333
-0.408248 -0.408248 -0.816497
-0.707107 0.000000 -0.707107
0.707107 0.000000 -0.707107
0.666667 -0.666667 -0.333333
-0.980468 0.000000 -0.196678
0.970057 0.000000 -0.242879
-1.000000 0.000000 -0.000373
1.000000 0.000000 -0.000601
0.707107 0.707107 0.000000
0.408248 0.408248 -0.816497
-0.666667 0.666667 -0.333333
-0.707107 0.707107 0.000000
0.000000 0.000000 -1.000000
1.000000 0.000000 -0.000751
1.000000 0.000000 -0.000501
-1.000000 0.000000 -0.000745
-1.000000 0.000000 -0.000497
1.000000 0.000000 0.000000
0.707142 -0.707071 -0.000354
0.447267 -0.894400 0.000000
1.000000 0.000150 -0.000751
-0.707107 -0.707107 0.000000
-0.894480 -0.447107 -0.000666
-1.000000 0.000099 -0.000497
-0.999999 0.000298 -0.001490
0.894427 -0.447214 0.000000
-0.447214 -0.894427 0.000000
-0.832050 0.000000 0.554700
-0.554700 0.000232 0.832050
0.800000 -0.000050 0.600000
0.894427 0.000000 0.447214
0.706576 -0.000131 -0.707638
0.534357 0.267129 -0.801938
-0.333347 0.666633 -0.666694
-0.894160 -0.000082 -0.447747
1.000000 -0.000046 -0.000376
-0.800018 0.599976 -0.000298
0.408248 0.816497 0.408248
-0.408248 0.408248 0.816497
0.912871 0.182574 0.365148
-0.872872 0.436436 0.218218
-0.666667 0.333333 0.666667
-0.894427 0.000000 0.447214
0.832050 0.000000 0.554700
0.707107 -0.000408 -0.707107
-0.666644 -0.666695 0.333322
-0.408173 -0.408624 -0.816346
0.666486 -0.666893 -0.333243
0.408302 -0.407981 0.816604
-0.970142 -0.000272 -0.242536
-0.908240 -0.181113 0.377223
0.866567 -0.432008 0.249862
-0.866567 0.432008 0.249862
0.908240 0.181113 0.377223
0.447214 -0.894427 0.000000
-0.894427 -0.447214 0.000000
0.894427 0.447214 0.000000
-0.447214 0.894427 0.000000
-0.655590 0.326830 0.680723
-0.398198 -0.794053 0.459258
0.655590 -0.326830 0.680723
0.398198 0.794053 0.459258
0.000000 0.000000 1.000000
0.000000 1.000000 0.000000
0.000000 -1.000000 0.000000
194
1 0 1 2 0 1 2 1
1 0 2 3 0 2 3 1
1 4 5 6 4 5 6 1
1 4 6 7 4 6 7 1
1 7 6 1 7 6 1 1
1 7 1 0 7 1 0 1
1 3 2 5 3 2 5 1
1 3 5 4 3 5 4 1
1 1 6 5 1 6 5 1
1 1 5 2 1 5 2 1
1 3 4 7 3 4 7 1
1 3 7 0 3 7 0 1
1 8 9 10 0 1 2 1
1 8 10 11 0 2 3 1
1 12 13 14 8 9 10 1
1 12 14 15 8 10 11 1
1 15 14 9 11 10 1 1
1 15 9 8 11 1 0 1
1 11 10 13 3 2 9 1
1 11 13 12 3 9 8 1
1 9 14 13 1 10 9 1
1 9 13 10 1 9 2 1
1 11 12 15 3 8 11 1
1 11 15 8 3 11 0 1
1 16 17 18 12 13 14 1
1 16 18 19 12 14 3 1
1 20 21 22 15 16 17 1
1 20 22 23 15 17 7 1
1 23 22 17 7 17 13 1
1 23 17 16 7 13 12 1
1 19 18 21 3 14 16 1
1 19 21 20 3 16 15 1
1 17 22 21 13 17 16 1
1 17 21 18 13 16 14 1
1 19 20 23 3 15 7 1
1 19 23 16 3 7 12 1
1 24 25 26 18 19 20 1
1 24 26 27 18 20 21 1
1 28 29 30 22 23 24 1
1 28 30 31 22 24 25 1
1 31 30 25 25 24 19 1
1 31 25 24 25 19 18 1
1 27 26 29 21 20 23 1
1 27 29 28 21 23 22 1
1 27 28 31 21 22 25 1
1 27 31 24 21 25 18 1
1 32 29 26 23 23 20 1
1 32 26 33 23 20 26 1
1 34 30 29 24 24 23 1
1 34 29 32 24 23 23 1
1 35 25 30 27 19 24 1
1 35 30 34 27 24 24 1
1 36 32 33 23 23 26 1
1 36 33 37 23 26 28 1
1 38 34 32 24 24 23 1
1 38 32 36 24 23 23 1
1 39 35 34 29 27 24 1
1 39 34 38 29 24 24 1
1 40 41 42 30 31 32 1
1 40 42 43 30 32 33 1
1 42 36 37 32 23 28 1
1 42 37 43 32 28 33 1
1 41 38 36 31 24 23 1
1 41 36 42 31 23 32 1
1 40 39 38 30 29 24 1
1 40 38 41 30 24 31 1
1 44 25 35 34 19 27 1
1 45 26 25 34 20 19 1
1 45 25 44 34 19 34 1
1 33 26 45 26 20 34 1
1 46 35 39 35 27 29 1
1 46 39 47 35 29 36 1
1 48 37 33 37 28 26 1
1 48 33 49 37 26 38 1
1 50 51 52 39 39 39 1
1 50 52 46 39 39 35 1
1 50 46 47 39 35 36 1
1 50 47 53 39 36 39 1
1 54 55 56 20 20 20 1
1 54 56 48 20 20 37 1
1 54 48 49 20 37 38 1
1 54 49 57 20 38 20 1
1 58 59 60 40 41 42 1
1 58 60 61 40 42 36 1
1 62 63 59 43 44 41 1
1 62 59 58 43 41 40 1
1 64 65 63 45 46 44 1
1 64 63 62 45 44 43 1
1 66 58 61 47 40 36 1
1 66 61 67 47 36 39 1
1 68 62 58 48 43 40 1
1 68 58 66 48 40 47 1
1 69 64 62 20 45 43 1
1 69 62 68 20 43 48 1
1 70 71 72 49 50 51 1
1 70 72 73 49 51 52 1
1 74 75 76 53 34 54 1
1 77 78 79 55 34 56 1
1 76 75 78 54 34 34 1
1 76 78 77 54 34 55 1
1 80 74 76 57 53 54 1
1 80 76 81 57 54 30 1
1 82 77 79 58 55 56 1
1 82 79 83 58 56 38 1
1 81 76 77 30 54 55 1
1 81 77 82 30 55 58 1
1 84 81 82 59 30 58 1
1 84 82 85 59 58 60 1
1 86 84 85 61 59 60 1
1 86 85 87 61 60 62 1
1 87 85 82 62 60 58 1
1 87 82 83 62 58 38 1
1 87 83 88 62 38 20 1
1 89 86 84 39 61 59 1
1 89 84 86 39 59 61 1
1 86 89 80 61 39 57 1
1 86 80 81 61 57 30 1
1 86 81 84 61 30 59 1
1 90 91 92 63 64 65 1
1 90 92 93 63 65 59 1
1 92 89 86 65 39 61 1
1 92 86 93 65 61 59 1
1 90 87 88 63 62 20 1
1 90 88 91 63 20 64 1
1 93 86 87 59 61 62 1
1 93 87 90 59 62 63 1
1 94 95 89 39 39 39 1
1 94 89 92 39 39 65 1
1 96 91 88 20 64 20 1
1 96 88 97 20 20 20 1
1 98 99 100 20 20 20 1
1 98 100 70 20 20 49 1
1 101 73 102 39 52 39 1
1 101 102 103 39 39 39 1
1 72 104 102 51 66 39 1
1 72 102 73 51 39 52 1
1 105 106 107 67 68 69 1
1 105 107 108 67 69 70 1
1 70 100 109 49 20 71 1
1 70 109 71 49 71 50 1
1 105 71 109 67 50 71 1
1 105 109 106 67 71 68 1
1 106 109 104 68 71 66 1
1 106 104 107 68 66 69 1
1 107 104 72 69 66 51 1
1 107 72 108 69 51 70 1
1 108 72 71 70 51 50 1
1 108 71 105 70 50 67 1
1 110 111 112 20 20 20 1
1 110 112 113 20 20 20 1
1 114 115 116 39 39 39 1
1 114 116 117 39 39 39 1
1 118 119 120 72 4 7 1
1 118 120 121 72 7 73 1
1 122 123 124 63 74 75 1
1 122 124 125 63 75 59 1
1 120 126 115 7 76 39 1
1 120 115 121 7 39 73 1
1 119 127 126 4 77 76 1
1 119 126 120 4 76 7 1
1 118 110 127 72 20 77 1
1 118 127 119 72 77 4 1
1 121 115 114 73 39 39 1
1 121 114 124 73 39 75 1
1 123 111 110 74 20 20 1
1 123 110 118 74 20 72 1
1 124 114 128 75 39 78 1
1 124 128 125 75 78 59 1
1 122 129 111 63 79 20 1
1 122 111 123 63 20 74 1
1 125 128 129 59 78 79 1
1 125 129 122 59 79 63 1
1 130 131 132 80 81 82 1
1 130 132 133 80 82 83 1
1 132 121 124 82 73 75 1
1 132 124 133 82 75 83 1
1 131 118 121 81 72 73 1
1 131 121 132 81 73 82 1
1 130 123 118 80 74 72 1
1 130 118 131 80 72 81 1
1 133 124 123 83 75 74 1
1 133 123 130 83 74 80 1
1 134 135 136 84 84 84 1
1 135 137 136 84 84 84 1
1 138 139 140 39 39 39 2
1 139 141 140 39 39 39 2
1 142 143 144 34 34 34 1
1 143 145 144 34 34 34 1
1 146 147 148 20 20 20 2
1 147 149 148 20 20 20 2
1 146 150 140 85 85 85 3
1 150 151 140 85 85 85 3
1 152 147 153 86 86 86 3
1 147 141 153 86 86 86 3

Materials: 1
"ignignokt"
0.800000 0.800000 0.800000 1.000000
0.800000 0.800000 0.800000 1.000000
0.000000 0.000000 0.000000 1.000000
0.000000 0.000000 0.000000 1.000000
0.128000
1.000000
".\ignignokt.bmp"
""

Bones: 0
GroupComments: 0
MaterialComments: 0
BoneComments: 0
ModelComment: 0
