// MilkShape 3D ASCII

Frames: 30
Frame: 1

Meshes: 23
"Box01" 0 3
8
0 -11.375999 25.000000 11.375999 0.112127 0.887607 -1
0 -23.152498 0.000000 23.152498 0.008894 0.991843 -1
0 11.375999 25.000000 11.375999 0.311570 0.887607 -1
0 23.152498 0.000000 23.152498 0.414803 0.991843 -1
0 11.375999 25.000000 -11.375999 0.311570 0.686224 -1
0 23.152498 0.000000 -23.152498 0.414803 0.581988 -1
0 -11.375999 25.000000 -11.375999 0.112127 0.686224 -1
0 -23.152498 0.000000 -23.152498 0.008894 0.581988 -1
5
0.000000 0.426146 0.904654
0.904654 0.426146 0.000000
0.000000 0.426146 -0.904654
-0.904654 0.426146 0.000000
0.000000 1.000000 0.000000
10
0 0 1 2 0 0 0 1
0 1 3 2 0 0 0 1
0 2 3 4 1 1 1 2
0 3 5 4 1 1 1 2
0 4 5 6 2 2 2 1
0 5 7 6 2 2 2 1
0 6 7 0 3 3 3 2
0 7 1 0 3 3 3 2
0 6 0 4 4 4 4 3
0 0 2 4 4 4 4 3
"Cylinder01" 0 2
35
0 6.684561 23.250000 -29.250000 0.000000 0.000000 -1
0 -0.000000 24.500000 -29.250000 0.000000 0.000000 -1
0 4.726697 23.250000 -24.523304 0.000000 0.000000 -1
0 9.572109 0.000000 -29.250000 0.000000 1.000000 -1
0 9.572109 19.875000 -29.250000 0.000000 0.500000 -1
0 6.768504 19.875000 -22.481495 0.125000 0.500000 -1
0 6.768504 0.000000 -22.481495 0.125000 1.000000 -1
0 4.726697 23.250000 -24.523304 0.125000 0.000000 -1
0 0.000000 23.250000 -22.565437 0.000000 0.000000 -1
0 0.000000 0.000000 -19.677891 0.250000 1.000000 -1
0 0.000000 19.875000 -19.677891 0.250000 0.500000 -1
0 0.000000 23.250000 -22.565437 0.250000 0.000000 -1
0 -4.726697 23.250000 -24.523304 0.000000 0.000000 -1
0 -6.768504 19.875000 -22.481495 0.375000 0.500000 -1
0 -6.768504 0.000000 -22.481495 0.375000 1.000000 -1
0 -4.726697 23.250000 -24.523304 0.375000 0.000000 -1
0 -6.684561 23.250000 -29.250000 0.000000 0.000000 -1
0 -9.572109 0.000000 -29.250000 0.500000 1.000000 -1
0 -9.572109 19.875000 -29.250000 0.500000 0.500000 -1
0 -6.684561 23.250000 -29.250000 0.500000 0.000000 -1
0 -4.726697 23.250000 -33.976700 0.000000 0.000000 -1
0 -6.768504 19.875000 -36.018501 0.625000 0.500000 -1
0 -6.768504 0.000000 -36.018501 0.625000 1.000000 -1
0 -4.726697 23.250000 -33.976700 0.625000 0.000000 -1
0 -0.000000 23.250000 -35.934555 0.000000 0.000000 -1
0 -0.000000 0.000000 -38.822109 0.750000 1.000000 -1
0 -0.000000 19.875000 -38.822109 0.750000 0.500000 -1
0 -0.000000 23.250000 -35.934555 0.750000 0.000000 -1
0 4.726697 23.250000 -33.976700 0.000000 0.000000 -1
0 6.768504 19.875000 -36.018501 0.875000 0.500000 -1
0 6.768504 0.000000 -36.018501 0.875000 1.000000 -1
0 4.726697 23.250000 -33.976700 0.875000 0.000000 -1
0 9.572109 0.000000 -29.250000 1.000000 1.000000 -1
0 9.572109 19.875000 -29.250000 1.000000 0.500000 -1
0 6.684561 23.250000 -29.250000 1.000000 0.000000 -1
33
0.183812 0.982961 0.000000
0.000000 1.000000 -0.000000
0.129975 0.982961 0.129975
1.000000 0.000000 -0.000000
0.935982 0.352049 -0.000000
0.661839 0.352049 0.661839
0.707107 0.000000 0.707107
0.759847 0.650102 -0.000000
0.537293 0.650103 0.537292
0.000000 0.982961 0.183812
0.000000 0.000000 1.000000
-0.000000 0.352049 0.935982
0.000000 0.650102 0.759847
-0.129975 0.982961 0.129975
-0.661839 0.352049 0.661839
-0.707107 0.000000 0.707107
-0.537293 0.650103 0.537292
-0.183812 0.982961 0.000000
-1.000000 0.000000 -0.000000
-0.935982 0.352049 -0.000000
-0.759847 0.650102 -0.000000
-0.129975 0.982961 -0.129975
-0.661839 0.352049 -0.661839
-0.707107 0.000000 -0.707107
-0.537293 0.650102 -0.537293
0.000000 0.982961 -0.183812
0.000000 0.000000 -1.000000
0.000000 0.352049 -0.935981
0.000000 0.650102 -0.759847
0.129975 0.982961 -0.129975
0.661839 0.352049 -0.661839
0.707107 0.000000 -0.707107
0.537293 0.650102 -0.537293
40
0 0 1 2 0 1 2 2
0 3 4 5 3 4 5 1
0 3 5 6 3 5 6 1
0 4 0 5 4 7 5 1
0 0 7 5 7 8 5 1
0 2 1 8 2 1 9 2
0 6 5 9 6 5 10 1
0 5 10 9 5 11 10 1
0 5 7 11 5 8 12 1
0 5 11 10 5 12 11 1
0 8 1 12 9 1 13 2
0 9 10 13 10 11 14 1
0 9 13 14 10 14 15 1
0 10 11 13 11 12 14 1
0 11 15 13 12 16 14 1
0 12 1 16 13 1 17 2
0 14 13 17 15 14 18 1
0 13 18 17 14 19 18 1
0 13 15 19 14 16 20 1
0 13 19 18 14 20 19 1
0 16 1 20 17 1 21 2
0 17 18 21 18 19 22 1
0 17 21 22 18 22 23 1
0 18 19 21 19 20 22 1
0 19 23 21 20 24 22 1
0 20 1 24 21 1 25 2
0 22 21 25 23 22 26 1
0 21 26 25 22 27 26 1
0 21 23 27 22 24 28 1
0 21 27 26 22 28 27 1
0 24 1 28 25 1 29 2
0 25 26 29 26 27 30 1
0 25 29 30 26 30 31 1
0 26 27 29 27 28 30 1
0 27 31 29 28 32 30 1
0 28 1 0 29 1 0 2
0 30 29 32 31 30 3 1
0 29 33 32 30 4 3 1
0 29 31 34 30 32 7 1
0 29 34 33 30 7 4 1
"Box02" 0 3
8
0 -7.756638 17.032501 25.449776 0.035306 0.240759 -1
0 -7.756638 0.041771 25.449776 0.035306 0.240759 -1
0 7.756638 17.032501 25.449776 0.204240 0.240759 -1
0 7.756638 0.041771 25.449776 0.204240 0.240759 -1
0 7.756638 17.032501 13.871382 0.204240 0.073377 -1
0 7.756638 0.041771 13.871382 0.204240 0.073377 -1
0 -7.756638 17.032501 13.871382 0.035306 0.073377 -1
0 -7.756638 0.041771 13.871382 0.035306 0.073377 -1
5
0.000000 0.000000 1.000000
1.000000 0.000000 0.000000
0.000000 0.000000 -1.000000
-1.000000 0.000000 0.000000
0.000000 1.000000 0.000000
10
0 0 1 2 0 0 0 1
0 1 3 2 0 0 0 1
0 2 3 4 1 1 1 2
0 3 5 4 1 1 1 2
0 4 5 6 2 2 2 1
0 5 7 6 2 2 2 1
0 6 7 0 3 3 3 2
0 7 1 0 3 3 3 2
0 6 0 4 4 4 4 3
0 0 2 4 4 4 4 3
"Duplicate01" 0 3
18
0 -4.888616 10.817063 31.579510 0.038102 0.074524 -1
0 -4.888616 0.108664 31.579510 0.038102 0.240904 -1
0 4.888616 10.817063 31.579510 0.203466 0.074524 -1
0 4.888616 0.108664 31.579510 0.203466 0.240904 -1
0 4.888616 10.817063 31.579510 0.038102 0.074524 -1
0 4.888616 0.108664 31.579510 0.038102 0.240904 -1
0 4.888616 10.817063 24.282227 0.203466 0.074524 -1
0 4.888616 0.108664 24.282227 0.203466 0.240904 -1
0 4.888616 10.817063 24.282227 0.038102 0.074524 -1
0 4.888616 0.108664 24.282227 0.038102 0.240904 -1
0 -4.888616 10.817063 24.282227 0.203466 0.074524 -1
0 -4.888616 0.108664 24.282227 0.203466 0.240904 -1
0 -4.888616 10.817063 24.282227 0.038102 0.074524 -1
0 -4.888616 0.108664 24.282227 0.038102 0.240904 -1
0 -4.888616 10.817063 31.579510 0.203466 0.074524 -1
0 -4.888616 0.108664 31.579510 0.203466 0.240904 -1
0 -4.888616 10.817063 31.579510 0.038102 0.240904 -1
0 4.888616 10.817063 31.579510 0.203466 0.240904 -1
5
0.000000 0.000000 1.000000
1.000000 0.000000 0.000000
0.000000 0.000000 -1.000000
-1.000000 0.000000 0.000000
0.000000 1.000000 0.000000
10
0 0 1 2 0 0 0 1
0 1 3 2 0 0 0 1
0 4 5 6 1 1 1 2
0 5 7 6 1 1 1 2
0 8 9 10 2 2 2 1
0 9 11 10 2 2 2 1
0 12 13 14 3 3 3 2
0 13 15 14 3 3 3 2
0 12 16 6 4 4 4 3
0 16 17 6 4 4 4 3
"Cylinder02" 0 3
28
0 -19.417643 0.000000 -0.125000 0.014186 0.484721 -1
0 -19.417643 10.833333 -0.125000 0.014186 0.414561 -1
0 -21.761150 0.000000 4.710652 0.049070 0.484721 -1
0 -21.761150 10.833333 4.710652 0.049070 0.414561 -1
0 -15.862751 14.326765 -0.125000 0.014186 0.344401 -1
0 -17.356649 15.873563 4.710652 0.049070 0.344401 -1
0 -10.639856 13.314692 -0.125000 0.014186 0.274240 -1
0 -10.639856 15.502192 4.710652 0.049070 0.274240 -1
0 -26.448164 10.833333 4.710652 0.083953 0.414561 -1
0 -26.448164 0.000000 4.710652 0.083953 0.484721 -1
0 -20.344431 18.967152 4.710652 0.083953 0.344401 -1
0 -10.639856 19.877190 4.710652 0.083953 0.274240 -1
0 -28.791672 0.000000 -0.125000 0.118836 0.484721 -1
0 -28.791672 10.833333 -0.125000 0.118836 0.414561 -1
0 -21.838316 20.513950 -0.125000 0.118836 0.344401 -1
0 -10.639856 22.064690 -0.125000 0.118836 0.274240 -1
0 -26.448164 10.833333 -4.960652 0.153719 0.414561 -1
0 -26.448164 0.000000 -4.960652 0.153719 0.484721 -1
0 -20.344431 18.967152 -4.960652 0.153719 0.344401 -1
0 -10.639856 19.877190 -4.960652 0.153719 0.274240 -1
0 -21.761150 0.000000 -4.960652 0.188603 0.484721 -1
0 -21.761150 10.833333 -4.960652 0.188603 0.414561 -1
0 -17.356649 15.873563 -4.960652 0.188603 0.344401 -1
0 -10.639856 15.502192 -4.960652 0.188603 0.274240 -1
0 -19.417643 10.833333 -0.125000 0.223486 0.414561 -1
0 -19.417643 0.000000 -0.125000 0.223486 0.484721 -1
0 -15.862751 14.326765 -0.125000 0.223486 0.344401 -1
0 -10.639856 13.314692 -0.125000 0.223486 0.274240 -1
24
1.000000 0.000000 0.000000
0.927373 -0.374138 0.000000
0.530982 0.000000 0.847383
0.491633 -0.189081 0.850026
0.273686 -0.961819 -0.000000
0.175374 -0.493277 0.852010
-0.125079 -0.992147 0.000000
-0.029943 -0.541558 0.840130
-0.496690 0.165027 0.852095
-0.530982 0.000000 0.847383
-0.255089 0.463232 0.848732
-0.064514 0.557680 0.827545
-1.000000 0.000000 0.000000
-0.950228 0.311555 0.000000
-0.501298 0.865275 -0.000000
-0.137169 0.990548 0.000000
-0.496690 0.165027 -0.852095
-0.530982 0.000000 -0.847383
-0.255089 0.463232 -0.848732
-0.064514 0.557680 -0.827545
0.530982 0.000000 -0.847383
0.491633 -0.189081 -0.850026
0.175374 -0.493277 -0.852010
-0.029943 -0.541558 -0.840130
36
0 0 1 2 0 1 2 1
0 1 3 2 1 3 2 1
0 1 4 5 1 4 5 1
0 1 5 3 1 5 3 1
0 4 6 5 4 6 5 1
0 6 7 5 6 7 5 1
0 2 3 8 2 3 8 1
0 2 8 9 2 8 9 1
0 3 5 8 3 5 8 1
0 5 10 8 5 10 8 1
0 5 7 11 5 7 11 1
0 5 11 10 5 11 10 1
0 9 8 12 9 8 12 1
0 8 13 12 8 13 12 1
0 8 10 14 8 10 14 1
0 8 14 13 8 14 13 1
0 10 11 14 10 11 14 1
0 11 15 14 11 15 14 1
0 12 13 16 12 13 16 1
0 12 16 17 12 16 17 1
0 13 14 16 13 14 16 1
0 14 18 16 14 18 16 1
0 14 15 19 14 15 19 1
0 14 19 18 14 19 18 1
0 17 16 20 17 16 20 1
0 16 21 20 16 21 20 1
0 16 18 22 16 18 22 1
0 16 22 21 16 22 21 1
0 18 19 22 18 19 22 1
0 19 23 22 19 23 22 1
0 20 21 24 20 21 1 1
0 20 24 25 20 1 0 1
0 21 22 24 21 22 1 1
0 22 26 24 22 4 1 1
0 22 23 27 22 23 6 1
0 22 27 26 22 6 4 1
"Box03" 0 3
18
0 -29.461248 2.977672 6.415941 0.037937 0.074373 -1
0 -29.461248 0.022329 6.415941 0.037937 0.241717 -1
0 29.461248 2.977672 6.415941 0.204379 0.074373 -1
0 29.461248 0.022329 6.415941 0.204379 0.241717 -1
0 29.461248 2.977672 6.415941 0.037937 0.074373 -1
0 29.461248 0.022329 6.415941 0.037937 0.241717 -1
0 29.461248 2.977672 -6.665941 0.204379 0.074373 -1
0 29.461248 0.022329 -6.665941 0.204379 0.241717 -1
0 29.461248 2.977672 -6.665941 0.037937 0.074373 -1
0 29.461248 0.022329 -6.665941 0.037937 0.241717 -1
0 -29.461248 2.977672 -6.665941 0.204379 0.074373 -1
0 -29.461248 0.022329 -6.665941 0.204379 0.241717 -1
0 -29.461248 2.977672 -6.665941 0.037937 0.074373 -1
0 -29.461248 0.022329 -6.665941 0.037937 0.241717 -1
0 -29.461248 2.977672 6.415941 0.204379 0.074373 -1
0 -29.461248 0.022329 6.415941 0.204379 0.241717 -1
0 -29.461248 2.977672 6.415941 0.037937 0.241717 -1
0 29.461248 2.977672 6.415941 0.204379 0.241717 -1
5
0.000000 0.000000 1.000000
1.000000 0.000000 0.000000
0.000000 0.000000 -1.000000
-1.000000 0.000000 0.000000
0.000000 1.000000 0.000000
10
0 0 1 2 0 0 0 1
0 1 3 2 0 0 0 1
0 4 5 6 1 1 1 2
0 5 7 6 1 1 1 2
0 8 9 10 2 2 2 1
0 9 11 10 2 2 2 1
0 12 13 14 3 3 3 2
0 13 15 14 3 3 3 2
0 12 16 6 4 4 4 3
0 16 17 6 4 4 4 3
"gunrightbox" 0 3
8
0 -21.568443 58.592533 13.362339 0.643418 0.029176 -1
0 -28.245975 33.671642 13.362339 0.643418 0.329958 -1
0 -13.289116 56.374096 13.362339 0.643418 0.055952 -1
0 -19.966648 31.453205 13.362339 0.643418 0.356733 -1
0 -15.532986 54.126232 -19.120285 0.992517 0.083082 -1
0 -20.785967 34.521847 -19.120285 0.992517 0.319696 -1
0 -20.749126 55.523891 -19.120285 0.992517 0.066213 -1
0 -26.002108 35.919506 -19.120285 0.992517 0.302827 -1
14
0.000000 0.000000 1.000000
0.964777 -0.258511 -0.048756
0.964777 -0.258511 -0.048756
0.964777 -0.258511 -0.048756
0.000000 0.000000 -1.000000
-0.964777 0.258511 -0.048756
-0.964777 0.258511 -0.048756
-0.964777 0.258511 -0.048756
0.257895 0.962478 -0.084421
0.257895 0.962478 -0.084421
0.257895 0.962478 -0.084421
-0.257895 -0.962478 -0.084421
-0.257895 -0.962478 -0.084421
-0.257895 -0.962478 -0.084421
12
0 0 1 2 0 0 0 1
0 1 3 2 0 0 0 1
0 2 3 4 1 2 2 2
0 3 5 4 2 3 2 2
0 4 5 6 4 4 4 1
0 5 7 6 4 4 4 1
0 6 7 0 5 6 6 2
0 7 1 0 6 7 6 2
0 6 0 4 8 9 9 3
0 0 2 4 9 10 9 3
0 1 7 3 11 12 12 3
0 7 5 3 12 13 12 3
"gunrightflange" 0 3
8
0 -22.319023 59.359814 16.066006 0.539054 0.008362 -1
0 -29.279636 33.382450 16.066006 0.539054 0.337802 -1
0 -12.255452 56.663288 16.066006 0.539054 0.042558 -1
0 -19.216064 30.685925 16.066006 0.539054 0.371999 -1
0 -12.255452 56.663288 8.281158 0.641144 0.042558 -1
0 -19.216064 30.685925 8.281158 0.641144 0.371999 -1
0 -22.319023 59.359814 8.281158 0.641144 0.008362 -1
0 -29.279636 33.382450 8.281158 0.641144 0.337802 -1
6
0.000000 0.000000 1.000000
0.965926 -0.258819 0.000000
0.000000 0.000000 -1.000000
-0.965926 0.258819 0.000000
0.258819 0.965926 0.000000
-0.258819 -0.965926 0.000000
12
0 0 1 2 0 0 0 1
0 1 3 2 0 0 0 1
0 2 3 4 1 1 1 2
0 3 5 4 1 1 1 2
0 4 5 6 2 2 2 1
0 5 7 6 2 2 2 1
0 6 7 0 3 3 3 2
0 7 1 0 3 3 3 2
0 6 0 4 4 4 4 3
0 0 2 4 4 4 4 3
0 1 7 3 5 5 5 3
0 7 5 3 5 5 5 3
"gunrightmissile" 0 3
19
0 -20.191635 46.785816 19.580767 0.495691 0.171361 -1
0 -20.645071 45.093578 20.868225 0.482270 0.189885 -1
0 -18.952831 45.547016 19.580767 0.495691 0.184921 -1
0 -19.614836 48.938465 15.177652 0.541590 0.147796 -1
0 -19.887753 47.919926 18.190311 0.510186 0.158946 -1
0 -17.818726 45.850895 18.190311 0.510186 0.181595 -1
0 -16.800182 46.123814 15.177652 0.541590 0.178607 -1
0 -19.406265 43.854778 19.580767 0.495691 0.203445 -1
0 -17.830414 42.278927 15.177652 0.541590 0.220696 -1
0 -18.576040 43.024555 18.190311 0.510186 0.212534 -1
0 -21.098505 43.401340 19.580767 0.495691 0.208409 -1
0 -21.402388 42.267239 18.190311 0.510186 0.220824 -1
0 -21.675306 41.248692 15.177652 0.541590 0.231973 -1
0 -22.337309 44.640148 19.580767 0.495691 0.194848 -1
0 -24.489960 44.063351 15.177652 0.541590 0.201162 -1
0 -23.471418 44.336262 18.190311 0.510186 0.198175 -1
0 -21.883875 46.332386 19.580767 0.495691 0.176324 -1
0 -22.714100 47.162609 18.190311 0.510186 0.167236 -1
0 -23.459726 47.908230 15.177652 0.541590 0.159074 -1
25
0.153266 0.571995 0.805811
0.000000 0.000000 1.000000
0.571995 0.153266 0.805811
0.244288 0.911693 0.330361
0.224254 0.836925 0.499266
0.836925 0.224254 0.499266
0.911693 0.244288 0.330362
0.197750 0.738009 0.645165
0.738009 0.197750 0.645165
0.418730 -0.418730 0.805811
0.667406 -0.667405 0.330363
0.612672 -0.612672 0.499267
0.540260 -0.540260 0.645165
-0.153265 -0.571995 0.805811
-0.224253 -0.836925 0.499266
-0.244288 -0.911693 0.330363
-0.197749 -0.738010 0.645164
-0.571996 -0.153265 0.805811
-0.911693 -0.244288 0.330362
-0.836925 -0.224254 0.499266
-0.738009 -0.197749 0.645165
-0.418729 0.418730 0.805811
-0.612671 0.612672 0.499266
-0.667406 0.667406 0.330362
-0.540259 0.540261 0.645165
30
0 0 1 2 0 1 2 2
0 3 4 5 3 4 5 1
0 3 5 6 3 5 6 1
0 4 0 5 4 7 5 1
0 0 2 5 7 8 5 1
0 2 1 7 2 1 9 2
0 6 5 8 6 5 10 1
0 5 9 8 5 11 10 1
0 5 2 7 5 8 12 1
0 5 7 9 5 12 11 1
0 7 1 10 9 1 13 2
0 8 9 11 10 11 14 1
0 8 11 12 10 14 15 1
0 9 7 11 11 12 14 1
0 7 10 11 12 16 14 1
0 10 1 13 13 1 17 2
0 12 11 14 15 14 18 1
0 11 15 14 14 19 18 1
0 11 10 13 14 16 20 1
0 11 13 15 14 20 19 1
0 13 1 16 17 1 21 2
0 14 15 17 18 19 22 1
0 14 17 18 18 22 23 1
0 15 13 17 19 20 22 1
0 13 16 17 20 24 22 1
0 16 1 0 21 1 0 2
0 18 17 3 23 22 3 1
0 17 4 3 22 4 3 1
0 17 16 0 22 24 7 1
0 17 0 4 22 7 4 1
"turretbase" 0 3
14
0 10.050000 24.299999 0.000000 0.016055 0.275243 -1
0 10.050000 30.299999 0.000000 0.219322 0.274830 -1
0 5.050000 24.299999 8.660254 0.016574 0.305825 -1
0 5.050000 30.299999 8.660254 0.219840 0.305412 -1
0 -4.950000 30.299999 8.660254 0.220359 0.335994 -1
0 -4.950000 24.299999 8.660254 0.017092 0.336407 -1
0 -9.950000 24.299999 0.000000 0.017611 0.366990 -1
0 -9.950000 30.299999 0.000000 0.220878 0.366577 -1
0 -4.950000 30.299999 -8.660254 0.221396 0.397159 -1
0 -4.950000 24.299999 -8.660254 0.018129 0.397572 -1
0 5.050000 24.299999 -8.660254 0.018648 0.428154 -1
0 5.050000 30.299999 -8.660254 0.221915 0.427741 -1
0 10.050000 30.299999 0.000000 0.222433 0.458324 -1
0 10.050000 24.299999 0.000000 0.019167 0.458737 -1
6
1.000000 0.000000 0.000000
0.500000 0.000000 0.866025
-0.500000 0.000000 0.866025
-1.000000 0.000000 0.000000
-0.500000 0.000000 -0.866025
0.500000 0.000000 -0.866025
12
0 0 1 2 0 0 1 1
0 1 3 2 0 1 1 1
0 2 3 4 1 1 2 1
0 2 4 5 1 2 2 1
0 5 4 6 2 2 3 1
0 4 7 6 2 3 3 1
0 6 7 8 3 3 4 1
0 6 8 9 3 4 4 1
0 9 8 10 4 4 5 1
0 8 11 10 4 5 5 1
0 10 11 12 5 5 0 1
0 10 12 13 5 0 0 1
"gunarm" 0 3
14
0 -18.461746 43.267857 -5.971427 0.015862 0.480610 -1
0 18.461746 43.267857 -5.971427 0.015862 0.276384 -1
0 -18.461746 38.071705 -2.971428 0.050307 0.480610 -1
0 18.461746 38.071705 -2.971428 0.050307 0.276384 -1
0 18.461746 38.071705 3.028572 0.084752 0.276384 -1
0 -18.461746 38.071705 3.028572 0.084752 0.480610 -1
0 -18.461746 43.267857 6.028572 0.119197 0.480610 -1
0 18.461746 43.267857 6.028572 0.119197 0.276384 -1
0 18.461746 48.464008 3.028572 0.153641 0.276384 -1
0 -18.461746 48.464008 3.028572 0.153641 0.480610 -1
0 -18.461746 48.464008 -2.971428 0.188086 0.480610 -1
0 18.461746 48.464008 -2.971428 0.188086 0.276384 -1
0 18.461746 43.267857 -5.971427 0.222531 0.276384 -1
0 -18.461746 43.267857 -5.971427 0.222531 0.480610 -1
6
0.000000 0.000000 -1.000000
0.000000 -0.866025 -0.500000
0.000000 -0.866025 0.500000
0.000000 0.000000 1.000000
0.000000 0.866025 0.500000
0.000000 0.866025 -0.500000
12
0 0 1 2 0 0 1 1
0 1 3 2 0 1 1 1
0 2 3 4 1 1 2 1
0 2 4 5 1 2 2 1
0 5 4 6 2 2 3 1
0 4 7 6 2 3 3 1
0 6 7 8 3 3 4 1
0 6 8 9 3 4 4 1
0 9 8 10 4 4 5 1
0 8 11 10 4 5 5 1
0 10 11 12 5 5 0 1
0 10 12 13 5 0 0 1
"gunpivot" 0 0
20
0 -0.472606 43.642857 0.202331 0.000000 0.000000 -1
0 -0.472606 43.142857 0.202331 0.000000 1.000000 -1
0 0.472606 43.642857 0.202331 1.000000 0.000000 -1
0 0.472606 43.142857 0.202331 1.000000 1.000000 -1
0 0.472606 43.642857 0.202331 0.000000 0.000000 -1
0 0.472606 43.142857 0.202331 0.000000 1.000000 -1
0 0.472606 43.642857 -0.395187 1.000000 0.000000 -1
0 0.472606 43.142857 -0.395187 1.000000 1.000000 -1
0 0.472606 43.642857 -0.395187 0.000000 0.000000 -1
0 0.472606 43.142857 -0.395187 0.000000 1.000000 -1
0 -0.472606 43.642857 -0.395187 1.000000 0.000000 -1
0 -0.472606 43.142857 -0.395187 1.000000 1.000000 -1
0 -0.472606 43.642857 -0.395187 0.000000 0.000000 -1
0 -0.472606 43.142857 -0.395187 0.000000 1.000000 -1
0 -0.472606 43.642857 0.202331 1.000000 0.000000 -1
0 -0.472606 43.142857 0.202331 1.000000 1.000000 -1
0 -0.472606 43.642857 0.202331 0.000000 1.000000 -1
0 0.472606 43.642857 0.202331 1.000000 1.000000 -1
0 -0.472606 43.142857 0.202331 0.000000 0.000000 -1
0 0.472606 43.142857 0.202331 1.000000 0.000000 -1
6
0.000000 0.000000 1.000000
1.000000 0.000000 0.000000
0.000000 0.000000 -1.000000
-1.000000 0.000000 0.000000
0.000000 1.000000 0.000000
0.000000 -1.000000 0.000000
12
0 0 1 2 0 0 0 1
0 1 3 2 0 0 0 1
0 4 5 6 1 1 1 2
0 5 7 6 1 1 1 2
0 8 9 10 2 2 2 1
0 9 11 10 2 2 2 1
0 12 13 14 3 3 3 2
0 13 15 14 3 3 3 2
0 12 16 6 4 4 4 3
0 16 17 6 4 4 4 3
0 18 13 19 5 5 5 3
0 13 7 19 5 5 5 3
"turretpivot" 0 0
20
0 -0.472606 43.642857 0.202331 0.000000 0.000000 -1
0 -0.472606 43.142857 0.202331 0.000000 1.000000 -1
0 0.472606 43.642857 0.202331 1.000000 0.000000 -1
0 0.472606 43.142857 0.202331 1.000000 1.000000 -1
0 0.472606 43.642857 0.202331 0.000000 0.000000 -1
0 0.472606 43.142857 0.202331 0.000000 1.000000 -1
0 0.472606 43.642857 -0.395187 1.000000 0.000000 -1
0 0.472606 43.142857 -0.395187 1.000000 1.000000 -1
0 0.472606 43.642857 -0.395187 0.000000 0.000000 -1
0 0.472606 43.142857 -0.395187 0.000000 1.000000 -1
0 -0.472606 43.642857 -0.395187 1.000000 0.000000 -1
0 -0.472606 43.142857 -0.395187 1.000000 1.000000 -1
0 -0.472606 43.642857 -0.395187 0.000000 0.000000 -1
0 -0.472606 43.142857 -0.395187 0.000000 1.000000 -1
0 -0.472606 43.642857 0.202331 1.000000 0.000000 -1
0 -0.472606 43.142857 0.202331 1.000000 1.000000 -1
0 -0.472606 43.642857 0.202331 0.000000 1.000000 -1
0 0.472606 43.642857 0.202331 1.000000 1.000000 -1
0 -0.472606 43.142857 0.202331 0.000000 0.000000 -1
0 0.472606 43.142857 0.202331 1.000000 0.000000 -1
6
0.000000 0.000000 1.000000
1.000000 0.000000 0.000000
0.000000 0.000000 -1.000000
-1.000000 0.000000 0.000000
0.000000 1.000000 0.000000
0.000000 -1.000000 0.000000
12
0 0 1 2 0 0 0 1
0 1 3 2 0 0 0 1
0 4 5 6 1 1 1 2
0 5 7 6 1 1 1 2
0 8 9 10 2 2 2 1
0 9 11 10 2 2 2 1
0 12 13 14 3 3 3 2
0 13 15 14 3 3 3 2
0 12 16 6 4 4 4 3
0 16 17 6 4 4 4 3
0 18 13 19 5 5 5 3
0 13 7 19 5 5 5 3
"turrettop" 1 3
25
1 2.811875 58.250309 -5.168601 0.822734 0.666977 -1
1 0.014706 59.250309 -5.168601 0.822734 0.657836 -1
1 1.413290 58.250309 -0.123961 0.773979 0.666977 -1
1 5.463644 53.149685 -3.487692 0.806488 0.713602 -1
1 7.056670 54.916561 -3.487692 0.806488 0.697451 -1
1 2.739174 53.149685 4.516506 0.729130 0.713602 -1
1 3.535687 54.916561 7.401013 0.701252 0.697451 -1
1 5.750430 56.883434 -5.168601 0.822734 0.679471 -1
1 2.882567 56.883434 4.167101 0.732507 0.679471 -1
1 -1.383878 58.250309 -0.123961 0.773979 0.666977 -1
1 -3.506275 54.916561 7.401013 0.701252 0.697451 -1
1 -2.709762 53.149685 4.516506 0.729130 0.713602 -1
1 -2.853155 56.883434 4.167101 0.732507 0.679471 -1
1 -2.782462 58.250309 -5.168601 0.822734 0.666977 -1
1 -5.434230 53.149685 -3.487692 0.806488 0.713602 -1
1 -7.027258 54.916561 -3.487692 0.806488 0.697451 -1
1 -5.721016 56.883434 -5.168601 0.822734 0.679471 -1
1 -1.383878 58.250309 -10.213243 0.871489 0.666977 -1
1 -3.506275 54.916561 -14.376398 0.911724 0.697451 -1
1 -2.709762 53.149685 -11.491890 0.883847 0.713602 -1
1 -2.853155 56.883434 -14.504307 0.912960 0.679471 -1
1 1.413290 58.250309 -10.213243 0.871489 0.666977 -1
1 2.739174 53.149685 -11.491890 0.883847 0.713602 -1
1 3.535687 54.916561 -14.376398 0.911724 0.697451 -1
1 2.882567 56.883434 -14.504307 0.912960 0.679471 -1
31
0.336638 0.941634 0.000000
-0.000000 1.000000 0.000000
0.170262 0.974526 0.145977
0.742701 -0.669623 0.000000
0.992891 -0.117622 -0.018209
0.385210 -0.825747 0.412014
0.689049 -0.021625 0.724392
0.654958 0.755525 -0.014557
0.311014 0.896412 0.315778
0.439565 0.898211 0.000000
0.233980 0.946687 0.221442
-0.170262 0.974526 0.145977
-0.689225 -0.011071 0.724462
-0.370596 -0.834097 0.408584
-0.317895 0.892881 0.318915
-0.219889 0.950301 0.220399
-0.336638 0.941634 0.000000
-0.724031 -0.689767 0.000000
-0.995335 -0.094508 -0.019401
-0.670422 0.741827 -0.015026
-0.421757 0.906709 0.000000
-0.170262 0.974526 -0.145977
-0.556166 -0.439950 -0.705070
-0.370596 -0.834097 -0.408583
-0.449912 0.686537 -0.571180
-0.219889 0.950301 -0.220399
0.170262 0.974526 -0.145977
0.385210 -0.825747 -0.412014
0.552385 -0.451657 -0.700626
0.442799 0.694737 -0.566806
0.233980 0.946687 -0.221442
42
1 0 1 2 0 1 2 2
1 3 4 5 3 4 5 1
1 4 6 5 4 6 5 1
1 4 7 8 4 7 8 1
1 4 8 6 4 8 6 1
1 7 0 8 7 9 8 1
1 0 2 8 9 10 8 1
1 2 1 9 2 1 11 2
1 5 6 10 5 6 12 1
1 5 10 11 5 12 13 1
1 6 8 10 6 8 12 1
1 8 12 10 8 14 12 1
1 8 2 9 8 10 15 1
1 8 9 12 8 15 14 1
1 9 1 13 11 1 16 2
1 11 10 14 13 12 17 1
1 10 15 14 12 18 17 1
1 10 12 16 12 14 19 1
1 10 16 15 12 19 18 1
1 12 9 16 14 15 19 1
1 9 13 16 15 20 19 1
1 13 1 17 16 1 21 2
1 14 15 18 17 18 22 1
1 14 18 19 17 22 23 1
1 15 16 18 18 19 22 1
1 16 20 18 19 24 22 1
1 16 13 17 19 20 25 1
1 16 17 20 19 25 24 1
1 17 1 21 21 1 26 2
1 19 18 22 23 22 27 1
1 18 23 22 22 28 27 1
1 18 20 24 22 24 29 1
1 18 24 23 22 29 28 1
1 20 17 24 24 25 29 1
1 17 21 24 25 30 29 1
1 21 1 0 26 1 0 2
1 22 23 4 27 28 4 1
1 22 4 3 27 4 3 1
1 23 24 4 28 29 4 1
1 24 7 4 29 7 4 1
1 24 21 0 29 30 9 1
1 24 0 7 29 9 7 1
"turretcenter" 0 3
26
0 13.160271 30.142857 1.028572 0.764236 0.940172 -1
0 6.580135 30.142857 15.878740 0.623783 0.940172 -1
0 0.000000 30.142857 1.028572 0.764236 0.940172 -1
0 10.183166 51.992855 -2.721428 0.799703 0.731431 -1
0 0.000000 53.392857 2.028572 0.754778 0.718057 -1
0 5.091583 51.992855 6.637878 0.711183 0.731431 -1
0 14.582018 34.292858 2.028572 0.754778 0.900525 -1
0 7.291009 34.292858 19.349079 0.590961 0.900525 -1
0 13.852917 45.642857 -0.721428 0.780787 0.792095 -1
0 6.926458 45.642857 13.386230 0.647357 0.792095 -1
0 -6.580135 30.142857 15.878740 0.623783 0.940172 -1
0 -5.091583 51.992855 6.637878 0.711183 0.731431 -1
0 -7.291009 34.292858 19.349079 0.590961 0.900525 -1
0 -6.926458 45.642857 13.386230 0.647357 0.792095 -1
0 -13.160271 30.142857 1.028572 0.764236 0.940172 -1
0 -10.183166 51.992855 -2.721428 0.799703 0.731431 -1
0 -14.582018 34.292858 2.028572 0.754778 0.900525 -1
0 -13.852917 45.642857 -0.721428 0.780787 0.792095 -1
0 -6.580135 30.142857 -13.821597 0.904688 0.940172 -1
0 -5.091583 51.992855 -12.080737 0.888223 0.731431 -1
0 -7.291009 34.292858 -15.291935 0.918594 0.900525 -1
0 -6.926458 45.642857 -14.829088 0.914217 0.792095 -1
0 6.580135 30.142857 -13.821597 0.904688 0.940172 -1
0 5.091583 51.992855 -12.080737 0.888223 0.731431 -1
0 7.291009 34.292858 -15.291935 0.918594 0.900525 -1
0 6.926458 45.642857 -14.829088 0.914217 0.792095 -1
32
0.000000 -1.000000 0.000000
0.145106 0.989223 0.019521
0.000000 0.998955 0.045707
0.090955 0.976360 0.196082
0.946813 -0.321576 -0.011590
0.991522 -0.129672 -0.008292
0.477678 -0.597847 0.643741
0.582578 -0.129320 0.802421
0.957234 0.288981 -0.013928
0.466442 0.567397 0.678596
0.847654 0.529872 -0.026817
0.378779 0.723192 0.577512
-0.090955 0.976360 0.196082
-0.576070 -0.128842 0.807182
-0.463332 -0.613844 0.639155
-0.456181 0.581856 0.673307
-0.398969 0.709274 0.581166
-0.145106 0.989223 0.019521
-0.933180 -0.359206 -0.012089
-0.991167 -0.132453 -0.006609
-0.945725 0.324568 -0.016137
-0.869306 0.493463 -0.028323
-0.054497 0.995376 -0.079100
-0.541162 -0.162490 -0.825070
-0.512145 -0.363447 -0.778212
-0.508996 0.265645 -0.818753
-0.469157 0.439343 -0.766074
0.054497 0.995376 -0.079100
0.523067 -0.341888 -0.780714
0.548212 -0.161329 -0.820632
0.515078 0.245412 -0.821260
0.451037 0.461077 -0.764182
48
0 0 1 2 0 0 0 2
0 3 4 5 1 2 3 2
0 0 6 1 4 5 6 1
0 6 7 1 5 7 6 1
0 6 8 9 5 8 9 1
0 6 9 7 5 9 7 1
0 8 3 9 8 10 9 1
0 3 5 9 10 11 9 1
0 1 10 2 0 0 0 2
0 5 4 11 3 2 12 2
0 1 7 12 6 7 13 1
0 1 12 10 6 13 14 1
0 7 9 12 7 9 13 1
0 9 13 12 9 15 13 1
0 9 5 11 9 11 16 1
0 9 11 13 9 16 15 1
0 10 14 2 0 0 0 2
0 11 4 15 12 2 17 2
0 10 12 14 14 13 18 1
0 12 16 14 13 19 18 1
0 12 13 17 13 15 20 1
0 12 17 16 13 20 19 1
0 13 11 17 15 16 20 1
0 11 15 17 16 21 20 1
0 14 18 2 0 0 0 2
0 15 4 19 17 2 22 2
0 14 16 20 18 19 23 1
0 14 20 18 18 23 24 1
0 16 17 20 19 20 23 1
0 17 21 20 20 25 23 1
0 17 15 19 20 21 26 1
0 17 19 21 20 26 25 1
0 18 22 2 0 0 0 2
0 19 4 23 22 2 27 2
0 18 20 22 24 23 28 1
0 20 24 22 23 29 28 1
0 20 21 25 23 25 30 1
0 20 25 24 23 30 29 1
0 21 19 25 25 26 30 1
0 19 23 25 26 31 30 1
0 22 0 2 0 0 0 2
0 23 4 3 27 2 1 2
0 22 24 6 28 29 5 1
0 22 6 0 28 5 4 1
0 24 25 6 29 30 5 1
0 25 8 6 30 8 5 1
0 25 23 3 30 31 10 1
0 25 3 8 30 10 8 1
"gunrightmissile" 0 3
19
0 -18.009626 54.972061 19.580767 0.495691 0.171361 -1
0 -18.463062 53.279823 20.868225 0.482270 0.189885 -1
0 -16.770823 53.733261 19.580767 0.495691 0.184921 -1
0 -17.432827 57.124710 15.177652 0.541590 0.147796 -1
0 -17.705744 56.106171 18.190311 0.510186 0.158946 -1
0 -15.636717 54.037140 18.190311 0.510186 0.181595 -1
0 -14.618174 54.310059 15.177652 0.541590 0.178607 -1
0 -17.224257 52.041023 19.580767 0.495691 0.203445 -1
0 -15.648405 50.465172 15.177652 0.541590 0.220696 -1
0 -16.394032 51.210800 18.190311 0.510186 0.212534 -1
0 -18.916496 51.587585 19.580767 0.495691 0.208409 -1
0 -19.220379 50.453484 18.190311 0.510186 0.220824 -1
0 -19.493298 49.434937 15.177652 0.541590 0.231973 -1
0 -20.155300 52.826393 19.580767 0.495691 0.194848 -1
0 -22.307951 52.249596 15.177652 0.541590 0.201162 -1
0 -21.289410 52.522507 18.190311 0.510186 0.198175 -1
0 -19.701866 54.518631 19.580767 0.495691 0.176324 -1
0 -20.532091 55.348854 18.190311 0.510186 0.167236 -1
0 -21.277718 56.094475 15.177652 0.541590 0.159074 -1
25
0.153266 0.571995 0.805811
0.000000 0.000000 1.000000
0.571995 0.153266 0.805811
0.244288 0.911693 0.330361
0.224254 0.836925 0.499266
0.836925 0.224254 0.499266
0.911693 0.244288 0.330362
0.197750 0.738009 0.645165
0.738009 0.197750 0.645165
0.418730 -0.418730 0.805811
0.667406 -0.667405 0.330363
0.612672 -0.612672 0.499267
0.540260 -0.540260 0.645165
-0.153265 -0.571995 0.805811
-0.224253 -0.836925 0.499266
-0.244288 -0.911693 0.330363
-0.197749 -0.738010 0.645164
-0.571996 -0.153265 0.805811
-0.911693 -0.244288 0.330362
-0.836925 -0.224254 0.499266
-0.738009 -0.197749 0.645165
-0.418729 0.418730 0.805811
-0.612671 0.612672 0.499266
-0.667406 0.667406 0.330362
-0.540259 0.540261 0.645165
30
0 0 1 2 0 1 2 2
0 3 4 5 3 4 5 1
0 3 5 6 3 5 6 1
0 4 0 5 4 7 5 1
0 0 2 5 7 8 5 1
0 2 1 7 2 1 9 2
0 6 5 8 6 5 10 1
0 5 9 8 5 11 10 1
0 5 2 7 5 8 12 1
0 5 7 9 5 12 11 1
0 7 1 10 9 1 13 2
0 8 9 11 10 11 14 1
0 8 11 12 10 14 15 1
0 9 7 11 11 12 14 1
0 7 10 11 12 16 14 1
0 10 1 13 13 1 17 2
0 12 11 14 15 14 18 1
0 11 15 14 14 19 18 1
0 11 10 13 14 16 20 1
0 11 13 15 14 20 19 1
0 13 1 16 17 1 21 2
0 14 15 17 18 19 22 1
0 14 17 18 18 22 23 1
0 15 13 17 19 20 22 1
0 13 16 17 20 24 22 1
0 16 1 0 21 1 0 2
0 18 17 3 23 22 3 1
0 17 4 3 22 4 3 1
0 17 16 0 22 24 7 1
0 17 0 4 22 7 4 1
"gunrightmissile" 0 3
19
0 -22.391636 38.585819 19.580767 0.495691 0.171361 -1
0 -22.845072 36.893581 20.868225 0.482270 0.189885 -1
0 -21.152832 37.347019 19.580767 0.495691 0.184921 -1
0 -21.814837 40.738468 15.177652 0.541590 0.147796 -1
0 -22.087753 39.719929 18.190311 0.510186 0.158946 -1
0 -20.018726 37.650898 18.190311 0.510186 0.181595 -1
0 -19.000183 37.923817 15.177652 0.541590 0.178607 -1
0 -21.606266 35.654781 19.580767 0.495691 0.203445 -1
0 -20.030415 34.078930 15.177652 0.541590 0.220696 -1
0 -20.776041 34.824558 18.190311 0.510186 0.212534 -1
0 -23.298506 35.201344 19.580767 0.495691 0.208409 -1
0 -23.602388 34.067242 18.190311 0.510186 0.220824 -1
0 -23.875307 33.048695 15.177652 0.541590 0.231973 -1
0 -24.537310 36.440151 19.580767 0.495691 0.194848 -1
0 -26.689960 35.863354 15.177652 0.541590 0.201162 -1
0 -25.671419 36.136265 18.190311 0.510186 0.198175 -1
0 -24.083876 38.132389 19.580767 0.495691 0.176324 -1
0 -24.914101 38.962612 18.190311 0.510186 0.167236 -1
0 -25.659727 39.708233 15.177652 0.541590 0.159074 -1
25
0.153266 0.571995 0.805811
0.000000 0.000000 1.000000
0.571995 0.153266 0.805811
0.244288 0.911693 0.330361
0.224254 0.836925 0.499266
0.836925 0.224254 0.499266
0.911693 0.244288 0.330362
0.197750 0.738009 0.645165
0.738009 0.197750 0.645165
0.418730 -0.418730 0.805811
0.667406 -0.667405 0.330363
0.612672 -0.612672 0.499267
0.540260 -0.540260 0.645165
-0.153265 -0.571995 0.805811
-0.224253 -0.836925 0.499266
-0.244288 -0.911693 0.330363
-0.197749 -0.738010 0.645164
-0.571996 -0.153265 0.805811
-0.911693 -0.244288 0.330362
-0.836925 -0.224254 0.499266
-0.738009 -0.197749 0.645165
-0.418729 0.418730 0.805811
-0.612671 0.612672 0.499266
-0.667406 0.667406 0.330362
-0.540259 0.540261 0.645165
30
0 0 1 2 0 1 2 2
0 3 4 5 3 4 5 1
0 3 5 6 3 5 6 1
0 4 0 5 4 7 5 1
0 0 2 5 7 8 5 1
0 2 1 7 2 1 9 2
0 6 5 8 6 5 10 1
0 5 9 8 5 11 10 1
0 5 2 7 5 8 12 1
0 5 7 9 5 12 11 1
0 7 1 10 9 1 13 2
0 8 9 11 10 11 14 1
0 8 11 12 10 14 15 1
0 9 7 11 11 12 14 1
0 7 10 11 12 16 14 1
0 10 1 13 13 1 17 2
0 12 11 14 15 14 18 1
0 11 15 14 14 19 18 1
0 11 10 13 14 16 20 1
0 11 13 15 14 20 19 1
0 13 1 16 17 1 21 2
0 14 15 17 18 19 22 1
0 14 17 18 18 22 23 1
0 15 13 17 19 20 22 1
0 13 16 17 20 24 22 1
0 16 1 0 21 1 0 2
0 18 17 3 23 22 3 1
0 17 4 3 22 4 3 1
0 17 16 0 22 24 7 1
0 17 0 4 22 7 4 1
"gunleftbox" 0 3
8
0 13.289116 56.374096 13.362339 0.643418 0.055952 -1
0 28.245975 33.671642 13.362339 0.643418 0.329958 -1
0 21.568443 58.592533 13.362339 0.643418 0.029176 -1
0 19.966648 31.453205 13.362339 0.643418 0.356733 -1
0 15.532986 54.126232 -19.120285 0.992517 0.083082 -1
0 20.785967 34.521847 -19.120285 0.992517 0.319696 -1
0 20.749126 55.523891 -19.120285 0.992517 0.066213 -1
0 26.002108 35.919506 -19.120285 0.992517 0.302827 -1
14
0.000000 0.000000 1.000000
-0.964777 -0.258511 -0.048756
-0.964777 -0.258511 -0.048756
-0.964777 -0.258511 -0.048756
0.000000 0.000000 -1.000000
0.964777 0.258511 -0.048756
0.964777 0.258511 -0.048756
0.964777 0.258511 -0.048756
-0.257895 0.962478 -0.084421
-0.257895 0.962478 -0.084421
-0.257895 0.962478 -0.084421
0.257895 -0.962478 -0.084421
0.257895 -0.962478 -0.084421
0.257895 -0.962478 -0.084421
12
0 0 1 2 0 0 0 1
0 0 3 1 0 0 0 1
0 4 3 0 1 1 2 2
0 4 5 3 1 3 1 2
0 6 5 4 4 4 4 1
0 6 7 5 4 4 4 1
0 2 7 6 5 5 6 2
0 2 1 7 5 7 5 2
0 4 2 6 8 8 9 3
0 4 0 2 8 10 8 3
0 3 7 1 11 11 12 3
0 3 5 7 11 13 11 3
"gunleftflange" 0 3
8
0 12.255452 56.663288 16.066006 0.539054 0.042558 -1
0 29.279636 33.382450 16.066006 0.539054 0.337802 -1
0 22.319023 59.359814 16.066006 0.539054 0.008362 -1
0 19.216064 30.685925 16.066006 0.539054 0.371999 -1
0 12.255452 56.663288 8.281158 0.641144 0.042558 -1
0 19.216064 30.685925 8.281158 0.641144 0.371999 -1
0 22.319023 59.359814 8.281158 0.641144 0.008362 -1
0 29.279636 33.382450 8.281158 0.641144 0.337802 -1
6
0.000000 0.000000 1.000000
-0.965926 -0.258819 0.000000
0.000000 0.000000 -1.000000
0.965926 0.258819 0.000000
-0.258819 0.965926 0.000000
0.258819 -0.965926 0.000000
12
0 0 1 2 0 0 0 1
0 0 3 1 0 0 0 1
0 4 3 0 1 1 1 2
0 4 5 3 1 1 1 2
0 6 5 4 2 2 2 1
0 6 7 5 2 2 2 1
0 2 7 6 3 3 3 2
0 2 1 7 3 3 3 2
0 4 2 6 4 4 4 3
0 4 0 2 4 4 4 3
0 3 7 1 5 5 5 3
0 3 5 7 5 5 5 3
"gunleftmissile" 0 3
19
0 18.952831 45.547016 19.580767 0.495691 0.184921 -1
0 20.645071 45.093578 20.868225 0.482270 0.189885 -1
0 20.191635 46.785816 19.580767 0.495691 0.171361 -1
0 17.818726 45.850895 18.190311 0.510186 0.181595 -1
0 19.887753 47.919926 18.190311 0.510186 0.158946 -1
0 19.614836 48.938465 15.177652 0.541590 0.147796 -1
0 16.800182 46.123814 15.177652 0.541590 0.178607 -1
0 19.406265 43.854778 19.580767 0.495691 0.203445 -1
0 17.830414 42.278927 15.177652 0.541590 0.220696 -1
0 18.576040 43.024555 18.190311 0.510186 0.212534 -1
0 21.098505 43.401340 19.580767 0.495691 0.208409 -1
0 21.402388 42.267239 18.190311 0.510186 0.220824 -1
0 21.675306 41.248692 15.177652 0.541590 0.231973 -1
0 22.337309 44.640148 19.580767 0.495691 0.194848 -1
0 24.489960 44.063351 15.177652 0.541590 0.201162 -1
0 23.471418 44.336262 18.190311 0.510186 0.198175 -1
0 21.883875 46.332386 19.580767 0.495691 0.176324 -1
0 22.714100 47.162609 18.190311 0.510186 0.167236 -1
0 23.459726 47.908230 15.177652 0.541590 0.159074 -1
25
-0.571995 0.153266 0.805811
-0.000000 0.000000 1.000000
-0.153266 0.571995 0.805811
-0.836925 0.224254 0.499266
-0.224254 0.836925 0.499266
-0.244288 0.911693 0.330361
-0.911693 0.244288 0.330362
-0.197750 0.738009 0.645165
-0.738009 0.197750 0.645165
-0.418730 -0.418730 0.805811
-0.667406 -0.667405 0.330363
-0.612672 -0.612672 0.499267
-0.540260 -0.540260 0.645165
0.153265 -0.571995 0.805811
0.224253 -0.836925 0.499266
0.244288 -0.911693 0.330363
0.197749 -0.738010 0.645164
0.571996 -0.153265 0.805811
0.911693 -0.244288 0.330362
0.836925 -0.224254 0.499266
0.738009 -0.197749 0.645165
0.418729 0.418730 0.805811
0.612671 0.612672 0.499266
0.667406 0.667406 0.330362
0.540259 0.540261 0.645165
30
0 0 1 2 0 1 2 2
0 3 4 5 3 4 5 1
0 6 3 5 6 3 5 1
0 3 2 4 3 7 4 1
0 3 0 2 3 8 7 1
0 7 1 0 9 1 0 2
0 8 3 6 10 3 6 1
0 8 9 3 10 11 3 1
0 7 0 3 12 8 3 1
0 9 7 3 11 12 3 1
0 10 1 7 13 1 9 2
0 11 9 8 14 11 10 1
0 12 11 8 15 14 10 1
0 11 7 9 14 12 11 1
0 11 10 7 14 16 12 1
0 13 1 10 17 1 13 2
0 14 11 12 18 14 15 1
0 14 15 11 18 19 14 1
0 13 10 11 20 16 14 1
0 15 13 11 19 20 14 1
0 16 1 13 21 1 17 2
0 17 15 14 22 19 18 1
0 18 17 14 23 22 18 1
0 17 13 15 22 20 19 1
0 17 16 13 22 24 20 1
0 2 1 16 2 1 21 2
0 5 17 18 5 22 23 1
0 5 4 17 5 4 22 1
0 2 16 17 7 24 22 1
0 4 2 17 4 7 22 1
"gunleftmissile" 0 3
19
0 16.770823 53.733261 19.580767 0.495691 0.184921 -1
0 18.463062 53.279823 20.868225 0.482270 0.189885 -1
0 18.009626 54.972061 19.580767 0.495691 0.171361 -1
0 15.636717 54.037140 18.190311 0.510186 0.181595 -1
0 17.705744 56.106171 18.190311 0.510186 0.158946 -1
0 17.432827 57.124710 15.177652 0.541590 0.147796 -1
0 14.618174 54.310059 15.177652 0.541590 0.178607 -1
0 17.224257 52.041023 19.580767 0.495691 0.203445 -1
0 15.648405 50.465172 15.177652 0.541590 0.220696 -1
0 16.394032 51.210800 18.190311 0.510186 0.212534 -1
0 18.916496 51.587585 19.580767 0.495691 0.208409 -1
0 19.220379 50.453484 18.190311 0.510186 0.220824 -1
0 19.493298 49.434937 15.177652 0.541590 0.231973 -1
0 20.155300 52.826393 19.580767 0.495691 0.194848 -1
0 22.307951 52.249596 15.177652 0.541590 0.201162 -1
0 21.289410 52.522507 18.190311 0.510186 0.198175 -1
0 19.701866 54.518631 19.580767 0.495691 0.176324 -1
0 20.532091 55.348854 18.190311 0.510186 0.167236 -1
0 21.277718 56.094475 15.177652 0.541590 0.159074 -1
25
-0.571995 0.153266 0.805811
-0.000000 0.000000 1.000000
-0.153266 0.571995 0.805811
-0.836925 0.224254 0.499266
-0.224254 0.836925 0.499266
-0.244288 0.911693 0.330361
-0.911693 0.244288 0.330362
-0.197750 0.738009 0.645165
-0.738009 0.197750 0.645165
-0.418730 -0.418730 0.805811
-0.667406 -0.667405 0.330363
-0.612672 -0.612672 0.499267
-0.540260 -0.540260 0.645165
0.153265 -0.571995 0.805811
0.224253 -0.836925 0.499266
0.244288 -0.911693 0.330363
0.197749 -0.738010 0.645164
0.571996 -0.153265 0.805811
0.911693 -0.244288 0.330362
0.836925 -0.224254 0.499266
0.738009 -0.197749 0.645165
0.418729 0.418730 0.805811
0.612671 0.612672 0.499266
0.667406 0.667406 0.330362
0.540259 0.540261 0.645165
30
0 0 1 2 0 1 2 2
0 3 4 5 3 4 5 1
0 6 3 5 6 3 5 1
0 3 2 4 3 7 4 1
0 3 0 2 3 8 7 1
0 7 1 0 9 1 0 2
0 8 3 6 10 3 6 1
0 8 9 3 10 11 3 1
0 7 0 3 12 8 3 1
0 9 7 3 11 12 3 1
0 10 1 7 13 1 9 2
0 11 9 8 14 11 10 1
0 12 11 8 15 14 10 1
0 11 7 9 14 12 11 1
0 11 10 7 14 16 12 1
0 13 1 10 17 1 13 2
0 14 11 12 18 14 15 1
0 14 15 11 18 19 14 1
0 13 10 11 20 16 14 1
0 15 13 11 19 20 14 1
0 16 1 13 21 1 17 2
0 17 15 14 22 19 18 1
0 18 17 14 23 22 18 1
0 17 13 15 22 20 19 1
0 17 16 13 22 24 20 1
0 2 1 16 2 1 21 2
0 5 17 18 5 22 23 1
0 5 4 17 5 4 22 1
0 2 16 17 7 24 22 1
0 4 2 17 4 7 22 1
"gunleftmissile" 0 3
19
0 21.152832 37.347019 19.580767 0.495691 0.184921 -1
0 22.845072 36.893581 20.868225 0.482270 0.189885 -1
0 22.391636 38.585819 19.580767 0.495691 0.171361 -1
0 20.018726 37.650898 18.190311 0.510186 0.181595 -1
0 22.087753 39.719929 18.190311 0.510186 0.158946 -1
0 21.814837 40.738468 15.177652 0.541590 0.147796 -1
0 19.000183 37.923817 15.177652 0.541590 0.178607 -1
0 21.606266 35.654781 19.580767 0.495691 0.203445 -1
0 20.030415 34.078930 15.177652 0.541590 0.220696 -1
0 20.776041 34.824558 18.190311 0.510186 0.212534 -1
0 23.298506 35.201344 19.580767 0.495691 0.208409 -1
0 23.602388 34.067242 18.190311 0.510186 0.220824 -1
0 23.875307 33.048695 15.177652 0.541590 0.231973 -1
0 24.537310 36.440151 19.580767 0.495691 0.194848 -1
0 26.689960 35.863354 15.177652 0.541590 0.201162 -1
0 25.671419 36.136265 18.190311 0.510186 0.198175 -1
0 24.083876 38.132389 19.580767 0.495691 0.176324 -1
0 24.914101 38.962612 18.190311 0.510186 0.167236 -1
0 25.659727 39.708233 15.177652 0.541590 0.159074 -1
25
-0.571995 0.153266 0.805811
-0.000000 0.000000 1.000000
-0.153266 0.571995 0.805811
-0.836925 0.224254 0.499266
-0.224254 0.836925 0.499266
-0.244288 0.911693 0.330361
-0.911693 0.244288 0.330362
-0.197750 0.738009 0.645165
-0.738009 0.197750 0.645165
-0.418730 -0.418730 0.805811
-0.667406 -0.667405 0.330363
-0.612672 -0.612672 0.499267
-0.540260 -0.540260 0.645165
0.153265 -0.571995 0.805811
0.224253 -0.836925 0.499266
0.244288 -0.911693 0.330363
0.197749 -0.738010 0.645164
0.571996 -0.153265 0.805811
0.911693 -0.244288 0.330362
0.836925 -0.224254 0.499266
0.738009 -0.197749 0.645165
0.418729 0.418730 0.805811
0.612671 0.612672 0.499266
0.667406 0.667406 0.330362
0.540259 0.540261 0.645165
30
0 0 1 2 0 1 2 2
0 3 4 5 3 4 5 1
0 6 3 5 6 3 5 1
0 3 2 4 3 7 4 1
0 3 0 2 3 8 7 1
0 7 1 0 9 1 0 2
0 8 3 6 10 3 6 1
0 8 9 3 10 11 3 1
0 7 0 3 12 8 3 1
0 9 7 3 11 12 3 1
0 10 1 7 13 1 9 2
0 11 9 8 14 11 10 1
0 12 11 8 15 14 10 1
0 11 7 9 14 12 11 1
0 11 10 7 14 16 12 1
0 13 1 10 17 1 13 2
0 14 11 12 18 14 15 1
0 14 15 11 18 19 14 1
0 13 10 11 20 16 14 1
0 15 13 11 19 20 14 1
0 16 1 13 21 1 17 2
0 17 15 14 22 19 18 1
0 18 17 14 23 22 18 1
0 17 13 15 22 20 19 1
0 17 16 13 22 24 20 1
0 2 1 16 2 1 21 2
0 5 17 18 5 22 23 1
0 5 4 17 5 4 22 1
0 2 16 17 7 24 22 1
0 4 2 17 4 7 22 1
"Duplicate08" 0 3
28
0 21.761150 0.000000 4.710652 0.049070 0.484721 -1
0 19.417643 10.833333 -0.125000 0.014186 0.414561 -1
0 19.417643 0.000000 -0.125000 0.014186 0.484721 -1
0 21.761150 10.833333 4.710652 0.049070 0.414561 -1
0 17.356649 15.873563 4.710652 0.049070 0.344401 -1
0 15.862751 14.326765 -0.125000 0.014186 0.344401 -1
0 10.639856 13.314692 -0.125000 0.014186 0.274240 -1
0 10.639856 15.502192 4.710652 0.049070 0.274240 -1
0 26.448164 10.833333 4.710652 0.083953 0.414561 -1
0 26.448164 0.000000 4.710652 0.083953 0.484721 -1
0 20.344431 18.967152 4.710652 0.083953 0.344401 -1
0 10.639856 19.877190 4.710652 0.083953 0.274240 -1
0 28.791672 0.000000 -0.125000 0.118836 0.484721 -1
0 28.791672 10.833333 -0.125000 0.118836 0.414561 -1
0 21.838316 20.513950 -0.125000 0.118836 0.344401 -1
0 10.639856 22.064690 -0.125000 0.118836 0.274240 -1
0 26.448164 10.833333 -4.960652 0.153719 0.414561 -1
0 26.448164 0.000000 -4.960652 0.153719 0.484721 -1
0 20.344431 18.967152 -4.960652 0.153719 0.344401 -1
0 10.639856 19.877190 -4.960652 0.153719 0.274240 -1
0 21.761150 0.000000 -4.960652 0.188603 0.484721 -1
0 21.761150 10.833333 -4.960652 0.188603 0.414561 -1
0 17.356649 15.873563 -4.960652 0.188603 0.344401 -1
0 10.639856 15.502192 -4.960652 0.188603 0.274240 -1
0 19.417643 10.833333 -0.125000 0.223486 0.414561 -1
0 19.417643 0.000000 -0.125000 0.223486 0.484721 -1
0 15.862751 14.326765 -0.125000 0.223486 0.344401 -1
0 10.639856 13.314692 -0.125000 0.223486 0.274240 -1
24
-0.530982 0.000000 0.847383
-0.927373 -0.374138 0.000000
-1.000000 0.000000 0.000000
-0.491633 -0.189081 0.850026
-0.175374 -0.493277 0.852010
-0.273686 -0.961819 -0.000000
0.125079 -0.992147 0.000000
0.029943 -0.541558 0.840130
0.496690 0.165027 0.852095
0.530982 0.000000 0.847383
0.255089 0.463232 0.848732
0.064514 0.557680 0.827545
1.000000 0.000000 0.000000
0.950228 0.311555 0.000000
0.501298 0.865275 -0.000000
0.137169 0.990548 0.000000
0.496690 0.165027 -0.852095
0.530982 0.000000 -0.847383
0.255089 0.463232 -0.848732
0.064514 0.557680 -0.827545
-0.530982 0.000000 -0.847383
-0.491633 -0.189081 -0.850026
-0.175374 -0.493277 -0.852010
0.029943 -0.541558 -0.840130
36
0 0 1 2 0 1 2 1
0 0 3 1 0 3 1 1
0 4 5 1 4 5 1 1
0 3 4 1 3 4 1 1
0 4 6 5 4 6 5 1
0 4 7 6 4 7 6 1
0 8 3 0 8 3 0 1
0 9 8 0 9 8 0 1
0 8 4 3 8 4 3 1
0 8 10 4 8 10 4 1
0 11 7 4 11 7 4 1
0 10 11 4 10 11 4 1
0 12 8 9 12 8 9 1
0 12 13 8 12 13 8 1
0 14 10 8 14 10 8 1
0 13 14 8 13 14 8 1
0 14 11 10 14 11 10 1
0 14 15 11 14 15 11 1
0 16 13 12 16 13 12 1
0 17 16 12 17 16 12 1
0 16 14 13 16 14 13 1
0 16 18 14 16 18 14 1
0 19 15 14 19 15 14 1
0 18 19 14 18 19 14 1
0 20 16 17 20 16 17 1
0 20 21 16 20 21 16 1
0 22 18 16 22 18 16 1
0 21 22 16 21 22 16 1
0 22 19 18 22 19 18 1
0 22 23 19 22 23 19 1
0 24 21 20 1 21 20 1
0 25 24 20 2 1 20 1
0 24 22 21 1 22 21 1
0 24 26 22 1 5 22 1
0 27 23 22 6 23 22 1
0 26 27 22 5 6 22 1

Materials: 4
"Material01"
0.800000 0.800000 0.800000 1.000000
0.800000 0.800000 0.800000 1.000000
0.000000 0.000000 0.000000 1.000000
0.000000 0.000000 0.000000 1.000000
0.000000
1.000000
".\chrome.bmp"
""
"red"
0.800000 0.800000 0.800000 1.000000
0.800000 0.800000 0.800000 1.000000
0.000000 0.000000 0.000000 1.000000
0.000000 0.000000 0.000000 1.000000
0.000000
1.000000
".\red.bmp"
""
"white"
0.800000 0.800000 0.800000 1.000000
0.800000 0.800000 0.800000 1.000000
0.000000 0.000000 0.000000 1.000000
0.000000 0.000000 0.000000 1.000000
0.000000
1.000000
".\white.bmp"
""
"side"
0.800000 0.800000 0.800000 1.000000
0.800000 0.800000 0.800000 1.000000
0.000000 0.000000 0.000000 1.000000
0.000000 0.000000 0.000000 1.000000
0.000000
1.000000
".\side.bmp"
""

Bones: 0
