// MilkShape 3D ASCII

Frames: 30
Frame: 1

Meshes: 33
"Cylinder02" 0 1
36
0 -3.027306 2.455897 7.218905 0.310451 0.155389 -1
0 -3.027306 1.862051 8.002338 0.295915 0.185344 -1
0 -3.027306 1.920835 -3.608014 0.723592 0.183023 -1
0 -4.657844 2.455897 7.218905 0.310451 0.155389 -1
0 -4.657844 1.920835 -3.608014 0.723592 0.183023 -1
0 -4.657844 1.862051 8.002338 0.295915 0.185344 -1
0 -3.027306 2.455897 7.218905 0.331788 0.383459 -1
0 -4.657844 2.455897 7.218905 0.331056 0.326806 -1
0 -3.027306 1.862051 8.002338 0.303032 0.383684 -1
0 -4.657844 1.862051 8.002338 0.302300 0.327031 -1
0 -3.027306 1.546978 5.983109 0.370295 0.197782 -1
0 -4.657844 1.546978 5.983109 0.370295 0.197782 -1
0 -3.027306 1.546979 -4.449140 0.754575 0.197782 -1
0 -4.657844 1.546979 -4.449140 0.754575 0.197782 -1
0 -3.027306 2.052303 -8.090163 0.888695 0.177833 -1
0 -4.657844 2.052303 -8.090163 0.888695 0.177833 -1
0 -3.027306 2.735562 -8.098397 0.888999 0.150858 -1
0 -4.657844 2.735562 -8.098397 0.888999 0.150858 -1
0 -3.027306 3.040554 -7.798495 0.877952 0.138817 -1
0 -4.657844 3.040554 -7.798495 0.877952 0.138817 -1
0 -3.027306 2.735562 -8.098397 0.894009 0.379054 -1
0 -4.657844 2.735562 -8.098397 0.893277 0.322400 -1
0 -4.657844 3.040554 -7.798495 0.882269 0.322486 -1
0 -3.027306 3.040554 -7.798495 0.883001 0.379140 -1
0 -3.027306 2.995007 -4.449138 0.738950 0.135407 -1
0 -4.657844 2.995007 -4.449138 0.738950 0.135407 -1
0 -3.027306 2.995007 -4.449138 0.760063 0.380103 -1
0 -4.657844 2.995007 -4.449138 0.759331 0.323450 -1
0 -3.027306 2.956013 -3.808558 0.730979 0.142155 -1
0 -4.657844 2.956013 -3.808558 0.730979 0.142155 -1
0 -4.657844 2.956013 -3.808558 0.735819 0.323634 -1
0 -3.027306 2.956013 -3.808558 0.736551 0.380287 -1
0 -3.027306 2.945345 3.999133 0.443377 0.142576 -1
0 -4.657844 2.945345 3.999133 0.443377 0.142576 -1
0 -3.027306 2.945345 3.999133 0.449970 0.382533 -1
0 -4.657844 2.945345 3.999133 0.449237 0.325880 -1
15
1.000000 0.000000 0.000000
-1.000000 0.000000 0.000000
0.000000 0.921166 0.389171
0.000000 -0.244407 0.969673
0.000000 -0.997007 0.077317
0.000000 -0.997007 0.077317
0.000000 -0.997624 -0.068898
0.000000 -0.661240 -0.750174
0.000000 0.373210 -0.927747
0.000000 0.373210 -0.927747
0.000000 0.924868 -0.380288
0.000000 0.999308 0.037189
0.000000 0.999517 0.031077
0.000000 0.999517 0.031077
0.000000 0.997105 0.076039
40
0 0 1 2 0 0 0 2
0 3 4 5 1 1 1 2
0 6 7 8 2 2 3 1
0 7 9 8 2 3 3 1
0 1 10 2 0 0 0 2
0 5 4 11 1 1 1 2
0 1 5 11 3 3 4 1
0 1 11 10 3 4 5 1
0 10 12 2 0 0 0 2
0 11 4 13 1 1 1 2
0 10 11 12 5 4 6 1
0 11 13 12 4 6 6 1
0 12 14 2 0 0 0 2
0 13 4 15 1 1 1 2
0 12 13 15 6 6 7 1
0 12 15 14 6 7 7 1
0 14 16 2 0 0 0 2
0 15 4 17 1 1 1 2
0 14 15 16 7 7 8 1
0 15 17 16 7 9 8 1
0 16 18 2 0 0 0 2
0 17 4 19 1 1 1 2
0 20 21 22 8 9 10 1
0 20 22 23 8 10 10 1
0 18 24 2 0 0 0 2
0 19 4 25 1 1 1 2
0 23 22 26 10 10 11 1
0 22 27 26 10 11 11 1
0 24 28 2 0 0 0 2
0 25 4 29 1 1 1 2
0 26 27 30 11 11 12 1
0 26 30 31 11 12 13 1
0 28 32 2 0 0 0 2
0 29 4 33 1 1 1 2
0 31 30 34 13 12 14 1
0 30 35 34 12 14 14 1
0 32 0 2 0 0 0 2
0 33 4 3 1 1 1 2
0 34 35 7 14 14 2 1
0 34 7 6 14 2 2 1
"Duplicate06" 0 1
144
0 -3.554167 1.387462 1.583399 0.524775 0.207084 -1
0 -3.554167 0.804099 1.825036 0.516034 0.230487 -1
0 -3.554167 0.804099 1.000036 0.545877 0.230487 -1
0 -4.154167 1.387462 1.583399 0.524775 0.207084 -1
0 -4.154167 0.804099 1.000036 0.545877 0.230487 -1
0 -4.154167 0.804099 1.825036 0.516034 0.230487 -1
0 -3.554167 0.220736 1.583399 0.524775 0.253890 -1
0 -4.154167 0.220736 1.583399 0.524775 0.253890 -1
0 -3.554167 -0.020901 1.000036 0.545877 0.263584 -1
0 -4.154167 -0.020901 1.000036 0.545877 0.263584 -1
0 -3.554167 0.220736 0.416673 0.566980 0.253890 -1
0 -4.154167 0.220736 0.416673 0.566980 0.253890 -1
0 -3.554167 0.804099 0.175036 0.575721 0.230487 -1
0 -4.154167 0.804099 0.175036 0.575721 0.230487 -1
0 -3.554167 1.387462 0.416673 0.566980 0.207084 -1
0 -4.154167 1.387462 0.416673 0.566980 0.207084 -1
0 -3.554167 1.629099 1.000036 0.545877 0.197389 -1
0 -4.154167 1.629099 1.000036 0.545877 0.197389 -1
0 -3.554167 0.804099 -1.000036 0.620777 0.230505 -1
0 -3.554167 0.804099 -1.825036 0.651487 0.230505 -1
0 -3.554167 1.387462 -1.583399 0.642493 0.207133 -1
0 -4.154167 0.804099 -1.825036 0.651487 0.230505 -1
0 -4.154167 0.804099 -1.000036 0.620777 0.230505 -1
0 -4.154167 1.387462 -1.583399 0.642493 0.207133 -1
0 -3.554167 0.220736 -1.583399 0.642493 0.253878 -1
0 -4.154167 0.220736 -1.583399 0.642493 0.253878 -1
0 -3.554167 -0.020901 -1.000036 0.620777 0.263560 -1
0 -4.154167 -0.020901 -1.000036 0.620777 0.263560 -1
0 -3.554167 0.220736 -0.416673 0.599061 0.253878 -1
0 -4.154167 0.220736 -0.416673 0.599061 0.253878 -1
0 -3.554167 0.804099 -0.175036 0.590066 0.230505 -1
0 -4.154167 0.804099 -0.175036 0.590066 0.230505 -1
0 -3.554167 1.387462 -0.416673 0.599061 0.207133 -1
0 -4.154167 1.387462 -0.416673 0.599061 0.207133 -1
0 -3.554167 1.629099 -1.000036 0.620777 0.197451 -1
0 -4.154167 1.629099 -1.000036 0.620777 0.197451 -1
0 -3.554167 1.387462 -2.416601 0.673508 0.207133 -1
0 -3.554167 0.804099 -2.174964 0.664513 0.230505 -1
0 -3.554167 0.804099 -2.999964 0.695224 0.230505 -1
0 -4.154167 1.387462 -2.416601 0.673508 0.207133 -1
0 -4.154167 0.804099 -2.999964 0.695224 0.230505 -1
0 -4.154167 0.804099 -2.174964 0.664513 0.230505 -1
0 -3.554167 0.220736 -2.416601 0.673508 0.253878 -1
0 -4.154167 0.220736 -2.416601 0.673508 0.253878 -1
0 -3.554167 -0.020901 -2.999964 0.695224 0.263560 -1
0 -4.154167 -0.020901 -2.999964 0.695224 0.263560 -1
0 -3.554167 0.220736 -3.583328 0.716939 0.253878 -1
0 -4.154167 0.220736 -3.583328 0.716939 0.253878 -1
0 -3.554167 0.804099 -3.824964 0.725934 0.230505 -1
0 -4.154167 0.804099 -3.824964 0.725934 0.230505 -1
0 -3.554167 1.387462 -3.583328 0.716939 0.207133 -1
0 -4.154167 1.387462 -3.583328 0.716939 0.207133 -1
0 -3.554167 1.629099 -2.999964 0.695224 0.197451 -1
0 -4.154167 1.629099 -2.999964 0.695224 0.197451 -1
0 -3.554167 0.804099 -5.000035 0.769676 0.230505 -1
0 -3.554167 0.804099 -5.825036 0.800387 0.230505 -1
0 -3.554167 1.387462 -5.583399 0.791392 0.207133 -1
0 -4.154167 0.804099 -5.825036 0.800387 0.230505 -1
0 -4.154167 0.804099 -5.000035 0.769676 0.230505 -1
0 -4.154167 1.387462 -5.583399 0.791392 0.207133 -1
0 -3.554167 0.220736 -5.583399 0.791392 0.253878 -1
0 -4.154167 0.220736 -5.583399 0.791392 0.253878 -1
0 -3.554167 -0.020901 -5.000035 0.769676 0.263560 -1
0 -4.154167 -0.020901 -5.000035 0.769676 0.263560 -1
0 -3.554167 0.220736 -4.416672 0.747961 0.253878 -1
0 -4.154167 0.220736 -4.416672 0.747961 0.253878 -1
0 -3.554167 0.804099 -4.175036 0.738966 0.230505 -1
0 -4.154167 0.804099 -4.175036 0.738966 0.230505 -1
0 -3.554167 1.387462 -4.416672 0.747961 0.207133 -1
0 -4.154167 1.387462 -4.416672 0.747961 0.207133 -1
0 -3.554167 1.629099 -5.000035 0.769676 0.197451 -1
0 -4.154167 1.629099 -5.000035 0.769676 0.197451 -1
0 -3.554167 0.804099 2.999964 0.473531 0.230487 -1
0 -3.554167 0.804099 2.174964 0.503375 0.230487 -1
0 -3.554167 1.387462 2.416601 0.494634 0.207084 -1
0 -4.154167 0.804099 2.174964 0.503375 0.230487 -1
0 -4.154167 0.804099 2.999964 0.473531 0.230487 -1
0 -4.154167 1.387462 2.416601 0.494634 0.207084 -1
0 -3.554167 0.220736 2.416601 0.494634 0.253890 -1
0 -4.154167 0.220736 2.416601 0.494634 0.253890 -1
0 -3.554167 -0.020901 2.999964 0.473531 0.263584 -1
0 -4.154167 -0.020901 2.999964 0.473531 0.263584 -1
0 -3.554167 0.220736 3.583328 0.452428 0.253890 -1
0 -4.154167 0.220736 3.583328 0.452428 0.253890 -1
0 -3.554167 0.804099 3.824964 0.443688 0.230487 -1
0 -4.154167 0.804099 3.824964 0.443688 0.230487 -1
0 -3.554167 1.387462 3.583328 0.452428 0.207084 -1
0 -4.154167 1.387462 3.583328 0.452428 0.207084 -1
0 -3.554167 1.629099 2.999964 0.473531 0.197389 -1
0 -4.154167 1.629099 2.999964 0.473531 0.197389 -1
0 -3.554167 1.387462 5.583399 0.380078 0.207084 -1
0 -3.554167 0.804099 5.825036 0.371337 0.230487 -1
0 -3.554167 0.804099 5.000035 0.401180 0.230487 -1
0 -4.154167 1.387462 5.583399 0.380078 0.207084 -1
0 -4.154167 0.804099 5.000035 0.401180 0.230487 -1
0 -4.154167 0.804099 5.825036 0.371337 0.230487 -1
0 -3.554167 0.220736 5.583399 0.380078 0.253890 -1
0 -4.154167 0.220736 5.583399 0.380078 0.253890 -1
0 -3.554167 -0.020901 5.000035 0.401180 0.263584 -1
0 -4.154167 -0.020901 5.000035 0.401180 0.263584 -1
0 -3.554167 0.220736 4.416672 0.422283 0.253890 -1
0 -4.154167 0.220736 4.416672 0.422283 0.253890 -1
0 -3.554167 0.804099 4.175036 0.431024 0.230487 -1
0 -4.154167 0.804099 4.175036 0.431024 0.230487 -1
0 -3.554167 1.387462 4.416672 0.422283 0.207084 -1
0 -4.154167 1.387462 4.416672 0.422283 0.207084 -1
0 -3.554167 1.629099 5.000035 0.401180 0.197389 -1
0 -4.154167 1.629099 5.000035 0.401180 0.197389 -1
0 -3.554167 2.113506 7.013390 0.328349 0.177956 -1
0 -3.554167 1.706121 7.182135 0.322244 0.194300 -1
0 -3.554167 1.706121 6.606006 0.343086 0.194300 -1
0 -4.154167 2.113506 7.013390 0.328349 0.177956 -1
0 -4.154167 1.706121 6.606006 0.343086 0.194300 -1
0 -4.154167 1.706121 7.182135 0.322244 0.194300 -1
0 -3.554167 1.298737 7.013390 0.328349 0.210643 -1
0 -4.154167 1.298737 7.013390 0.328349 0.210643 -1
0 -3.554167 1.129993 6.606006 0.343086 0.217413 -1
0 -4.154167 1.129993 6.606006 0.343086 0.217413 -1
0 -3.554167 1.298737 6.198622 0.357822 0.210643 -1
0 -4.154167 1.298737 6.198622 0.357822 0.210643 -1
0 -3.554167 1.706121 6.029878 0.363927 0.194300 -1
0 -4.154167 1.706121 6.029878 0.363927 0.194300 -1
0 -3.554167 2.113506 6.198622 0.357822 0.177956 -1
0 -4.154167 2.113506 6.198622 0.357822 0.177956 -1
0 -3.554167 2.282249 6.606006 0.343086 0.171187 -1
0 -4.154167 2.282249 6.606006 0.343086 0.171187 -1
0 -3.554167 1.921198 -6.601994 0.825666 0.185634 -1
0 -3.554167 1.513813 -6.433250 0.817690 0.204885 -1
0 -3.554167 1.513813 -7.009378 0.844922 0.204885 -1
0 -4.154167 1.921198 -6.601994 0.825666 0.185634 -1
0 -4.154167 1.513813 -7.009378 0.844922 0.204885 -1
0 -4.154167 1.513813 -6.433250 0.817690 0.204885 -1
0 -3.554167 1.106429 -6.601994 0.825666 0.224135 -1
0 -4.154167 1.106429 -6.601994 0.825666 0.224135 -1
0 -3.554167 0.937685 -7.009378 0.844922 0.232108 -1
0 -4.154167 0.937685 -7.009378 0.844922 0.232108 -1
0 -3.554167 1.106430 -7.416763 0.864177 0.224135 -1
0 -4.154167 1.106430 -7.416763 0.864177 0.224135 -1
0 -3.554167 1.513813 -7.585506 0.872152 0.204885 -1
0 -4.154167 1.513813 -7.585506 0.872152 0.204885 -1
0 -3.554167 1.921198 -7.416763 0.864177 0.185634 -1
0 -4.154167 1.921198 -7.416763 0.864177 0.185634 -1
0 -3.554167 2.089942 -7.009378 0.844922 0.177660 -1
0 -4.154167 2.089942 -7.009378 0.844922 0.177660 -1
69
1.000000 0.000000 0.000000
-1.000000 0.000000 0.000000
0.000000 0.707107 0.707107
0.000000 -0.000000 1.000000
0.000000 -0.707107 0.707107
0.000000 -0.707107 0.707107
0.000000 -1.000000 -0.000000
0.000000 -0.707107 -0.707107
0.000000 -0.707107 -0.707107
0.000000 -0.000000 -1.000000
0.000000 0.707107 -0.707107
0.000000 1.000000 -0.000000
0.000000 -0.000000 -1.000000
0.000000 0.707107 -0.707107
0.000000 -0.707107 -0.707107
0.000000 -0.707107 -0.707107
0.000000 -1.000000 0.000000
0.000000 -0.707107 0.707107
0.000000 -0.707107 0.707107
0.000000 -0.000000 1.000000
0.000000 0.707107 0.707107
0.000000 1.000000 0.000000
0.000000 -1.000000 0.000000
0.000000 -0.707107 -0.707107
0.000000 0.707107 -0.707107
0.000000 0.707107 -0.707107
0.000000 1.000000 0.000000
0.000000 1.000000 0.000000
0.000000 -0.000000 -1.000000
0.000000 0.707107 -0.707106
0.000000 -0.707107 -0.707106
0.000000 -1.000000 0.000000
0.000000 -0.707106 0.707107
0.000000 -0.000000 1.000000
0.000000 0.707107 0.707107
0.000000 1.000000 0.000000
0.000000 -1.000000 -0.000000
0.000000 -0.707107 0.707107
0.000000 0.707107 0.707107
0.000000 0.707107 0.707107
0.000000 1.000000 -0.000000
0.000000 1.000000 -0.000000
0.000000 0.707107 0.707106
0.000000 -0.000000 1.000000
0.000000 -0.707107 0.707106
0.000000 -1.000000 -0.000000
0.000000 -0.707106 -0.707107
0.000000 -0.000000 -1.000000
0.000000 0.707107 -0.707107
0.000000 1.000000 -0.000000
0.000000 0.707107 0.707106
0.000000 -0.000000 1.000000
0.000000 -0.707107 0.707107
0.000000 -1.000000 0.000000
0.000000 -0.707106 -0.707107
0.000000 -0.707106 -0.707107
0.000000 -0.000000 -1.000000
0.000000 0.707107 -0.707107
0.000000 1.000000 0.000000
0.000000 0.707107 0.707107
0.000000 -0.000000 1.000000
0.000000 -1.000000 0.000000
0.000000 -0.707106 -0.707107
0.000000 -0.707106 -0.707107
0.000000 -0.000000 -1.000000
0.000000 -0.000000 -1.000000
0.000000 0.707106 -0.707107
0.000000 0.707106 -0.707107
0.000000 1.000000 0.000000
256
0 0 1 2 0 0 0 2
0 3 4 5 1 1 1 2
0 0 3 1 2 2 3 1
0 3 5 1 2 3 3 1
0 1 6 2 0 0 0 2
0 5 4 7 1 1 1 2
0 1 5 7 3 3 4 1
0 1 7 6 3 4 5 1
0 6 8 2 0 0 0 2
0 7 4 9 1 1 1 2
0 6 7 8 5 4 6 1
0 7 9 8 4 6 6 1
0 8 10 2 0 0 0 2
0 9 4 11 1 1 1 2
0 8 9 11 6 6 7 1
0 8 11 10 6 7 8 1
0 10 12 2 0 0 0 2
0 11 4 13 1 1 1 2
0 10 11 12 8 7 9 1
0 11 13 12 7 9 9 1
0 12 14 2 0 0 0 2
0 13 4 15 1 1 1 2
0 12 13 15 9 9 10 1
0 12 15 14 9 10 10 1
0 14 16 2 0 0 0 2
0 15 4 17 1 1 1 2
0 14 15 16 10 10 11 1
0 15 17 16 10 11 11 1
0 16 0 2 0 0 0 2
0 17 4 3 1 1 1 2
0 16 17 3 11 11 2 1
0 16 3 0 11 2 2 1
0 18 19 20 0 0 0 2
0 21 22 23 1 1 1 2
0 19 23 20 12 13 13 1
0 19 21 23 12 12 13 1
0 18 24 19 0 0 0 2
0 25 22 21 1 1 1 2
0 25 21 19 14 12 12 1
0 24 25 19 15 14 12 1
0 18 26 24 0 0 0 2
0 27 22 25 1 1 1 2
0 26 25 24 16 14 15 1
0 26 27 25 16 16 14 1
0 18 28 26 0 0 0 2
0 29 22 27 1 1 1 2
0 29 27 26 17 16 16 1
0 28 29 26 18 17 16 1
0 18 30 28 0 0 0 2
0 31 22 29 1 1 1 2
0 30 29 28 19 17 18 1
0 30 31 29 19 19 17 1
0 18 32 30 0 0 0 2
0 33 22 31 1 1 1 2
0 33 31 30 20 19 19 1
0 32 33 30 20 20 19 1
0 18 34 32 0 0 0 2
0 35 22 33 1 1 1 2
0 34 33 32 21 20 20 1
0 34 35 33 21 21 20 1
0 18 20 34 0 0 0 2
0 23 22 35 1 1 1 2
0 23 35 34 13 21 21 1
0 20 23 34 13 13 21 1
0 36 37 38 0 0 0 2
0 39 40 41 1 1 1 2
0 36 39 37 2 2 3 1
0 39 41 37 2 3 3 1
0 37 42 38 0 0 0 2
0 41 40 43 1 1 1 2
0 37 41 43 3 3 5 1
0 37 43 42 3 5 5 1
0 42 44 38 0 0 0 2
0 43 40 45 1 1 1 2
0 42 43 44 5 5 22 1
0 43 45 44 5 22 22 1
0 44 46 38 0 0 0 2
0 45 40 47 1 1 1 2
0 44 45 47 22 22 23 1
0 44 47 46 22 23 23 1
0 46 48 38 0 0 0 2
0 47 40 49 1 1 1 2
0 46 47 48 23 23 9 1
0 47 49 48 23 9 9 1
0 48 50 38 0 0 0 2
0 49 40 51 1 1 1 2
0 48 49 51 9 9 24 1
0 48 51 50 9 24 25 1
0 50 52 38 0 0 0 2
0 51 40 53 1 1 1 2
0 50 51 52 25 24 26 1
0 51 53 52 24 27 26 1
0 52 36 38 0 0 0 2
0 53 40 39 1 1 1 2
0 52 53 39 26 27 2 1
0 52 39 36 26 2 2 1
0 54 55 56 0 0 0 2
0 57 58 59 1 1 1 2
0 55 59 56 28 29 29 1
0 55 57 59 28 28 29 1
0 54 60 55 0 0 0 2
0 61 58 57 1 1 1 2
0 61 57 55 30 28 28 1
0 60 61 55 30 30 28 1
0 54 62 60 0 0 0 2
0 63 58 61 1 1 1 2
0 62 61 60 31 30 30 1
0 62 63 61 31 31 30 1
0 54 64 62 0 0 0 2
0 65 58 63 1 1 1 2
0 65 63 62 32 31 31 1
0 64 65 62 32 32 31 1
0 54 66 64 0 0 0 2
0 67 58 65 1 1 1 2
0 66 65 64 33 32 32 1
0 66 67 65 33 33 32 1
0 54 68 66 0 0 0 2
0 69 58 67 1 1 1 2
0 69 67 66 34 33 33 1
0 68 69 66 34 34 33 1
0 54 70 68 0 0 0 2
0 71 58 69 1 1 1 2
0 70 69 68 35 34 34 1
0 70 71 69 35 35 34 1
0 54 56 70 0 0 0 2
0 59 58 71 1 1 1 2
0 59 71 70 29 35 35 1
0 56 59 70 29 29 35 1
0 72 73 74 0 0 0 2
0 75 76 77 1 1 1 2
0 73 77 74 12 13 13 1
0 73 75 77 12 12 13 1
0 72 78 73 0 0 0 2
0 79 76 75 1 1 1 2
0 79 75 73 15 12 12 1
0 78 79 73 15 15 12 1
0 72 80 78 0 0 0 2
0 81 76 79 1 1 1 2
0 80 79 78 36 15 15 1
0 80 81 79 36 36 15 1
0 72 82 80 0 0 0 2
0 83 76 81 1 1 1 2
0 83 81 80 37 36 36 1
0 82 83 80 37 37 36 1
0 72 84 82 0 0 0 2
0 85 76 83 1 1 1 2
0 84 83 82 19 37 37 1
0 84 85 83 19 19 37 1
0 72 86 84 0 0 0 2
0 87 76 85 1 1 1 2
0 87 85 84 38 19 19 1
0 86 87 84 39 38 19 1
0 72 88 86 0 0 0 2
0 89 76 87 1 1 1 2
0 88 87 86 40 38 39 1
0 88 89 87 40 41 38 1
0 72 74 88 0 0 0 2
0 77 76 89 1 1 1 2
0 77 89 88 13 41 40 1
0 74 77 88 13 13 40 1
0 90 91 92 0 0 0 2
0 93 94 95 1 1 1 2
0 90 93 91 42 42 43 1
0 93 95 91 42 43 43 1
0 91 96 92 0 0 0 2
0 95 94 97 1 1 1 2
0 91 95 97 43 43 44 1
0 91 97 96 43 44 44 1
0 96 98 92 0 0 0 2
0 97 94 99 1 1 1 2
0 96 97 98 44 44 45 1
0 97 99 98 44 45 45 1
0 98 100 92 0 0 0 2
0 99 94 101 1 1 1 2
0 98 99 101 45 45 46 1
0 98 101 100 45 46 46 1
0 100 102 92 0 0 0 2
0 101 94 103 1 1 1 2
0 100 101 102 46 46 47 1
0 101 103 102 46 47 47 1
0 102 104 92 0 0 0 2
0 103 94 105 1 1 1 2
0 102 103 105 47 47 48 1
0 102 105 104 47 48 48 1
0 104 106 92 0 0 0 2
0 105 94 107 1 1 1 2
0 104 105 106 48 48 49 1
0 105 107 106 48 49 49 1
0 106 90 92 0 0 0 2
0 107 94 93 1 1 1 2
0 106 107 93 49 49 42 1
0 106 93 90 49 42 42 1
0 108 109 110 0 0 0 2
0 111 112 113 1 1 1 2
0 108 111 109 50 50 51 1
0 111 113 109 50 51 51 1
0 109 114 110 0 0 0 2
0 113 112 115 1 1 1 2
0 109 113 115 51 51 52 1
0 109 115 114 51 52 52 1
0 114 116 110 0 0 0 2
0 115 112 117 1 1 1 2
0 114 115 116 52 52 53 1
0 115 117 116 52 53 53 1
0 116 118 110 0 0 0 2
0 117 112 119 1 1 1 2
0 116 117 119 53 53 54 1
0 116 119 118 53 54 55 1
0 118 120 110 0 0 0 2
0 119 112 121 1 1 1 2
0 118 119 120 55 54 56 1
0 119 121 120 54 56 56 1
0 120 122 110 0 0 0 2
0 121 112 123 1 1 1 2
0 120 121 123 56 56 57 1
0 120 123 122 56 57 57 1
0 122 124 110 0 0 0 2
0 123 112 125 1 1 1 2
0 122 123 124 57 57 58 1
0 123 125 124 57 58 58 1
0 124 108 110 0 0 0 2
0 125 112 111 1 1 1 2
0 124 125 111 58 58 50 1
0 124 111 108 58 50 50 1
0 126 127 128 0 0 0 2
0 129 130 131 1 1 1 2
0 126 129 127 59 59 60 1
0 129 131 127 59 60 60 1
0 127 132 128 0 0 0 2
0 131 130 133 1 1 1 2
0 127 131 133 60 60 17 1
0 127 133 132 60 17 17 1
0 132 134 128 0 0 0 2
0 133 130 135 1 1 1 2
0 132 133 134 17 17 61 1
0 133 135 134 17 61 61 1
0 134 136 128 0 0 0 2
0 135 130 137 1 1 1 2
0 134 135 137 61 61 62 1
0 134 137 136 61 62 63 1
0 136 138 128 0 0 0 2
0 137 130 139 1 1 1 2
0 136 137 138 63 62 64 1
0 137 139 138 62 65 64 1
0 138 140 128 0 0 0 2
0 139 130 141 1 1 1 2
0 138 139 141 64 65 66 1
0 138 141 140 64 66 67 1
0 140 142 128 0 0 0 2
0 141 130 143 1 1 1 2
0 140 141 142 67 66 68 1
0 141 143 142 66 68 68 1
0 142 126 128 0 0 0 2
0 143 130 129 1 1 1 2
0 142 143 129 68 68 59 1
0 142 129 126 68 59 59 1
"Cylinder03" 0 1
20
0 3.024584 3.210147 -4.465386 0.781274 0.559051 -1
0 3.024584 3.025725 -3.870601 0.758592 0.559045 -1
0 3.024584 1.936620 -3.673720 0.751083 0.559044 -1
0 -3.024584 3.210147 -4.465386 0.781508 0.381557 -1
0 -3.024584 1.936620 -3.673720 0.751318 0.381550 -1
0 -3.024584 3.025725 -3.870601 0.758826 0.381552 -1
0 3.024584 3.009061 4.018317 0.457745 0.558970 -1
0 -3.024584 3.009061 4.018317 0.457979 0.381476 -1
0 3.024584 1.633190 6.833139 0.350401 0.558944 -1
0 -3.024584 1.633190 6.833139 0.350635 0.381449 -1
0 3.024584 0.733408 5.042209 0.418698 0.558960 -1
0 -3.024584 0.733408 5.042209 0.418933 0.381467 -1
0 3.024584 0.733408 -5.222982 0.810165 0.559058 -1
0 -3.024584 0.733408 -5.222982 0.810400 0.381565 -1
0 3.024584 1.133190 -7.430578 0.894353 0.559080 -1
0 -3.024584 1.133190 -7.430578 0.894587 0.381586 -1
0 3.024584 1.759061 -7.990758 0.915715 0.559085 -1
0 -3.024584 1.759061 -7.990758 0.915949 0.381591 -1
0 3.024584 3.025725 -8.001838 0.916137 0.559085 -1
0 -3.024584 3.025725 -8.001838 0.916372 0.381591 -1
13
1.000000 0.000000 0.000000
-1.000000 0.000000 0.000000
0.000000 0.997892 0.064894
0.000000 0.983189 0.182593
0.000000 0.988563 0.150811
0.000000 0.974035 0.226398
0.000000 0.005465 0.999985
0.000000 -0.973027 0.230690
0.000000 -0.995991 -0.089456
0.000000 -0.872774 -0.488125
0.000000 -0.361063 -0.932541
0.000000 0.685270 -0.728290
0.000000 0.685270 -0.728289
36
0 0 1 2 0 0 0 2
0 3 4 5 1 1 1 2
0 0 3 1 2 3 4 1
0 3 5 1 3 4 4 1
0 1 6 2 0 0 0 2
0 5 4 7 1 1 1 2
0 1 5 7 4 4 5 1
0 1 7 6 4 5 5 1
0 6 8 2 0 0 0 2
0 7 4 9 1 1 1 2
0 6 7 8 5 5 6 1
0 7 9 8 5 6 6 1
0 8 10 2 0 0 0 2
0 9 4 11 1 1 1 2
0 8 9 11 6 6 7 1
0 8 11 10 6 7 7 1
0 10 12 2 0 0 0 2
0 11 4 13 1 1 1 2
0 10 11 12 7 7 8 1
0 11 13 12 7 8 8 1
0 12 14 2 0 0 0 2
0 13 4 15 1 1 1 2
0 12 13 15 8 8 9 1
0 12 15 14 8 9 9 1
0 14 16 2 0 0 0 2
0 15 4 17 1 1 1 2
0 14 15 16 9 9 10 1
0 15 17 16 9 10 10 1
0 16 18 2 0 0 0 2
0 17 4 19 1 1 1 2
0 16 17 19 10 10 11 1
0 16 19 18 10 11 12 1
0 18 0 2 0 0 0 2
0 19 4 3 1 1 1 2
0 18 19 0 12 11 2 1
0 19 3 0 11 3 2 1
"Box01" 0 1
12
0 -3.026676 3.082454 -7.944553 0.888695 0.159051 -1
0 -3.026676 1.790788 -7.944553 0.888695 0.193081 -1
0 3.026676 3.082454 -7.944553 0.888695 0.159051 -1
0 3.026676 1.790788 -7.944553 0.888695 0.193081 -1
0 3.026676 3.082454 -9.069553 0.918128 0.159051 -1
0 3.026676 2.415788 -9.069553 0.918128 0.176615 -1
0 -3.026676 3.082454 -9.069553 0.918128 0.159051 -1
0 -3.026676 2.415788 -9.069553 0.918128 0.176615 -1
0 -3.026676 3.082454 -9.069553 0.912172 0.384041 -1
0 -3.026676 3.082454 -7.944553 0.885522 0.384237 -1
0 3.026676 3.082454 -9.069553 0.913168 0.552303 -1
0 3.026676 3.082454 -7.944553 0.886519 0.552499 -1
6
0.000000 0.000000 1.000000
1.000000 0.000000 0.000000
0.000000 0.000000 -1.000000
-1.000000 0.000000 0.000000
0.000000 1.000000 0.000000
0.000000 -0.874157 -0.485643
12
0 0 1 2 0 0 0 1
0 1 3 2 0 0 0 1
0 2 3 4 1 1 1 2
0 3 5 4 1 1 1 2
0 4 5 6 2 2 2 1
0 5 7 6 2 2 2 1
0 6 7 0 3 3 3 2
0 7 1 0 3 3 3 2
0 8 9 10 4 4 4 3
0 9 11 10 4 4 4 3
0 1 7 3 5 5 5 3
0 7 5 3 5 5 5 3
"barrel2" 0 1
18
0 -0.395833 4.207455 -9.007052 0.934467 0.460597 -1
0 -0.395833 3.981683 -8.461991 0.916737 0.460638 -1
0 -0.395833 3.436621 -9.007052 0.934467 0.460597 -1
0 -3.020833 4.207455 -9.007052 0.934031 0.383778 -1
0 -3.020833 3.436621 -9.007052 0.934031 0.383778 -1
0 -3.020833 3.981683 -8.461991 0.916301 0.383819 -1
0 -0.395833 3.436621 -8.236218 0.909393 0.460655 -1
0 -3.020833 3.436621 -8.236218 0.908957 0.383836 -1
0 -0.395833 2.891560 -8.461991 0.916737 0.460638 -1
0 -3.020833 2.891560 -8.461991 0.916301 0.383819 -1
0 -0.395833 2.665788 -9.007052 0.934467 0.460597 -1
0 -3.020833 2.665788 -9.007052 0.934031 0.383778 -1
0 -0.395833 2.891560 -9.552114 0.952197 0.460557 -1
0 -3.020833 2.891560 -9.552114 0.951761 0.383737 -1
0 -0.395833 3.436621 -9.777886 0.959540 0.460539 -1
0 -3.020833 3.436621 -9.777886 0.959105 0.383720 -1
0 -0.395833 3.981683 -9.552114 0.952197 0.460557 -1
0 -3.020833 3.981683 -9.552114 0.951761 0.383737 -1
12
1.000000 0.000000 0.000000
-1.000000 0.000000 0.000000
0.000000 1.000000 0.000000
0.000000 0.707107 0.707106
0.000000 0.000000 1.000000
0.000000 -0.707107 0.707106
0.000000 -1.000000 0.000000
0.000000 -0.707107 -0.707106
0.000000 -0.707107 -0.707106
0.000000 0.000000 -1.000000
0.000000 0.000000 -1.000000
0.000000 0.707107 -0.707106
32
0 0 1 2 0 0 0 2
0 3 4 5 1 1 1 2
0 0 3 1 2 2 3 1
0 3 5 1 2 3 3 1
0 1 6 2 0 0 0 2
0 5 4 7 1 1 1 2
0 1 5 7 3 3 4 1
0 1 7 6 3 4 4 1
0 6 8 2 0 0 0 2
0 7 4 9 1 1 1 2
0 6 7 8 4 4 5 1
0 7 9 8 4 5 5 1
0 8 10 2 0 0 0 2
0 9 4 11 1 1 1 2
0 8 9 11 5 5 6 1
0 8 11 10 5 6 6 1
0 10 12 2 0 0 0 2
0 11 4 13 1 1 1 2
0 10 11 12 6 6 7 1
0 11 13 12 6 8 7 1
0 12 14 2 0 0 0 2
0 13 4 15 1 1 1 2
0 12 13 15 7 8 9 1
0 12 15 14 7 9 10 1
0 14 16 2 0 0 0 2
0 15 4 17 1 1 1 2
0 14 15 16 10 9 11 1
0 15 17 16 9 11 11 1
0 16 0 2 0 0 0 2
0 17 4 3 1 1 1 2
0 16 17 3 11 11 2 1
0 16 3 0 11 2 2 1
"turret" 0 1
41
0 2.875779 4.499120 -0.423720 0.602961 0.591129 -1
0 0.000000 4.832453 -0.423720 0.603602 0.477149 -1
0 2.326554 4.499120 1.266620 0.537814 0.568966 -1
0 2.875779 2.957454 -0.423720 0.602961 0.591129 -1
0 3.354167 3.471343 -0.423720 0.602854 0.610090 -1
0 2.326554 2.957454 1.266620 0.537814 0.568966 -1
0 2.713578 3.471343 1.547810 0.526870 0.584240 -1
0 3.354167 3.985232 -0.423720 0.602854 0.610090 -1
0 2.713578 3.985232 1.547810 0.526870 0.584240 -1
0 0.888665 4.415786 2.186308 0.502622 0.511761 -1
0 1.036495 3.471343 2.766282 0.480194 0.517485 -1
0 0.888665 2.957454 2.311308 0.497795 0.511732 -1
0 1.036495 3.985232 2.766282 0.480194 0.517485 -1
0 -0.888665 4.415786 2.186308 0.503018 0.441318 -1
0 -0.888665 2.957454 2.311308 0.498192 0.441289 -1
0 -1.036495 3.471343 2.766282 0.480656 0.435324 -1
0 -1.036495 3.985232 2.766282 0.480656 0.435324 -1
0 -2.326554 4.499120 1.266620 0.538850 0.384543 -1
0 -2.713578 3.471343 1.547810 0.528079 0.369138 -1
0 -2.326554 2.957454 1.266620 0.538850 0.384543 -1
0 -2.713578 3.985232 1.547810 0.528079 0.369138 -1
0 -2.875779 4.499120 -0.423720 0.604242 0.363170 -1
0 -2.875779 2.957454 -0.423720 0.604242 0.363170 -1
0 -3.354167 3.471343 -0.423720 0.604349 0.344209 -1
0 -3.354167 3.985232 -0.423720 0.604349 0.344209 -1
0 -2.056502 4.499120 -2.514060 0.684775 0.396129 -1
0 -2.398603 3.471343 -2.795250 0.695709 0.382636 -1
0 -2.056502 2.957454 -2.514060 0.684775 0.396129 -1
0 -2.398603 3.985232 -2.795250 0.695709 0.382636 -1
0 -1.128951 4.499120 -3.558748 0.724907 0.433136 -1
0 -1.128951 2.957454 -3.558748 0.724907 0.433136 -1
0 -1.316752 3.471343 -4.013722 0.742517 0.425799 -1
0 -1.316752 3.985232 -4.013722 0.742517 0.425799 -1
0 1.128951 4.499120 -3.558748 0.724404 0.522627 -1
0 1.316752 3.471343 -4.013722 0.741930 0.530176 -1
0 1.128951 2.957454 -3.558748 0.724404 0.522627 -1
0 1.316752 3.985232 -4.013722 0.741930 0.530176 -1
0 2.056502 4.499120 -2.514060 0.683858 0.559146 -1
0 2.056502 2.957454 -2.514060 0.683858 0.559146 -1
0 2.398603 3.471343 -2.795250 0.694640 0.572770 -1
0 2.398603 3.985232 -2.795250 0.694640 0.572770 -1
51
0.115139 0.993342 -0.003851
0.000000 0.999840 0.017893
0.075623 0.992910 0.091714
0.731744 -0.681193 -0.022941
0.929187 -0.368175 -0.032537
0.592149 -0.681373 0.430222
0.751522 -0.370250 0.546013
0.928042 0.371032 -0.032757
0.741804 0.391063 0.544790
0.736377 0.676052 -0.026488
0.568626 0.680848 0.461638
0.017926 0.988269 0.151665
0.287056 -0.370250 0.883467
0.226181 -0.681373 0.696113
0.275284 0.462950 0.842553
0.189796 0.777864 0.599086
-0.017926 0.988269 0.151665
-0.226181 -0.681373 0.696113
-0.287056 -0.370250 0.883467
-0.273811 0.441840 0.854286
-0.145457 0.811777 0.565562
-0.075623 0.992910 0.091714
-0.751522 -0.370250 0.546013
-0.592149 -0.681373 0.430222
-0.751522 0.370250 0.546013
-0.556493 0.721831 0.411430
-0.115139 0.993342 -0.003851
-0.736378 -0.676052 -0.026488
-0.928042 -0.371032 -0.032757
-0.929187 0.368176 -0.032537
-0.731744 0.681194 -0.022941
-0.099859 0.993183 -0.060134
-0.797097 -0.349876 -0.492162
-0.649318 -0.649103 -0.396297
-0.797632 0.347120 -0.493245
-0.643992 0.654480 -0.396144
-0.042368 0.994992 -0.090536
-0.297888 -0.691507 -0.658089
-0.380083 -0.380362 -0.843126
-0.380083 0.380363 -0.843126
-0.297888 0.691507 -0.658089
0.042368 0.994992 -0.090536
0.380083 -0.380362 -0.843126
0.297888 -0.691507 -0.658089
0.380083 0.380363 -0.843126
0.297888 0.691507 -0.658089
0.099859 0.993183 -0.060134
0.643992 -0.654479 -0.396145
0.797632 -0.347120 -0.493245
0.797097 0.349876 -0.492162
0.649318 0.649104 -0.396297
70
0 0 1 2 0 1 2 2
0 3 4 5 3 4 5 1
0 4 6 5 4 6 5 1
0 4 7 8 4 7 8 1
0 4 8 6 4 8 6 1
0 7 0 8 7 9 8 1
0 0 2 8 9 10 8 1
0 2 1 9 2 1 11 2
0 5 6 10 5 6 12 1
0 5 10 11 5 12 13 1
0 6 8 10 6 8 12 1
0 8 12 10 8 14 12 1
0 8 2 9 8 10 15 1
0 8 9 12 8 15 14 1
0 9 1 13 11 1 16 2
0 11 10 14 13 12 17 1
0 10 15 14 12 18 17 1
0 10 12 16 12 14 19 1
0 10 16 15 12 19 18 1
0 12 9 16 14 15 19 1
0 9 13 16 15 20 19 1
0 13 1 17 16 1 21 2
0 14 15 18 17 18 22 1
0 14 18 19 17 22 23 1
0 15 16 18 18 19 22 1
0 16 20 18 19 24 22 1
0 16 13 17 19 20 25 1
0 16 17 20 19 25 24 1
0 17 1 21 21 1 26 2
0 19 18 22 23 22 27 1
0 18 23 22 22 28 27 1
0 18 20 24 22 24 29 1
0 18 24 23 22 29 28 1
0 20 17 24 24 25 29 1
0 17 21 24 25 30 29 1
0 21 1 25 26 1 31 2
0 22 23 26 27 28 32 1
0 22 26 27 27 32 33 1
0 23 24 26 28 29 32 1
0 24 28 26 29 34 32 1
0 24 21 25 29 30 35 1
0 24 25 28 29 35 34 1
0 25 1 29 31 1 36 2
0 27 26 30 33 32 37 1
0 26 31 30 32 38 37 1
0 26 28 32 32 34 39 1
0 26 32 31 32 39 38 1
0 28 25 32 34 35 39 1
0 25 29 32 35 40 39 1
0 29 1 33 36 1 41 2
0 30 31 34 37 38 42 1
0 30 34 35 37 42 43 1
0 31 32 34 38 39 42 1
0 32 36 34 39 44 42 1
0 32 29 33 39 40 45 1
0 32 33 36 39 45 44 1
0 33 1 37 41 1 46 2
0 35 34 38 43 42 47 1
0 34 39 38 42 48 47 1
0 34 36 40 42 44 49 1
0 34 40 39 42 49 48 1
0 36 33 40 44 45 49 1
0 33 37 40 45 50 49 1
0 37 1 0 46 1 0 2
0 38 39 4 47 48 4 1
0 38 4 3 47 4 3 1
0 39 40 4 48 49 4 1
0 40 7 4 49 7 4 1
0 40 37 0 49 50 9 1
0 40 0 7 49 9 7 1
"gunbase" 0 1
13
0 -0.297103 3.452017 3.347114 0.459512 0.456098 -1
0 -0.000001 3.749120 3.347114 0.459507 0.471311 -1
0 -0.297103 4.046223 3.347114 0.459512 0.456098 -1
0 -0.471405 3.277716 1.763780 0.511239 0.447197 -1
0 -0.471405 3.277716 2.763780 0.478571 0.447182 -1
0 -0.471405 4.220525 2.763781 0.478571 0.447182 -1
0 -0.471405 4.220525 1.763780 0.511239 0.447197 -1
0 0.297102 4.046224 3.347114 0.459502 0.486523 -1
0 0.471404 4.220525 1.763780 0.511224 0.495470 -1
0 0.471404 4.220525 2.763780 0.478556 0.495456 -1
0 0.297102 3.452017 3.347114 0.459502 0.486523 -1
0 0.471404 3.277716 2.763780 0.478556 0.495456 -1
0 0.471404 3.277716 1.763780 0.511224 0.495470 -1
13
0.000000 0.000000 1.000000
-0.707107 -0.707107 -0.000000
-0.692459 -0.692459 0.202486
-0.692459 0.692459 0.202486
-0.707107 0.707107 0.000000
-0.651340 -0.651340 0.389245
-0.651341 0.651340 0.389245
0.707107 0.707107 0.000000
0.692459 0.692459 0.202486
0.651340 0.651341 0.389245
0.692459 -0.692459 0.202486
0.707107 -0.707107 0.000000
0.651340 -0.651340 0.389245
20
0 0 1 2 0 0 0 2
0 3 4 5 1 2 3 1
0 3 5 6 1 3 4 1
0 4 0 5 2 5 3 1
0 0 2 5 5 6 3 1
0 2 1 7 0 0 0 2
0 6 5 8 4 3 7 1
0 5 9 8 3 8 7 1
0 5 2 7 3 6 9 1
0 5 7 9 3 9 8 1
0 7 1 10 0 0 0 2
0 8 9 11 7 8 10 1
0 8 11 12 7 10 11 1
0 9 7 11 8 9 10 1
0 7 10 11 9 12 10 1
0 10 1 0 0 0 0 2
0 12 11 3 11 10 1 1
0 11 4 3 10 2 1 1
0 11 10 0 10 12 5 1
0 11 0 4 10 5 2 1
"gun" 0 1
25
0 0.000001 3.933909 13.045374 0.093040 0.115640 -1
0 0.000001 3.750100 13.051327 0.092818 0.123533 -1
0 0.129974 3.880073 13.045370 0.093040 0.117952 -1
0 -0.000001 4.101064 2.937065 0.469402 0.110745 -1
0 -0.000000 3.933909 4.881677 0.397018 0.115640 -1
0 0.129973 3.880073 4.881677 0.397018 0.117952 -1
0 0.248168 3.998269 2.937065 0.469402 0.114270 -1
0 0.183810 3.750100 13.045370 0.093040 0.123533 -1
0 0.350963 3.750101 2.937065 0.469402 0.122779 -1
0 0.183809 3.750101 4.881677 0.397018 0.123533 -1
0 0.129974 3.620128 13.045370 0.093040 0.129113 -1
0 0.129973 3.620128 4.881677 0.397018 0.129113 -1
0 0.248168 3.501931 2.937065 0.469402 0.131289 -1
0 0.000001 3.566292 13.045374 0.093040 0.131425 -1
0 -0.000001 3.399136 2.937065 0.469402 0.134814 -1
0 -0.000000 3.566291 4.881677 0.397018 0.131425 -1
0 -0.129971 3.620128 13.045370 0.093040 0.129113 -1
0 -0.129972 3.620128 4.881677 0.397018 0.129113 -1
0 -0.248170 3.501931 2.937065 0.469402 0.131289 -1
0 -0.183809 3.750101 13.045370 0.093040 0.123533 -1
0 -0.350964 3.750101 2.937065 0.469402 0.122779 -1
0 -0.183809 3.750101 4.881677 0.397018 0.123533 -1
0 -0.129971 3.880073 13.045370 0.093040 0.117952 -1
0 -0.129972 3.880073 4.881677 0.397018 0.117952 -1
0 -0.248170 3.998269 2.937065 0.469402 0.114270 -1
33
-0.000000 0.032369 0.999476
0.000000 -0.000000 1.000000
0.022913 0.022893 0.999475
-0.000001 0.996326 0.085642
-0.000003 0.999081 0.042872
0.706457 0.706457 0.042872
0.704508 0.704509 0.085641
-0.000002 1.000000 0.000000
0.707108 0.707106 -0.000000
0.032390 -0.000000 0.999475
0.996326 0.000000 0.085641
0.999081 0.000000 0.042872
1.000000 -0.000000 -0.000000
0.022913 -0.022893 0.999475
0.706458 -0.706456 0.042872
0.704509 -0.704508 0.085642
0.707108 -0.707106 -0.000000
-0.000000 -0.032369 0.999476
-0.000001 -0.996326 0.085642
-0.000003 -0.999081 0.042872
-0.000002 -1.000000 0.000000
-0.022913 -0.022893 0.999475
-0.706456 -0.706457 0.042872
-0.704511 -0.704507 0.085643
-0.707105 -0.707109 0.000000
-0.032390 0.000000 0.999475
-0.996326 0.000000 0.085643
-0.999081 0.000000 0.042872
-1.000000 0.000000 0.000000
-0.022913 0.022893 0.999475
-0.706455 0.706459 0.042872
-0.704510 0.704508 0.085643
-0.707104 0.707110 0.000000
40
0 0 1 2 0 1 2 2
0 3 4 5 3 4 5 1
0 3 5 6 3 5 6 1
0 4 0 5 4 7 5 1
0 0 2 5 7 8 5 1
0 2 1 7 2 1 9 2
0 6 5 8 6 5 10 1
0 5 9 8 5 11 10 1
0 5 2 7 5 8 12 1
0 5 7 9 5 12 11 1
0 7 1 10 9 1 13 2
0 8 9 11 10 11 14 1
0 8 11 12 10 14 15 1
0 9 7 11 11 12 14 1
0 7 10 11 12 16 14 1
0 10 1 13 13 1 17 2
0 12 11 14 15 14 18 1
0 11 15 14 14 19 18 1
0 11 10 13 14 16 20 1
0 11 13 15 14 20 19 1
0 13 1 16 17 1 21 2
0 14 15 17 18 19 22 1
0 14 17 18 18 22 23 1
0 15 13 17 19 20 22 1
0 13 16 17 20 24 22 1
0 16 1 19 21 1 25 2
0 18 17 20 23 22 26 1
0 17 21 20 22 27 26 1
0 17 16 19 22 24 28 1
0 17 19 21 22 28 27 1
0 19 1 22 25 1 29 2
0 20 21 23 26 27 30 1
0 20 23 24 26 30 31 1
0 21 19 23 27 28 30 1
0 19 22 23 28 32 30 1
0 22 1 0 29 1 0 2
0 24 23 3 31 30 3 1
0 23 4 3 30 4 3 1
0 23 22 0 30 32 7 1
0 23 0 4 30 7 4 1
"gunbore" 0 1
17
0 0.178679 3.726807 13.546982 0.074246 0.123199 -1
0 0.000000 3.726807 13.546982 0.074246 0.123199 -1
0 0.126345 3.600462 13.546980 0.074246 0.128345 -1
0 0.178679 3.726808 13.026979 0.096765 0.123199 -1
0 0.126345 3.600462 13.026981 0.096765 0.128345 -1
0 0.000000 3.548128 13.546982 0.074246 0.130476 -1
0 0.000000 3.548128 13.026981 0.096765 0.130476 -1
0 -0.126345 3.600462 13.546980 0.074246 0.128345 -1
0 -0.126345 3.600462 13.026981 0.096765 0.128345 -1
0 -0.178679 3.726807 13.546982 0.074246 0.123199 -1
0 -0.178679 3.726808 13.026979 0.096765 0.123199 -1
0 -0.126345 3.853154 13.546980 0.074246 0.118053 -1
0 -0.126345 3.853153 13.026981 0.096765 0.118053 -1
0 -0.000000 3.905488 13.546980 0.074246 0.115921 -1
0 -0.000000 3.905487 13.026981 0.096765 0.115921 -1
0 0.126345 3.853154 13.546980 0.074246 0.118053 -1
0 0.126345 3.853153 13.026981 0.096765 0.118053 -1
24
0.000000 -0.000000 1.000000
0.000000 0.000003 1.000000
0.000008 -0.000008 1.000000
1.000000 0.000002 0.000000
1.000000 -0.000000 -0.000000
0.707108 -0.707106 0.000000
0.707108 -0.707106 0.000001
0.000000 0.000000 1.000000
0.000000 -1.000000 0.000000
0.000000 -1.000000 0.000000
-0.000008 -0.000008 1.000000
-0.707108 -0.707106 0.000000
-0.707108 -0.707106 0.000001
-1.000000 -0.000000 -0.000000
-1.000000 0.000002 0.000000
-0.000002 0.000013 1.000000
-0.707107 0.707107 -0.000001
-0.707108 0.707106 -0.000001
0.000000 0.000011 1.000000
-0.000000 1.000000 -0.000002
0.000000 1.000000 -0.000003
0.000002 0.000013 1.000000
0.707107 0.707107 -0.000001
0.707108 0.707106 -0.000001
24
0 0 1 2 0 1 2 2
0 3 0 4 3 4 5 1
0 0 2 4 4 6 5 1
0 2 1 5 2 1 7 2
0 4 2 5 5 6 8 1
0 4 5 6 5 8 9 1
0 5 1 7 7 1 10 2
0 6 5 8 9 8 11 1
0 5 7 8 8 12 11 1
0 7 1 9 10 1 0 2
0 8 7 9 11 12 13 1
0 8 9 10 11 13 14 1
0 9 1 11 0 1 15 2
0 10 9 12 14 13 16 1
0 9 11 12 13 17 16 1
0 11 1 13 15 1 18 2
0 12 11 13 16 17 19 1
0 12 13 14 16 19 20 1
0 13 1 15 18 1 21 2
0 14 13 16 20 19 22 1
0 13 15 16 19 23 22 1
0 15 1 0 21 1 0 2
0 16 15 0 22 23 4 1
0 16 0 3 22 4 3 1
"guntip" 0 1
18
0 0.243902 3.728269 8.473645 0.283169 0.122692 -1
0 0.172465 3.555805 8.473646 0.283169 0.129438 -1
0 0.000000 3.728269 8.473645 0.283169 0.122692 -1
0 0.243902 3.728269 10.619987 0.202554 0.122692 -1
0 0.000000 3.728269 10.619987 0.202554 0.122692 -1
0 0.172465 3.555805 10.619987 0.202554 0.129438 -1
0 0.000000 3.484368 8.473645 0.283169 0.132232 -1
0 0.000000 3.484368 10.619987 0.202554 0.132232 -1
0 -0.172465 3.555805 8.473646 0.283169 0.129438 -1
0 -0.172465 3.555805 10.619987 0.202554 0.129438 -1
0 -0.243902 3.728269 8.473645 0.283169 0.122692 -1
0 -0.243902 3.728269 10.619987 0.202554 0.122692 -1
0 -0.172465 3.900735 8.473646 0.283169 0.115945 -1
0 -0.172465 3.900735 10.619987 0.202554 0.115945 -1
0 -0.000000 3.972172 8.473646 0.283169 0.113151 -1
0 -0.000000 3.972172 10.619987 0.202554 0.113151 -1
0 0.172465 3.900735 8.473646 0.283169 0.115945 -1
0 0.172465 3.900735 10.619987 0.202554 0.115945 -1
25
0.000000 -0.000000 -1.000000
0.000003 -0.000003 -1.000000
0.000000 0.000001 -1.000000
0.000000 0.000000 1.000000
0.000000 0.000000 1.000000
-0.000001 0.000005 1.000000
1.000000 -0.000001 0.000000
0.707106 -0.707108 0.000000
0.000000 0.000000 -1.000000
0.000000 0.000004 1.000000
-0.000000 -1.000000 0.000000
0.000000 -1.000000 0.000000
-0.000003 -0.000003 -1.000000
0.000001 0.000005 1.000000
-0.707106 -0.707108 0.000000
-1.000000 -0.000001 0.000000
-0.000001 0.000005 -1.000000
0.000001 -0.000005 1.000000
-0.707107 0.707107 0.000000
0.000000 0.000004 -1.000000
0.000000 -0.000004 1.000000
0.000000 1.000000 0.000000
0.000001 0.000005 -1.000000
-0.000001 -0.000005 1.000000
0.707107 0.707107 0.000000
32
0 0 1 2 0 1 2 2
0 3 4 5 3 4 5 2
0 0 3 1 6 6 7 1
0 3 5 1 6 7 7 1
0 1 6 2 1 8 2 2
0 5 4 7 5 4 9 2
0 1 5 7 7 7 10 1
0 1 7 6 7 10 11 1
0 6 8 2 8 12 2 2
0 7 4 9 9 4 13 2
0 6 7 8 11 10 14 1
0 7 9 8 10 14 14 1
0 8 10 2 12 0 2 2
0 9 4 11 13 4 3 2
0 8 9 11 14 14 15 1
0 8 11 10 14 15 15 1
0 10 12 2 0 16 2 2
0 11 4 13 3 4 17 2
0 10 11 12 15 15 18 1
0 11 13 12 15 18 18 1
0 12 14 2 16 19 2 2
0 13 4 15 17 4 20 2
0 12 13 15 18 18 21 1
0 12 15 14 18 21 21 1
0 14 16 2 19 22 2 2
0 15 4 17 20 4 23 2
0 14 15 16 21 21 24 1
0 15 17 16 21 24 24 1
0 16 0 2 22 0 2 2
0 17 4 3 23 4 3 2
0 16 17 3 24 24 6 1
0 16 3 0 24 6 6 1
"turretsight" 0 1
16
0 -2.051954 4.148742 2.768293 0.408498 0.803275 -1
0 -2.051954 3.336242 2.768293 0.408498 0.831801 -1
0 -1.051954 4.148742 2.768293 0.456766 0.803275 -1
0 -1.051954 3.336242 2.768293 0.456766 0.831801 -1
0 -1.051954 4.148742 2.768293 0.477393 0.435801 -1
0 -1.051954 3.336242 2.768293 0.477393 0.435801 -1
0 -1.051954 4.148742 1.768293 0.509726 0.435751 -1
0 -1.051954 3.336242 1.768293 0.509726 0.435751 -1
0 -1.051954 4.148742 1.768293 0.456766 0.803275 -1
0 -1.051954 3.336242 1.768293 0.456766 0.831801 -1
0 -2.051954 4.148742 1.768293 0.408498 0.803275 -1
0 -2.051954 3.336242 1.768293 0.408498 0.831801 -1
0 -2.051954 4.148742 1.768293 0.509698 0.372392 -1
0 -2.051954 3.336242 1.768293 0.509698 0.372392 -1
0 -2.051954 4.148742 2.768293 0.477365 0.372442 -1
0 -2.051954 3.336242 2.768293 0.477365 0.372442 -1
6
0.000000 0.000000 1.000000
1.000000 0.000000 0.000000
0.000000 0.000000 -1.000000
-1.000000 0.000000 0.000000
0.000000 1.000000 0.000000
0.000000 -1.000000 0.000000
12
0 0 1 2 0 0 0 1
0 1 3 2 0 0 0 1
0 4 5 6 1 1 1 2
0 5 7 6 1 1 1 2
0 8 9 10 2 2 2 1
0 9 11 10 2 2 2 1
0 12 13 14 3 3 3 2
0 13 15 14 3 3 3 2
0 12 14 6 4 4 4 3
0 14 4 6 4 4 4 3
0 15 13 5 5 5 5 3
0 13 7 5 5 5 5 3
"turretsight" 0 1
16
0 1.051954 4.148742 2.768293 0.409193 0.802990 -1
0 2.051954 3.336242 2.768293 0.452586 0.832879 -1
0 2.051954 4.148742 2.768293 0.452586 0.802990 -1
0 1.051954 3.336242 2.768293 0.409193 0.832879 -1
0 1.051954 4.148742 1.768293 0.510265 0.492171 -1
0 1.051954 3.336242 2.768293 0.474169 0.492146 -1
0 1.051954 4.148742 2.768293 0.474169 0.492146 -1
0 1.051954 3.336242 1.768293 0.510265 0.492171 -1
0 2.051954 4.148742 1.768293 0.452586 0.802990 -1
0 1.051954 3.336242 1.768293 0.409193 0.832879 -1
0 1.051954 4.148742 1.768293 0.409193 0.802990 -1
0 2.051954 3.336242 1.768293 0.452586 0.832879 -1
0 2.051954 4.148742 2.768293 0.474121 0.565854 -1
0 2.051954 3.336242 1.768293 0.510217 0.565880 -1
0 2.051954 4.148742 1.768293 0.510217 0.565880 -1
0 2.051954 3.336242 2.768293 0.474121 0.565854 -1
6
0.000000 0.000000 1.000000
-1.000000 0.000000 0.000000
0.000000 0.000000 -1.000000
1.000000 0.000000 0.000000
0.000000 1.000000 0.000000
0.000000 -1.000000 0.000000
12
0 0 1 2 0 0 0 1
0 0 3 1 0 0 0 1
0 4 5 6 1 1 1 2
0 4 7 5 1 1 1 2
0 8 9 10 2 2 2 1
0 8 11 9 2 2 2 1
0 12 13 14 3 3 3 2
0 12 15 13 3 3 3 2
0 4 12 14 4 4 4 3
0 4 6 12 4 4 4 3
0 5 13 15 5 5 5 3
0 5 7 13 5 5 5 3
"turretdeckrear" 0 1
8
0 -1.620804 4.508759 -2.791660 0.708935 0.406521 -1
0 -1.620804 3.630710 -2.791660 0.708935 0.406521 -1
0 1.620804 4.508759 -2.791660 0.709254 0.537925 -1
0 1.620804 3.630710 -2.791660 0.709254 0.537925 -1
0 1.620804 4.508759 -4.599524 0.763186 0.537707 -1
0 1.620804 3.825831 -4.599524 0.763186 0.537707 -1
0 -1.620804 4.508759 -4.599524 0.762867 0.406303 -1
0 -1.620804 3.825831 -4.599524 0.762867 0.406303 -1
6
0.000000 0.000000 1.000000
1.000000 0.000000 0.000000
0.000000 0.000000 -1.000000
-1.000000 0.000000 0.000000
0.000000 1.000000 0.000000
0.000000 -0.994226 -0.107306
12
0 0 1 2 0 0 0 1
0 1 3 2 0 0 0 1
0 2 3 4 1 1 1 2
0 3 5 4 1 1 1 2
0 4 5 6 2 2 2 1
0 5 7 6 2 2 2 1
0 6 7 0 3 3 3 2
0 7 1 0 3 3 3 2
0 6 0 4 4 4 4 3
0 0 2 4 4 4 4 3
0 1 7 3 5 5 5 3
0 7 5 3 5 5 5 3
"turretdeckright" 0 1
12
0 2.885128 4.508759 -0.433480 0.609857 0.569088 -1
0 2.885128 3.630710 -0.433480 0.609857 0.569088 -1
0 4.010265 4.508759 -1.031725 0.630316 0.615624 -1
0 4.010265 3.630710 -1.031725 0.630316 0.615624 -1
0 4.010265 4.508759 -1.031725 0.656228 0.093426 -1
0 4.010265 3.630710 -1.031725 0.656228 0.125092 -1
0 2.773606 4.508759 -3.357538 0.730791 0.093426 -1
0 2.773606 3.630710 -3.357538 0.730791 0.125092 -1
0 2.773606 4.508759 -3.357538 0.723243 0.570097 -1
0 2.773606 3.630710 -3.357538 0.723243 0.570097 -1
0 1.648470 4.508759 -2.759293 0.702784 0.523561 -1
0 1.648470 3.630710 -2.759293 0.702784 0.523561 -1
6
0.469471 0.000000 0.882948
0.882947 0.000000 -0.469472
-0.469471 0.000000 -0.882948
-0.882948 0.000000 0.469472
0.000000 1.000000 0.000000
0.000000 -1.000000 0.000000
12
0 0 1 2 0 0 0 1
0 1 3 2 0 0 0 1
0 4 5 6 1 1 1 2
0 5 7 6 1 1 1 2
0 8 9 10 2 2 2 1
0 9 11 10 2 2 2 1
0 10 11 0 3 3 3 2
0 11 1 0 3 3 3 2
0 10 0 8 4 4 4 3
0 0 2 8 4 4 4 3
0 1 11 3 5 5 5 3
0 11 9 3 5 5 5 3
"turretdeckleft" 0 1
8
0 -4.010265 4.508759 -1.031725 0.629267 0.323999 -1
0 -2.885128 3.630710 -0.433480 0.614025 0.362368 -1
0 -2.885128 4.508759 -0.433480 0.614025 0.362368 -1
0 -4.010265 3.630710 -1.031725 0.629267 0.323999 -1
0 -2.773606 4.508759 -3.357538 0.705328 0.360765 -1
0 -2.773606 3.630710 -3.357538 0.705328 0.360765 -1
0 -1.648470 4.508759 -2.759293 0.690086 0.399135 -1
0 -1.648470 3.630710 -2.759293 0.690086 0.399135 -1
6
-0.469471 0.000000 0.882948
-0.882947 0.000000 -0.469472
0.469471 0.000000 -0.882948
0.882948 0.000000 0.469472
0.000000 1.000000 0.000000
0.000000 -1.000000 0.000000
12
0 0 1 2 0 0 0 1
0 0 3 1 0 0 0 1
0 4 3 0 1 1 1 2
0 4 5 3 1 1 1 2
0 6 5 4 2 2 2 1
0 6 7 5 2 2 2 1
0 2 7 6 3 3 3 2
0 2 1 7 3 3 3 2
0 4 2 6 4 4 4 3
0 4 0 2 4 4 4 3
0 3 7 1 5 5 5 3
0 3 5 7 5 5 5 3
"turretarmor" 0 0
13
0 -2.426203 3.456977 2.658017 0.000000 1.000000 -1
0 -2.942696 3.456977 2.322604 0.000000 0.000000 -1
0 -1.809475 2.970842 1.708338 0.333333 1.000000 -1
0 -2.325967 2.970842 1.372924 0.333333 0.000000 -1
0 -2.325967 4.459085 1.372924 0.666667 0.000000 -1
0 -1.809475 4.459085 1.708338 0.666667 1.000000 -1
0 -2.426203 3.456977 2.658017 1.000000 1.000000 -1
0 -2.942696 3.456977 2.322604 1.000000 0.000000 -1
0 -2.426203 3.456977 2.658017 0.000000 0.000000 -1
0 -1.809475 2.970842 1.708338 0.000000 0.000000 -1
0 -1.809475 4.459085 1.708338 0.000000 0.000000 -1
0 -2.325967 4.459085 1.372924 0.000000 0.000000 -1
0 -2.325967 2.970842 1.372924 0.000000 0.000000 -1
6
-0.047333 0.279356 0.959020
-0.786350 -0.525544 0.324741
0.619759 -0.760222 -0.194835
-0.342237 -0.617977 -0.707799
-0.245067 0.778820 -0.577392
0.790053 0.578700 0.202292
8
0 0 1 2 0 1 2 1
0 1 3 2 1 3 2 1
0 2 3 4 2 3 4 1
0 2 4 5 2 4 5 1
0 5 4 6 5 4 0 1
0 4 7 6 4 1 0 1
0 8 9 10 0 2 5 1
0 1 11 12 1 4 3 1
"turretarmor" 0 0
13
0 -3.401245 3.456977 1.878591 0.000000 1.000000 -1
0 -3.736660 3.456977 1.362100 0.000000 0.000000 -1
0 -2.451566 2.970842 1.261863 0.333333 1.000000 -1
0 -2.786980 2.970842 0.745371 0.333333 0.000000 -1
0 -2.786980 4.459085 0.745371 0.666667 0.000000 -1
0 -2.451566 4.459085 1.261863 0.666667 1.000000 -1
0 -3.401245 3.456977 1.878591 1.000000 1.000000 -1
0 -3.736660 3.456977 1.362100 1.000000 0.000000 -1
0 -3.401245 3.456977 1.878591 0.000000 0.000000 -1
0 -2.451566 2.970842 1.261863 0.000000 0.000000 -1
0 -2.451566 4.459085 1.261863 0.000000 0.000000 -1
0 -2.786980 4.459085 0.745371 0.000000 0.000000 -1
0 -2.786980 2.970842 0.745371 0.000000 0.000000 -1
6
-0.433309 0.279356 0.856857
-0.850451 -0.525544 -0.023172
0.645425 -0.760222 0.074088
-0.024761 -0.617976 -0.785807
0.010967 0.778820 -0.627151
0.639470 0.578700 0.506146
8
0 0 1 2 0 1 2 1
0 1 3 2 1 3 2 1
0 2 3 4 2 3 4 1
0 2 4 5 2 4 5 1
0 5 4 6 5 4 0 1
0 4 7 6 4 1 0 1
0 8 9 10 0 2 5 1
0 1 11 12 1 4 3 1
"turretarmor" 0 0
13
0 -3.957852 3.456977 0.862875 0.000000 1.000000 -1
0 -4.106840 3.456977 0.265322 0.000000 0.000000 -1
0 -2.859126 2.970842 0.588932 0.333333 1.000000 -1
0 -3.008112 2.970842 -0.008621 0.333333 0.000000 -1
0 -3.008112 4.459085 -0.008621 0.666667 0.000000 -1
0 -2.859126 4.459085 0.588932 0.666667 1.000000 -1
0 -3.957852 3.456977 0.862875 1.000000 1.000000 -1
0 -4.106840 3.456977 0.265322 1.000000 0.000000 -1
0 -3.957852 3.456977 0.862875 0.000000 0.000000 -1
0 -2.859126 2.970842 0.588932 0.000000 0.000000 -1
0 -2.859126 4.459085 0.588932 0.000000 0.000000 -1
0 -3.008112 4.459085 -0.008621 0.000000 0.000000 -1
0 -3.008112 2.970842 -0.008621 0.000000 0.000000 -1
6
-0.688667 0.279356 0.669102
-0.796573 -0.525544 -0.298789
0.586140 -0.760222 0.280182
0.232422 -0.617977 -0.751056
0.214550 0.778820 -0.589412
0.439846 0.578700 0.686762
8
0 0 1 2 0 1 2 1
0 1 3 2 1 3 2 1
0 2 3 4 2 3 4 1
0 2 4 5 2 4 5 1
0 5 4 6 5 4 0 1
0 4 7 6 4 1 0 1
0 8 9 10 0 2 5 1
0 1 11 12 1 4 3 1
"turretarmor" 0 0
13
0 1.809475 2.970842 1.708338 0.333333 1.000000 -1
0 2.942696 3.456977 2.322604 0.000000 0.000000 -1
0 2.426203 3.456977 2.658017 0.000000 1.000000 -1
0 2.325967 2.970842 1.372924 0.333333 0.000000 -1
0 2.325967 4.459085 1.372924 0.666667 0.000000 -1
0 1.809475 4.459085 1.708338 0.666667 1.000000 -1
0 2.426203 3.456977 2.658017 1.000000 1.000000 -1
0 2.942696 3.456977 2.322604 1.000000 0.000000 -1
0 1.809475 4.459085 1.708338 0.000000 0.000000 -1
0 1.809475 2.970842 1.708338 0.000000 0.000000 -1
0 2.426203 3.456977 2.658017 0.000000 0.000000 -1
0 2.325967 2.970842 1.372924 0.000000 0.000000 -1
0 2.325967 4.459085 1.372924 0.000000 0.000000 -1
6
-0.619759 -0.760222 -0.194835
0.786350 -0.525544 0.324741
0.047333 0.279356 0.959020
0.342237 -0.617977 -0.707799
0.245067 0.778820 -0.577392
-0.790053 0.578700 0.202292
8
0 0 1 2 0 1 2 1
0 0 3 1 0 3 1 1
0 4 3 0 4 3 0 1
0 5 4 0 5 4 0 1
0 6 4 5 2 4 5 1
0 6 7 4 2 1 4 1
0 8 9 10 5 0 2 1
0 11 12 1 3 4 1 1
"turretarmor" 0 0
13
0 2.451566 2.970842 1.261863 0.333333 1.000000 -1
0 3.736660 3.456977 1.362100 0.000000 0.000000 -1
0 3.401245 3.456977 1.878591 0.000000 1.000000 -1
0 2.786980 2.970842 0.745371 0.333333 0.000000 -1
0 2.786980 4.459085 0.745371 0.666667 0.000000 -1
0 2.451566 4.459085 1.261863 0.666667 1.000000 -1
0 3.401245 3.456977 1.878591 1.000000 1.000000 -1
0 3.736660 3.456977 1.362100 1.000000 0.000000 -1
0 2.451566 4.459085 1.261863 0.000000 0.000000 -1
0 2.451566 2.970842 1.261863 0.000000 0.000000 -1
0 3.401245 3.456977 1.878591 0.000000 0.000000 -1
0 2.786980 2.970842 0.745371 0.000000 0.000000 -1
0 2.786980 4.459085 0.745371 0.000000 0.000000 -1
6
-0.645425 -0.760222 0.074088
0.850451 -0.525544 -0.023172
0.433309 0.279356 0.856857
0.024761 -0.617976 -0.785807
-0.010967 0.778820 -0.627151
-0.639470 0.578700 0.506146
8
0 0 1 2 0 1 2 1
0 0 3 1 0 3 1 1
0 4 3 0 4 3 0 1
0 5 4 0 5 4 0 1
0 6 4 5 2 4 5 1
0 6 7 4 2 1 4 1
0 8 9 10 5 0 2 1
0 11 12 1 3 4 1 1
"turretarmor" 0 0
13
0 2.859126 2.970842 0.588932 0.333333 1.000000 -1
0 4.106840 3.456977 0.265322 0.000000 0.000000 -1
0 3.957852 3.456977 0.862875 0.000000 1.000000 -1
0 3.008112 2.970842 -0.008621 0.333333 0.000000 -1
0 3.008112 4.459085 -0.008621 0.666667 0.000000 -1
0 2.859126 4.459085 0.588932 0.666667 1.000000 -1
0 3.957852 3.456977 0.862875 1.000000 1.000000 -1
0 4.106840 3.456977 0.265322 1.000000 0.000000 -1
0 2.859126 4.459085 0.588932 0.000000 0.000000 -1
0 2.859126 2.970842 0.588932 0.000000 0.000000 -1
0 3.957852 3.456977 0.862875 0.000000 0.000000 -1
0 3.008112 2.970842 -0.008621 0.000000 0.000000 -1
0 3.008112 4.459085 -0.008621 0.000000 0.000000 -1
6
-0.586140 -0.760222 0.280182
0.796573 -0.525544 -0.298789
0.688667 0.279356 0.669102
-0.232422 -0.617977 -0.751056
-0.214550 0.778820 -0.589412
-0.439846 0.578700 0.686762
8
0 0 1 2 0 1 2 1
0 0 3 1 0 3 1 1
0 4 3 0 4 3 0 1
0 5 4 0 5 4 0 1
0 6 4 5 2 4 5 1
0 6 7 4 2 1 4 1
0 8 9 10 5 0 2 1
0 11 12 1 3 4 1 1
"turretgunsite" 0 1
14
0 0.695122 4.362417 1.412671 0.508148 0.491525 -1
0 0.347561 4.362417 2.014664 0.486592 0.480773 -1
0 0.000000 4.362417 1.412671 0.508192 0.470132 -1
0 0.695122 4.655100 1.412671 0.508148 0.491525 -1
0 0.000000 4.655100 1.412671 0.508192 0.470132 -1
0 0.347561 4.655100 2.014664 0.486592 0.480773 -1
0 -0.347561 4.362417 2.014664 0.486636 0.459380 -1
0 -0.347561 4.655100 2.014664 0.486636 0.459380 -1
0 -0.695122 4.362417 1.412671 0.508236 0.448739 -1
0 -0.695122 4.655100 1.412671 0.508236 0.448739 -1
0 -0.347561 4.362417 0.810678 0.529791 0.459491 -1
0 -0.347561 4.655100 0.810678 0.529791 0.459491 -1
0 0.347561 4.362417 0.810678 0.529747 0.480885 -1
0 0.347561 4.655100 0.810678 0.529747 0.480885 -1
8
0.000000 -1.000000 0.000000
0.000000 1.000000 0.000000
1.000000 0.000000 0.000000
0.500000 0.000000 0.866025
-0.500000 0.000000 0.866025
-1.000000 0.000000 0.000000
-0.500000 0.000000 -0.866025
0.500000 0.000000 -0.866025
24
0 0 1 2 0 0 0 2
0 3 4 5 1 1 1 2
0 0 3 1 2 2 3 1
0 3 5 1 2 3 3 1
0 1 6 2 0 0 0 2
0 5 4 7 1 1 1 2
0 1 5 7 3 3 4 1
0 1 7 6 3 4 4 1
0 6 8 2 0 0 0 2
0 7 4 9 1 1 1 2
0 6 7 8 4 4 5 1
0 7 9 8 4 5 5 1
0 8 10 2 0 0 0 2
0 9 4 11 1 1 1 2
0 8 9 11 5 5 6 1
0 8 11 10 5 6 6 1
0 10 12 2 0 0 0 2
0 11 4 13 1 1 1 2
0 10 11 12 6 6 7 1
0 11 13 12 6 7 7 1
0 12 0 2 0 0 0 2
0 13 4 3 1 1 1 2
0 12 13 3 7 7 2 1
0 12 3 0 7 2 2 1
"turrethatch" 0 1
18
0 2.268801 4.366991 -1.221475 0.630980 0.540824 -1
0 2.000911 4.366991 -0.574731 0.608885 0.532085 -1
0 1.354167 4.366991 -1.221475 0.630944 0.510914 -1
0 2.268801 4.757235 -1.221475 0.630980 0.540824 -1
0 1.354167 4.757235 -1.221475 0.630944 0.510914 -1
0 2.000911 4.757235 -0.574731 0.608885 0.532085 -1
0 1.354167 4.366991 -0.306841 0.599712 0.510944 -1
0 1.354167 4.757235 -0.306841 0.599712 0.510944 -1
0 0.707423 4.366991 -0.574731 0.608834 0.489785 -1
0 0.707423 4.757235 -0.574731 0.608834 0.489785 -1
0 0.439533 4.366991 -1.221475 0.630908 0.481003 -1
0 0.439533 4.757235 -1.221475 0.630908 0.481003 -1
0 0.707423 4.366991 -1.868219 0.653003 0.489742 -1
0 0.707423 4.757235 -1.868219 0.653003 0.489742 -1
0 1.354167 4.366991 -2.136109 0.662176 0.510884 -1
0 1.354167 4.757235 -2.136109 0.662176 0.510884 -1
0 2.000911 4.366991 -1.868219 0.653054 0.532042 -1
0 2.000911 4.757235 -1.868219 0.653054 0.532042 -1
12
0.000000 -1.000000 0.000000
0.000000 1.000000 0.000000
1.000000 0.000000 0.000000
0.707107 0.000000 0.707107
0.707107 0.000000 0.707107
-0.000000 0.000000 1.000000
-0.707107 0.000000 0.707107
-0.707107 0.000000 0.707107
-1.000000 0.000000 0.000000
-0.707107 0.000000 -0.707107
-0.000000 0.000000 -1.000000
0.707107 0.000000 -0.707107
32
0 0 1 2 0 0 0 2
0 3 4 5 1 1 1 2
0 0 3 1 2 2 3 1
0 3 5 1 2 4 3 1
0 1 6 2 0 0 0 2
0 5 4 7 1 1 1 2
0 1 5 7 3 4 5 1
0 1 7 6 3 5 5 1
0 6 8 2 0 0 0 2
0 7 4 9 1 1 1 2
0 6 7 8 5 5 6 1
0 7 9 8 5 7 6 1
0 8 10 2 0 0 0 2
0 9 4 11 1 1 1 2
0 8 9 11 6 7 8 1
0 8 11 10 6 8 8 1
0 10 12 2 0 0 0 2
0 11 4 13 1 1 1 2
0 10 11 12 8 8 9 1
0 11 13 12 8 9 9 1
0 12 14 2 0 0 0 2
0 13 4 15 1 1 1 2
0 12 13 15 9 9 10 1
0 12 15 14 9 10 10 1
0 14 16 2 0 0 0 2
0 15 4 17 1 1 1 2
0 14 15 16 10 10 11 1
0 15 17 16 10 11 11 1
0 16 0 2 0 0 0 2
0 17 4 3 1 1 1 2
0 16 17 3 11 11 2 1
0 16 3 0 11 2 2 1
"turrethatch" 0 1
18
0 -1.354167 4.491991 -1.221475 0.622513 0.421188 -1
0 -2.000911 4.491991 -0.574731 0.595626 0.394599 -1
0 -2.268801 4.491991 -1.221475 0.622474 0.383552 -1
0 -2.000911 4.882235 -0.574731 0.595626 0.394599 -1
0 -1.354167 4.882235 -1.221475 0.622513 0.421188 -1
0 -2.268801 4.882235 -1.221475 0.622474 0.383552 -1
0 -1.354167 4.491991 -0.306841 0.584528 0.421223 -1
0 -1.354167 4.882235 -0.306841 0.584528 0.421223 -1
0 -0.707423 4.491991 -0.574731 0.595681 0.447826 -1
0 -0.707423 4.882235 -0.574731 0.595681 0.447826 -1
0 -0.439533 4.491991 -1.221475 0.622551 0.458824 -1
0 -0.439533 4.882235 -1.221475 0.622551 0.458824 -1
0 -0.707423 4.491991 -1.868219 0.649400 0.447776 -1
0 -0.707423 4.882235 -1.868219 0.649400 0.447776 -1
0 -1.354167 4.491991 -2.136109 0.660497 0.421153 -1
0 -1.354167 4.882235 -2.136109 0.660497 0.421153 -1
0 -2.000911 4.491991 -1.868219 0.649344 0.394550 -1
0 -2.000911 4.882235 -1.868219 0.649344 0.394550 -1
12
0.000000 -1.000000 0.000000
0.000000 1.000000 0.000000
-0.707107 0.000000 0.707107
-1.000000 0.000000 0.000000
-0.707107 0.000000 0.707107
0.000000 0.000000 1.000000
0.707107 0.000000 0.707107
0.707107 0.000000 0.707107
1.000000 0.000000 0.000000
0.707107 0.000000 -0.707107
0.000000 0.000000 -1.000000
-0.707107 0.000000 -0.707107
32
0 0 1 2 0 0 0 2
0 3 4 5 1 1 1 2
0 1 5 2 2 3 3 1
0 1 3 5 2 4 3 1
0 0 6 1 0 0 0 2
0 7 4 3 1 1 1 2
0 7 3 1 5 4 2 1
0 6 7 1 5 5 2 1
0 0 8 6 0 0 0 2
0 9 4 7 1 1 1 2
0 8 7 6 6 5 5 1
0 8 9 7 6 7 5 1
0 0 10 8 0 0 0 2
0 11 4 9 1 1 1 2
0 11 9 8 8 7 6 1
0 10 11 8 8 8 6 1
0 0 12 10 0 0 0 2
0 13 4 11 1 1 1 2
0 12 11 10 9 8 8 1
0 12 13 11 9 9 8 1
0 0 14 12 0 0 0 2
0 15 4 13 1 1 1 2
0 15 13 12 10 9 9 1
0 14 15 12 10 10 9 1
0 0 16 14 0 0 0 2
0 17 4 15 1 1 1 2
0 16 15 14 11 10 10 1
0 16 17 15 11 11 10 1
0 0 2 16 0 0 0 2
0 5 4 17 1 1 1 2
0 5 17 16 3 11 11 1
0 2 5 16 3 3 11 1
"turretgunbase" 1 1
8
1 -1.690931 5.411198 0.263221 0.573642 0.393398 -1
1 -1.690931 4.630710 0.263221 0.573642 0.421355 -1
1 -1.014952 5.411198 0.263221 0.573642 0.393398 -1
1 -1.014952 4.630710 0.263221 0.573642 0.421355 -1
1 -1.014952 5.411198 -0.297755 0.591667 0.393398 -1
1 -1.014952 4.630710 -0.297755 0.591667 0.421355 -1
1 -1.690931 5.411198 -0.297755 0.591667 0.393398 -1
1 -1.690931 4.630710 -0.297755 0.591667 0.421355 -1
6
0.000000 0.000000 1.000000
1.000000 0.000000 0.000000
0.000000 0.000000 -1.000000
-1.000000 0.000000 0.000000
0.000000 1.000000 0.000000
0.000000 -1.000000 0.000000
12
1 0 1 2 0 0 0 1
1 1 3 2 0 0 0 1
1 2 3 4 1 1 1 2
1 3 5 4 1 1 1 2
1 4 5 6 2 2 2 1
1 5 7 6 2 2 2 1
1 6 7 0 3 3 3 2
1 7 1 0 3 3 3 2
1 6 0 4 4 4 4 3
1 0 2 4 4 4 4 3
1 1 7 3 5 5 5 3
1 7 5 3 5 5 5 3
"tread" 0 0
66
0 -3.152730 1.716851 7.439598 0.000000 1.000000 -1
0 -4.541614 1.716851 7.439598 0.000000 0.000000 -1
0 -3.152730 1.230860 7.254822 0.100000 1.000000 -1
0 -4.541614 1.230860 7.254822 0.100000 0.000000 -1
0 -4.541614 -0.100514 5.262642 0.200000 0.000000 -1
0 -3.152730 -0.100514 5.262638 0.200000 1.000000 -1
0 -3.152730 -0.100514 -5.378127 0.300000 1.000000 -1
0 -4.541614 -0.100514 -5.378127 0.300000 0.000000 -1
0 -4.541614 1.047186 -7.615617 0.400000 0.000000 -1
0 -3.152730 1.047186 -7.615617 0.400000 1.000000 -1
0 -3.152730 1.512770 -7.861617 0.500000 1.000000 -1
0 -4.541614 1.512770 -7.861617 0.500000 0.000000 -1
0 -4.541614 2.223250 -7.411535 0.600000 0.000000 -1
0 -3.152730 2.223250 -7.411535 0.600000 1.000000 -1
0 -3.152730 2.202842 7.234415 0.900000 1.000000 -1
0 -4.541614 2.202842 7.234415 0.900000 0.000000 -1
0 -4.541614 1.716851 7.439598 1.000000 0.000000 -1
0 -3.152730 1.716851 7.439598 1.000000 1.000000 -1
0 -3.152730 1.307199 7.047108 0.100000 1.000000 -1
0 -4.541614 1.716851 7.182850 0.000000 0.000000 -1
0 -3.152730 1.716851 7.182850 0.000000 1.000000 -1
0 -4.541614 1.307199 7.047108 0.100000 0.000000 -1
0 -4.541614 0.023007 4.996622 0.200000 0.000000 -1
0 -3.152730 0.023007 4.996614 0.200000 1.000000 -1
0 -3.152730 0.023007 -5.112108 0.300000 1.000000 -1
0 -4.541614 0.023007 -5.112108 0.300000 0.000000 -1
0 -4.541614 1.123527 -7.407904 0.400000 0.000000 -1
0 -3.152730 1.123527 -7.407904 0.400000 1.000000 -1
0 -3.152730 1.512770 -7.604870 0.500000 1.000000 -1
0 -4.541614 1.512769 -7.604867 0.500000 0.000000 -1
0 -4.541614 2.146909 -7.203820 0.600000 0.000000 -1
0 -3.152730 2.146909 -7.203820 0.600000 1.000000 -1
0 -4.541614 1.716851 7.182850 1.000000 0.000000 -1
0 -4.541614 2.126502 7.026700 0.900000 0.000000 -1
0 -3.152730 2.126502 7.026700 0.900000 1.000000 -1
0 -3.152730 1.716851 7.182850 1.000000 1.000000 -1
0 -3.152730 1.716851 7.439598 0.000000 0.000000 -1
0 -3.152730 1.716851 7.182850 0.000000 0.000000 -1
0 -3.152730 2.202842 7.234415 0.000000 0.000000 -1
0 -3.152730 2.126502 7.026700 0.000000 0.000000 -1
0 -3.152730 2.223250 -7.411535 0.000000 0.000000 -1
0 -3.152730 2.146909 -7.203820 0.000000 0.000000 -1
0 -3.152730 1.512770 -7.861617 0.000000 0.000000 -1
0 -3.152730 1.512770 -7.604870 0.000000 0.000000 -1
0 -3.152730 1.047186 -7.615617 0.000000 0.000000 -1
0 -3.152730 1.123527 -7.407904 0.000000 0.000000 -1
0 -3.152730 -0.100514 -5.378127 0.000000 0.000000 -1
0 -3.152730 0.023007 -5.112108 0.000000 0.000000 -1
0 -3.152730 -0.100514 5.262638 0.000000 0.000000 -1
0 -3.152730 0.023007 4.996614 0.000000 0.000000 -1
0 -3.152730 1.230860 7.254822 0.000000 0.000000 -1
0 -3.152730 1.307199 7.047108 0.000000 0.000000 -1
0 -4.541614 1.230860 7.254822 0.000000 0.000000 -1
0 -4.541614 1.307199 7.047108 0.000000 0.000000 -1
0 -4.541614 -0.100514 5.262642 0.000000 0.000000 -1
0 -4.541614 0.023007 4.996622 0.000000 0.000000 -1
0 -4.541614 -0.100514 -5.378127 0.000000 0.000000 -1
0 -4.541614 0.023007 -5.112108 0.000000 0.000000 -1
0 -4.541614 1.047186 -7.615617 0.000000 0.000000 -1
0 -4.541614 1.123527 -7.407904 0.000000 0.000000 -1
0 -4.541614 1.512770 -7.861617 0.000000 0.000000 -1
0 -4.541614 1.512769 -7.604867 0.000000 0.000000 -1
0 -4.541614 2.223250 -7.411535 0.000000 0.000000 -1
0 -4.541614 2.146909 -7.203820 0.000000 0.000000 -1
0 -4.541614 2.202842 7.234415 0.000000 0.000000 -1
0 -4.541614 2.126502 7.026700 0.000000 0.000000 -1
32
0.850374 0.009515 0.526092
-0.628513 0.014065 0.777672
0.618607 -0.489444 0.614631
-0.844160 -0.333952 0.419368
-0.616869 -0.753166 0.228505
0.843055 -0.514663 0.156145
0.610870 -0.769604 -0.185868
-0.839196 -0.528630 -0.127670
-0.618147 -0.559193 -0.552446
0.843869 -0.381694 -0.377088
0.655040 0.029686 -0.755011
-0.866249 0.019629 -0.499227
-0.707107 0.378406 -0.597335
0.707107 0.378406 -0.597335
0.707107 0.275030 0.651428
-0.707107 0.275030 0.651428
0.623333 0.482897 -0.615034
-0.622846 -0.017290 -0.782154
0.846839 -0.011754 -0.531719
-0.847145 0.328142 -0.417933
-0.615198 0.757722 -0.217691
0.841985 0.518526 -0.148970
0.609661 0.772947 0.175690
-0.838411 0.531482 0.120805
-0.620934 0.560188 0.548298
0.845635 0.381453 0.373356
0.653066 -0.036136 0.756438
-0.865104 -0.023935 0.501021
-0.447213 -0.478078 0.755938
0.894427 -0.239039 0.377969
-0.894427 -0.159289 -0.417884
0.447214 -0.318578 -0.835768
56
0 0 1 2 0 1 2 1
0 1 3 2 1 3 2 1
0 2 3 4 2 3 4 1
0 2 4 5 2 4 5 1
0 5 4 6 5 4 6 1
0 4 7 6 4 7 6 1
0 6 7 8 6 7 8 1
0 6 8 9 6 8 9 1
0 9 8 10 9 8 10 1
0 8 11 10 8 11 10 1
0 10 11 12 10 11 12 1
0 10 12 13 10 12 13 1
0 14 15 16 14 15 1 1
0 14 16 17 14 1 0 1
0 18 19 20 16 17 18 1
0 18 21 19 16 19 17 1
0 22 21 18 20 19 16 1
0 23 22 18 21 20 16 1
0 24 22 23 22 20 21 1
0 24 25 22 22 23 20 1
0 26 25 24 24 23 22 1
0 27 26 24 25 24 22 1
0 28 26 27 26 24 25 1
0 28 29 26 26 27 24 1
0 30 29 28 28 27 26 1
0 31 30 28 29 28 26 1
0 32 33 34 17 30 31 1
0 35 32 34 18 17 31 1
0 36 37 38 0 18 14 1
0 38 37 39 14 18 31 1
0 40 41 42 13 29 10 1
0 42 41 43 10 29 26 1
0 42 43 44 10 26 9 1
0 44 43 45 9 26 25 1
0 44 45 46 9 25 6 1
0 46 45 47 6 25 22 1
0 46 47 48 6 22 5 1
0 48 47 49 5 22 21 1
0 48 49 50 5 21 2 1
0 50 49 51 2 21 16 1
0 50 51 36 2 16 0 1
0 36 51 37 0 16 18 1
0 1 19 52 1 17 3 1
0 52 19 53 3 17 19 1
0 52 53 54 3 19 4 1
0 54 53 55 4 19 20 1
0 54 55 56 4 20 7 1
0 56 55 57 7 20 23 1
0 56 57 58 7 23 8 1
0 58 57 59 8 23 24 1
0 58 59 60 8 24 11 1
0 60 59 61 11 24 27 1
0 60 61 62 11 27 12 1
0 62 61 63 12 27 28 1
0 64 65 1 15 30 1 1
0 1 65 19 1 30 17 1
"tread" 0 0
66
0 3.152730 1.230860 7.254822 0.100000 1.000000 -1
0 4.541614 1.716851 7.439598 0.000000 0.000000 -1
0 3.152730 1.716851 7.439598 0.000000 1.000000 -1
0 4.541614 1.230860 7.254822 0.100000 0.000000 -1
0 4.541614 -0.100514 5.262642 0.200000 0.000000 -1
0 3.152730 -0.100514 5.262638 0.200000 1.000000 -1
0 3.152730 -0.100514 -5.378127 0.300000 1.000000 -1
0 4.541614 -0.100514 -5.378127 0.300000 0.000000 -1
0 4.541614 1.047186 -7.615617 0.400000 0.000000 -1
0 3.152730 1.047186 -7.615617 0.400000 1.000000 -1
0 3.152730 1.512770 -7.861617 0.500000 1.000000 -1
0 4.541614 1.512770 -7.861617 0.500000 0.000000 -1
0 4.541614 2.223250 -7.411535 0.600000 0.000000 -1
0 3.152730 2.223250 -7.411535 0.600000 1.000000 -1
0 4.541614 1.716851 7.439598 1.000000 0.000000 -1
0 4.541614 2.202842 7.234415 0.900000 0.000000 -1
0 3.152730 2.202842 7.234415 0.900000 1.000000 -1
0 3.152730 1.716851 7.439598 1.000000 1.000000 -1
0 3.152730 1.716851 7.182850 0.000000 1.000000 -1
0 4.541614 1.716851 7.182850 0.000000 0.000000 -1
0 3.152730 1.307199 7.047108 0.100000 1.000000 -1
0 4.541614 1.307199 7.047108 0.100000 0.000000 -1
0 4.541614 0.023007 4.996622 0.200000 0.000000 -1
0 3.152730 0.023007 4.996614 0.200000 1.000000 -1
0 3.152730 0.023007 -5.112108 0.300000 1.000000 -1
0 4.541614 0.023007 -5.112108 0.300000 0.000000 -1
0 4.541614 1.123527 -7.407904 0.400000 0.000000 -1
0 3.152730 1.123527 -7.407904 0.400000 1.000000 -1
0 3.152730 1.512770 -7.604870 0.500000 1.000000 -1
0 4.541614 1.512769 -7.604867 0.500000 0.000000 -1
0 4.541614 2.146909 -7.203820 0.600000 0.000000 -1
0 3.152730 2.146909 -7.203820 0.600000 1.000000 -1
0 3.152730 2.126502 7.026700 0.900000 1.000000 -1
0 4.541614 2.126502 7.026700 0.900000 0.000000 -1
0 4.541614 1.716851 7.182850 1.000000 0.000000 -1
0 3.152730 1.716851 7.182850 1.000000 1.000000 -1
0 3.152730 2.202842 7.234415 0.000000 0.000000 -1
0 3.152730 1.716851 7.182850 0.000000 0.000000 -1
0 3.152730 1.716851 7.439598 0.000000 0.000000 -1
0 3.152730 2.126502 7.026700 0.000000 0.000000 -1
0 3.152730 1.512770 -7.861617 0.000000 0.000000 -1
0 3.152730 2.146909 -7.203820 0.000000 0.000000 -1
0 3.152730 2.223250 -7.411535 0.000000 0.000000 -1
0 3.152730 1.512770 -7.604870 0.000000 0.000000 -1
0 3.152730 1.047186 -7.615617 0.000000 0.000000 -1
0 3.152730 1.123527 -7.407904 0.000000 0.000000 -1
0 3.152730 -0.100514 -5.378127 0.000000 0.000000 -1
0 3.152730 0.023007 -5.112108 0.000000 0.000000 -1
0 3.152730 -0.100514 5.262638 0.000000 0.000000 -1
0 3.152730 0.023007 4.996614 0.000000 0.000000 -1
0 3.152730 1.230860 7.254822 0.000000 0.000000 -1
0 3.152730 1.307199 7.047108 0.000000 0.000000 -1
0 4.541614 1.230860 7.254822 0.000000 0.000000 -1
0 4.541614 1.307199 7.047108 0.000000 0.000000 -1
0 4.541614 -0.100514 5.262642 0.000000 0.000000 -1
0 4.541614 0.023007 4.996622 0.000000 0.000000 -1
0 4.541614 -0.100514 -5.378127 0.000000 0.000000 -1
0 4.541614 0.023007 -5.112108 0.000000 0.000000 -1
0 4.541614 1.047186 -7.615617 0.000000 0.000000 -1
0 4.541614 1.123527 -7.407904 0.000000 0.000000 -1
0 4.541614 1.512770 -7.861617 0.000000 0.000000 -1
0 4.541614 1.512769 -7.604867 0.000000 0.000000 -1
0 4.541614 2.223250 -7.411535 0.000000 0.000000 -1
0 4.541614 2.146909 -7.203820 0.000000 0.000000 -1
0 4.541614 2.126502 7.026700 0.000000 0.000000 -1
0 4.541614 2.202842 7.234415 0.000000 0.000000 -1
32
-0.618607 -0.489444 0.614631
0.628513 0.014065 0.777672
-0.850374 0.009515 0.526092
0.844160 -0.333952 0.419368
0.616869 -0.753166 0.228505
-0.843055 -0.514663 0.156145
-0.610870 -0.769604 -0.185868
0.839196 -0.528630 -0.127670
0.618147 -0.559193 -0.552446
-0.843869 -0.381694 -0.377088
-0.655040 0.029686 -0.755011
0.866249 0.019629 -0.499227
0.707107 0.378406 -0.597335
-0.707107 0.378406 -0.597335
0.707107 0.275030 0.651428
-0.707107 0.275030 0.651428
-0.846839 -0.011754 -0.531719
0.622846 -0.017290 -0.782154
-0.623333 0.482897 -0.615034
0.847145 0.328142 -0.417933
0.615198 0.757722 -0.217691
-0.841985 0.518526 -0.148970
-0.609661 0.772947 0.175690
0.838411 0.531482 0.120805
0.620934 0.560188 0.548298
-0.845635 0.381453 0.373356
-0.653066 -0.036136 0.756438
0.865104 -0.023935 0.501021
0.447213 -0.478078 0.755938
-0.894427 -0.239039 0.377969
-0.447214 -0.318578 -0.835768
0.894427 -0.159289 -0.417884
56
0 0 1 2 0 1 2 1
0 0 3 1 0 3 1 1
0 4 3 0 4 3 0 1
0 5 4 0 5 4 0 1
0 6 4 5 6 4 5 1
0 6 7 4 6 7 4 1
0 8 7 6 8 7 6 1
0 9 8 6 9 8 6 1
0 10 8 9 10 8 9 1
0 10 11 8 10 11 8 1
0 12 11 10 12 11 10 1
0 13 12 10 13 12 10 1
0 14 15 16 1 14 15 1
0 17 14 16 2 1 15 1
0 18 19 20 16 17 18 1
0 19 21 20 17 19 18 1
0 20 21 22 18 19 20 1
0 20 22 23 18 20 21 1
0 23 22 24 21 20 22 1
0 22 25 24 20 23 22 1
0 24 25 26 22 23 24 1
0 24 26 27 22 24 25 1
0 27 26 28 25 24 26 1
0 26 29 28 24 27 26 1
0 28 29 30 26 27 28 1
0 28 30 31 26 28 29 1
0 32 33 34 30 31 17 1
0 32 34 35 30 17 16 1
0 36 37 38 15 16 2 1
0 39 37 36 30 16 15 1
0 40 41 42 10 29 13 1
0 43 41 40 26 29 10 1
0 44 43 40 9 26 10 1
0 45 43 44 25 26 9 1
0 46 45 44 6 25 9 1
0 47 45 46 22 25 6 1
0 48 47 46 5 22 6 1
0 49 47 48 21 22 5 1
0 50 49 48 0 21 5 1
0 51 49 50 18 21 0 1
0 38 51 50 2 18 0 1
0 37 51 38 16 18 2 1
0 52 19 1 3 17 1 1
0 53 19 52 19 17 3 1
0 54 53 52 4 19 3 1
0 55 53 54 20 19 4 1
0 56 55 54 7 20 4 1
0 57 55 56 23 20 7 1
0 58 57 56 8 23 7 1
0 59 57 58 24 23 8 1
0 60 59 58 11 24 8 1
0 61 59 60 27 24 11 1
0 62 61 60 12 27 11 1
0 63 61 62 28 27 12 1
0 1 64 65 1 31 14 1
0 19 64 1 17 31 1 1
"turretpivot" 0 -1
20
0 -0.071429 3.014803 -0.341600 0.000000 0.000000 -1
0 -0.071429 2.933171 -0.341600 0.000000 1.000000 -1
0 0.071429 3.014803 -0.341600 1.000000 0.000000 -1
0 0.071429 2.933171 -0.341600 1.000000 1.000000 -1
0 0.071429 3.014803 -0.341600 0.000000 0.000000 -1
0 0.071429 2.933171 -0.341600 0.000000 1.000000 -1
0 0.071429 3.014803 -0.484457 1.000000 0.000000 -1
0 0.071429 2.933171 -0.484457 1.000000 1.000000 -1
0 0.071429 3.014803 -0.484457 0.000000 0.000000 -1
0 0.071429 2.933171 -0.484457 0.000000 1.000000 -1
0 -0.071429 3.014803 -0.484457 1.000000 0.000000 -1
0 -0.071429 2.933171 -0.484457 1.000000 1.000000 -1
0 -0.071429 3.014803 -0.484457 0.000000 0.000000 -1
0 -0.071429 2.933171 -0.484457 0.000000 1.000000 -1
0 -0.071429 3.014803 -0.341600 1.000000 0.000000 -1
0 -0.071429 2.933171 -0.341600 1.000000 1.000000 -1
0 -0.071429 3.014803 -0.341600 0.000000 1.000000 -1
0 0.071429 3.014803 -0.341600 1.000000 1.000000 -1
0 -0.071429 2.933171 -0.341600 0.000000 0.000000 -1
0 0.071429 2.933171 -0.341600 1.000000 0.000000 -1
6
0.000000 0.000000 1.000000
1.000000 0.000000 0.000000
0.000000 0.000000 -1.000000
-1.000000 0.000000 0.000000
0.000000 1.000000 0.000000
0.000000 -1.000000 0.000000
12
0 0 1 2 0 0 0 1
0 1 3 2 0 0 0 1
0 4 5 6 1 1 1 2
0 5 7 6 1 1 1 2
0 8 9 10 2 2 2 1
0 9 11 10 2 2 2 1
0 12 13 14 3 3 3 2
0 13 15 14 3 3 3 2
0 12 16 6 4 4 4 3
0 16 17 6 4 4 4 3
0 18 13 19 5 5 5 3
0 13 7 19 5 5 5 3
"gunpivot" 0 -1
20
0 -0.122449 3.871946 2.311461 0.000000 0.000000 -1
0 -0.122449 3.627048 2.311461 0.000000 1.000000 -1
0 0.122449 3.871946 2.311461 1.000000 0.000000 -1
0 0.122449 3.627048 2.311461 1.000000 1.000000 -1
0 0.122449 3.871946 2.311461 0.000000 0.000000 -1
0 0.122449 3.627048 2.311461 0.000000 1.000000 -1
0 0.122449 3.871946 2.127788 1.000000 0.000000 -1
0 0.122449 3.627048 2.127788 1.000000 1.000000 -1
0 0.122449 3.871946 2.127788 0.000000 0.000000 -1
0 0.122449 3.627048 2.127788 0.000000 1.000000 -1
0 -0.122449 3.871946 2.127788 1.000000 0.000000 -1
0 -0.122449 3.627048 2.127788 1.000000 1.000000 -1
0 -0.122449 3.871946 2.127788 0.000000 0.000000 -1
0 -0.122449 3.627048 2.127788 0.000000 1.000000 -1
0 -0.122449 3.871946 2.311461 1.000000 0.000000 -1
0 -0.122449 3.627048 2.311461 1.000000 1.000000 -1
0 -0.122449 3.871946 2.311461 0.000000 1.000000 -1
0 0.122449 3.871946 2.311461 1.000000 1.000000 -1
0 -0.122449 3.627048 2.311461 0.000000 0.000000 -1
0 0.122449 3.627048 2.311461 1.000000 0.000000 -1
6
0.000000 0.000000 1.000000
1.000000 0.000000 0.000000
0.000000 0.000000 -1.000000
-1.000000 0.000000 0.000000
0.000000 1.000000 0.000000
0.000000 -1.000000 0.000000
12
0 0 1 2 0 0 0 1
0 1 3 2 0 0 0 1
0 4 5 6 1 1 1 2
0 5 7 6 1 1 1 2
0 8 9 10 2 2 2 1
0 9 11 10 2 2 2 1
0 12 13 14 3 3 3 2
0 13 15 14 3 3 3 2
0 12 16 6 4 4 4 3
0 16 17 6 4 4 4 3
0 18 13 19 5 5 5 3
0 13 7 19 5 5 5 3
"turretmgun" 0 0
60
0 -1.837322 5.435588 1.244570 0.000000 0.000000 -1
0 -1.837322 4.947783 1.244570 0.000000 1.000000 -1
0 -0.946992 5.435588 1.244570 1.000000 0.000000 -1
0 -0.946992 4.947783 1.244570 1.000000 1.000000 -1
0 -0.946992 5.435588 1.244570 0.000000 0.000000 -1
0 -0.946992 4.947783 1.244570 0.000000 1.000000 -1
0 -0.946992 5.435588 -0.267625 1.000000 0.000000 -1
0 -0.946992 4.947783 -0.267625 1.000000 1.000000 -1
0 -0.946992 5.435588 -0.267625 0.000000 0.000000 -1
0 -0.946992 4.947783 -0.267625 0.000000 1.000000 -1
0 -1.837322 5.435588 -0.267625 1.000000 0.000000 -1
0 -1.837322 4.947783 -0.267625 1.000000 1.000000 -1
0 -1.837322 5.435588 -0.267625 0.000000 0.000000 -1
0 -1.837322 4.947783 -0.267625 0.000000 1.000000 -1
0 -1.837322 5.435588 1.244570 1.000000 0.000000 -1
0 -1.837322 4.947783 1.244570 1.000000 1.000000 -1
0 -1.837322 5.435588 1.244570 0.000000 1.000000 -1
0 -0.946992 5.435588 1.244570 1.000000 1.000000 -1
0 -1.837322 4.947783 1.244570 0.000000 0.000000 -1
0 -0.946992 4.947783 1.244570 1.000000 0.000000 -1
0 -1.428988 5.386807 3.415780 0.000000 0.000000 -1
0 -1.428988 5.264856 3.415780 0.000000 1.000000 -1
0 -1.237679 5.386807 3.415780 1.000000 0.000000 -1
0 -1.237679 5.264856 3.415780 1.000000 1.000000 -1
0 -1.237679 5.386807 3.415780 0.000000 0.000000 -1
0 -1.237679 5.264856 3.415780 0.000000 1.000000 -1
0 -1.237679 5.386807 1.171877 1.000000 0.000000 -1
0 -1.237679 5.264856 1.171877 1.000000 1.000000 -1
0 -1.237679 5.386807 1.171877 0.000000 0.000000 -1
0 -1.237679 5.264856 1.171877 0.000000 1.000000 -1
0 -1.428988 5.386807 1.171877 1.000000 0.000000 -1
0 -1.428988 5.264856 1.171877 1.000000 1.000000 -1
0 -1.428988 5.386807 1.171877 0.000000 0.000000 -1
0 -1.428988 5.264856 1.171877 0.000000 1.000000 -1
0 -1.428988 5.386807 3.415780 1.000000 0.000000 -1
0 -1.428988 5.264856 3.415780 1.000000 1.000000 -1
0 -1.428988 5.386807 3.415780 0.000000 1.000000 -1
0 -1.237679 5.386807 3.415780 1.000000 1.000000 -1
0 -1.428988 5.264856 3.415780 0.000000 0.000000 -1
0 -1.237679 5.264856 3.415780 1.000000 0.000000 -1
0 -2.760287 5.220388 0.530811 0.000000 0.000000 -1
0 -2.760287 4.762055 0.530811 0.000000 1.000000 -1
0 -1.760287 5.220388 0.530811 1.000000 0.000000 -1
0 -1.760287 4.762055 0.530811 1.000000 1.000000 -1
0 -1.760287 5.220388 0.530811 0.000000 0.000000 -1
0 -1.760287 4.762055 0.530811 0.000000 1.000000 -1
0 -1.760287 5.220388 -0.099438 1.000000 0.000000 -1
0 -1.760287 4.762055 -0.099438 1.000000 1.000000 -1
0 -1.760287 5.220388 -0.099438 0.000000 0.000000 -1
0 -1.760287 4.762055 -0.099438 0.000000 1.000000 -1
0 -2.760287 5.220388 -0.099438 1.000000 0.000000 -1
0 -2.760287 4.762055 -0.099438 1.000000 1.000000 -1
0 -2.760287 5.220388 -0.099438 0.000000 0.000000 -1
0 -2.760287 4.762055 -0.099438 0.000000 1.000000 -1
0 -2.760287 5.220388 0.530811 1.000000 0.000000 -1
0 -2.760287 4.762055 0.530811 1.000000 1.000000 -1
0 -2.760287 5.220388 0.530811 0.000000 1.000000 -1
0 -1.760287 5.220388 0.530811 1.000000 1.000000 -1
0 -2.760287 4.762055 0.530811 0.000000 0.000000 -1
0 -1.760287 4.762055 0.530811 1.000000 0.000000 -1
6
0.000000 0.000000 1.000000
1.000000 0.000000 0.000000
0.000000 0.000000 -1.000000
-1.000000 0.000000 0.000000
0.000000 1.000000 0.000000
0.000000 -1.000000 0.000000
36
0 0 1 2 0 0 0 1
0 1 3 2 0 0 0 1
0 4 5 6 1 1 1 2
0 5 7 6 1 1 1 2
0 8 9 10 2 2 2 1
0 9 11 10 2 2 2 1
0 12 13 14 3 3 3 2
0 13 15 14 3 3 3 2
0 12 16 6 4 4 4 3
0 16 17 6 4 4 4 3
0 18 13 19 5 5 5 3
0 13 7 19 5 5 5 3
0 20 21 22 0 0 0 1
0 21 23 22 0 0 0 1
0 24 25 26 1 1 1 2
0 25 27 26 1 1 1 2
0 28 29 30 2 2 2 1
0 29 31 30 2 2 2 1
0 32 33 34 3 3 3 2
0 33 35 34 3 3 3 2
0 32 36 26 4 4 4 3
0 36 37 26 4 4 4 3
0 38 33 39 5 5 5 3
0 33 27 39 5 5 5 3
0 40 41 42 0 0 0 1
0 41 43 42 0 0 0 1
0 44 45 46 1 1 1 2
0 45 47 46 1 1 1 2
0 48 49 50 2 2 2 1
0 49 51 50 2 2 2 1
0 52 53 54 3 3 3 2
0 53 55 54 3 3 3 2
0 52 56 46 4 4 4 3
0 56 57 46 4 4 4 3
0 58 53 59 5 5 5 3
0 53 47 59 5 5 5 3
"Duplicate22" 0 1
144
0 3.554167 0.804099 1.000036 0.545877 0.230487 -1
0 3.554167 0.804099 1.825036 0.516034 0.230487 -1
0 3.554167 1.387462 1.583399 0.524775 0.207084 -1
0 4.154167 0.804099 1.825036 0.516034 0.230487 -1
0 4.154167 0.804099 1.000036 0.545877 0.230487 -1
0 4.154167 1.387462 1.583399 0.524775 0.207084 -1
0 3.554167 0.220736 1.583399 0.524775 0.253890 -1
0 4.154167 0.220736 1.583399 0.524775 0.253890 -1
0 3.554167 -0.020901 1.000036 0.545877 0.263584 -1
0 4.154167 -0.020901 1.000036 0.545877 0.263584 -1
0 3.554167 0.220736 0.416673 0.566980 0.253890 -1
0 4.154167 0.220736 0.416673 0.566980 0.253890 -1
0 3.554167 0.804099 0.175036 0.575721 0.230487 -1
0 4.154167 0.804099 0.175036 0.575721 0.230487 -1
0 3.554167 1.387462 0.416673 0.566980 0.207084 -1
0 4.154167 1.387462 0.416673 0.566980 0.207084 -1
0 3.554167 1.629099 1.000036 0.545877 0.197389 -1
0 4.154167 1.629099 1.000036 0.545877 0.197389 -1
0 3.554167 1.387462 -1.583399 0.642493 0.207133 -1
0 3.554167 0.804099 -1.825036 0.651487 0.230505 -1
0 3.554167 0.804099 -1.000036 0.620777 0.230505 -1
0 4.154167 1.387462 -1.583399 0.642493 0.207133 -1
0 4.154167 0.804099 -1.000036 0.620777 0.230505 -1
0 4.154167 0.804099 -1.825036 0.651487 0.230505 -1
0 3.554167 0.220736 -1.583399 0.642493 0.253878 -1
0 4.154167 0.220736 -1.583399 0.642493 0.253878 -1
0 3.554167 -0.020901 -1.000036 0.620777 0.263560 -1
0 4.154167 -0.020901 -1.000036 0.620777 0.263560 -1
0 3.554167 0.220736 -0.416673 0.599061 0.253878 -1
0 4.154167 0.220736 -0.416673 0.599061 0.253878 -1
0 3.554167 0.804099 -0.175036 0.590066 0.230505 -1
0 4.154167 0.804099 -0.175036 0.590066 0.230505 -1
0 3.554167 1.387462 -0.416673 0.599061 0.207133 -1
0 4.154167 1.387462 -0.416673 0.599061 0.207133 -1
0 3.554167 1.629099 -1.000036 0.620777 0.197451 -1
0 4.154167 1.629099 -1.000036 0.620777 0.197451 -1
0 3.554167 0.804099 -2.999964 0.695224 0.230505 -1
0 3.554167 0.804099 -2.174964 0.664513 0.230505 -1
0 3.554167 1.387462 -2.416601 0.673508 0.207133 -1
0 4.154167 0.804099 -2.174964 0.664513 0.230505 -1
0 4.154167 0.804099 -2.999964 0.695224 0.230505 -1
0 4.154167 1.387462 -2.416601 0.673508 0.207133 -1
0 3.554167 0.220736 -2.416601 0.673508 0.253878 -1
0 4.154167 0.220736 -2.416601 0.673508 0.253878 -1
0 3.554167 -0.020901 -2.999964 0.695224 0.263560 -1
0 4.154167 -0.020901 -2.999964 0.695224 0.263560 -1
0 3.554167 0.220736 -3.583328 0.716939 0.253878 -1
0 4.154167 0.220736 -3.583328 0.716939 0.253878 -1
0 3.554167 0.804099 -3.824964 0.725934 0.230505 -1
0 4.154167 0.804099 -3.824964 0.725934 0.230505 -1
0 3.554167 1.387462 -3.583328 0.716939 0.207133 -1
0 4.154167 1.387462 -3.583328 0.716939 0.207133 -1
0 3.554167 1.629099 -2.999964 0.695224 0.197451 -1
0 4.154167 1.629099 -2.999964 0.695224 0.197451 -1
0 3.554167 1.387462 -5.583399 0.791392 0.207133 -1
0 3.554167 0.804099 -5.825036 0.800387 0.230505 -1
0 3.554167 0.804099 -5.000035 0.769676 0.230505 -1
0 4.154167 1.387462 -5.583399 0.791392 0.207133 -1
0 4.154167 0.804099 -5.000035 0.769676 0.230505 -1
0 4.154167 0.804099 -5.825036 0.800387 0.230505 -1
0 3.554167 0.220736 -5.583399 0.791392 0.253878 -1
0 4.154167 0.220736 -5.583399 0.791392 0.253878 -1
0 3.554167 -0.020901 -5.000035 0.769676 0.263560 -1
0 4.154167 -0.020901 -5.000035 0.769676 0.263560 -1
0 3.554167 0.220736 -4.416672 0.747961 0.253878 -1
0 4.154167 0.220736 -4.416672 0.747961 0.253878 -1
0 3.554167 0.804099 -4.175036 0.738966 0.230505 -1
0 4.154167 0.804099 -4.175036 0.738966 0.230505 -1
0 3.554167 1.387462 -4.416672 0.747961 0.207133 -1
0 4.154167 1.387462 -4.416672 0.747961 0.207133 -1
0 3.554167 1.629099 -5.000035 0.769676 0.197451 -1
0 4.154167 1.629099 -5.000035 0.769676 0.197451 -1
0 3.554167 1.387462 2.416601 0.494634 0.207084 -1
0 3.554167 0.804099 2.174964 0.503375 0.230487 -1
0 3.554167 0.804099 2.999964 0.473531 0.230487 -1
0 4.154167 1.387462 2.416601 0.494634 0.207084 -1
0 4.154167 0.804099 2.999964 0.473531 0.230487 -1
0 4.154167 0.804099 2.174964 0.503375 0.230487 -1
0 3.554167 0.220736 2.416601 0.494634 0.253890 -1
0 4.154167 0.220736 2.416601 0.494634 0.253890 -1
0 3.554167 -0.020901 2.999964 0.473531 0.263584 -1
0 4.154167 -0.020901 2.999964 0.473531 0.263584 -1
0 3.554167 0.220736 3.583328 0.452428 0.253890 -1
0 4.154167 0.220736 3.583328 0.452428 0.253890 -1
0 3.554167 0.804099 3.824964 0.443688 0.230487 -1
0 4.154167 0.804099 3.824964 0.443688 0.230487 -1
0 3.554167 1.387462 3.583328 0.452428 0.207084 -1
0 4.154167 1.387462 3.583328 0.452428 0.207084 -1
0 3.554167 1.629099 2.999964 0.473531 0.197389 -1
0 4.154167 1.629099 2.999964 0.473531 0.197389 -1
0 3.554167 0.804099 5.000035 0.401180 0.230487 -1
0 3.554167 0.804099 5.825036 0.371337 0.230487 -1
0 3.554167 1.387462 5.583399 0.380078 0.207084 -1
0 4.154167 0.804099 5.825036 0.371337 0.230487 -1
0 4.154167 0.804099 5.000035 0.401180 0.230487 -1
0 4.154167 1.387462 5.583399 0.380078 0.207084 -1
0 3.554167 0.220736 5.583399 0.380078 0.253890 -1
0 4.154167 0.220736 5.583399 0.380078 0.253890 -1
0 3.554167 -0.020901 5.000035 0.401180 0.263584 -1
0 4.154167 -0.020901 5.000035 0.401180 0.263584 -1
0 3.554167 0.220736 4.416672 0.422283 0.253890 -1
0 4.154167 0.220736 4.416672 0.422283 0.253890 -1
0 3.554167 0.804099 4.175036 0.431024 0.230487 -1
0 4.154167 0.804099 4.175036 0.431024 0.230487 -1
0 3.554167 1.387462 4.416672 0.422283 0.207084 -1
0 4.154167 1.387462 4.416672 0.422283 0.207084 -1
0 3.554167 1.629099 5.000035 0.401180 0.197389 -1
0 4.154167 1.629099 5.000035 0.401180 0.197389 -1
0 3.554167 1.706121 6.606006 0.343086 0.194300 -1
0 3.554167 1.706121 7.182135 0.322244 0.194300 -1
0 3.554167 2.113506 7.013390 0.328349 0.177956 -1
0 4.154167 1.706121 7.182135 0.322244 0.194300 -1
0 4.154167 1.706121 6.606006 0.343086 0.194300 -1
0 4.154167 2.113506 7.013390 0.328349 0.177956 -1
0 3.554167 1.298737 7.013390 0.328349 0.210643 -1
0 4.154167 1.298737 7.013390 0.328349 0.210643 -1
0 3.554167 1.129993 6.606006 0.343086 0.217413 -1
0 4.154167 1.129993 6.606006 0.343086 0.217413 -1
0 3.554167 1.298737 6.198622 0.357822 0.210643 -1
0 4.154167 1.298737 6.198622 0.357822 0.210643 -1
0 3.554167 1.706121 6.029878 0.363927 0.194300 -1
0 4.154167 1.706121 6.029878 0.363927 0.194300 -1
0 3.554167 2.113506 6.198622 0.357822 0.177956 -1
0 4.154167 2.113506 6.198622 0.357822 0.177956 -1
0 3.554167 2.282249 6.606006 0.343086 0.171187 -1
0 4.154167 2.282249 6.606006 0.343086 0.171187 -1
0 3.554167 1.513813 -7.009378 0.844922 0.204885 -1
0 3.554167 1.513813 -6.433250 0.817690 0.204885 -1
0 3.554167 1.921198 -6.601994 0.825666 0.185634 -1
0 4.154167 1.513813 -6.433250 0.817690 0.204885 -1
0 4.154167 1.513813 -7.009378 0.844922 0.204885 -1
0 4.154167 1.921198 -6.601994 0.825666 0.185634 -1
0 3.554167 1.106429 -6.601994 0.825666 0.224135 -1
0 4.154167 1.106429 -6.601994 0.825666 0.224135 -1
0 3.554167 0.937685 -7.009378 0.844922 0.232108 -1
0 4.154167 0.937685 -7.009378 0.844922 0.232108 -1
0 3.554167 1.106430 -7.416763 0.864177 0.224135 -1
0 4.154167 1.106430 -7.416763 0.864177 0.224135 -1
0 3.554167 1.513813 -7.585506 0.872152 0.204885 -1
0 4.154167 1.513813 -7.585506 0.872152 0.204885 -1
0 3.554167 1.921198 -7.416763 0.864177 0.185634 -1
0 4.154167 1.921198 -7.416763 0.864177 0.185634 -1
0 3.554167 2.089942 -7.009378 0.844922 0.177660 -1
0 4.154167 2.089942 -7.009378 0.844922 0.177660 -1
69
-1.000000 0.000000 0.000000
1.000000 0.000000 0.000000
0.000000 -0.000000 1.000000
0.000000 0.707107 0.707107
0.000000 -0.707107 0.707107
0.000000 -0.707107 0.707107
0.000000 -1.000000 -0.000000
0.000000 -0.707107 -0.707107
0.000000 -0.707107 -0.707107
0.000000 -0.000000 -1.000000
0.000000 0.707107 -0.707107
0.000000 1.000000 -0.000000
0.000000 0.707107 -0.707107
0.000000 -0.000000 -1.000000
0.000000 -0.707107 -0.707107
0.000000 -0.707107 -0.707107
0.000000 -1.000000 0.000000
0.000000 -0.707107 0.707107
0.000000 -0.707107 0.707107
0.000000 -0.000000 1.000000
0.000000 0.707107 0.707107
0.000000 1.000000 0.000000
0.000000 -1.000000 0.000000
0.000000 -0.707107 -0.707107
0.000000 0.707107 -0.707107
0.000000 0.707107 -0.707107
0.000000 1.000000 0.000000
0.000000 1.000000 0.000000
0.000000 0.707107 -0.707106
0.000000 -0.000000 -1.000000
0.000000 -0.707107 -0.707106
0.000000 -1.000000 0.000000
0.000000 -0.707106 0.707107
0.000000 -0.000000 1.000000
0.000000 0.707107 0.707107
0.000000 1.000000 0.000000
0.000000 -1.000000 -0.000000
0.000000 -0.707107 0.707107
0.000000 0.707107 0.707107
0.000000 0.707107 0.707107
0.000000 1.000000 -0.000000
0.000000 1.000000 -0.000000
0.000000 -0.000000 1.000000
0.000000 0.707107 0.707106
0.000000 -0.707107 0.707106
0.000000 -1.000000 -0.000000
0.000000 -0.707106 -0.707107
0.000000 -0.000000 -1.000000
0.000000 0.707107 -0.707107
0.000000 1.000000 -0.000000
0.000000 -0.000000 1.000000
0.000000 0.707107 0.707106
0.000000 -0.707107 0.707107
0.000000 -1.000000 0.000000
0.000000 -0.707106 -0.707107
0.000000 -0.707106 -0.707107
0.000000 -0.000000 -1.000000
0.000000 0.707107 -0.707107
0.000000 1.000000 0.000000
0.000000 -0.000000 1.000000
0.000000 0.707107 0.707107
0.000000 -1.000000 0.000000
0.000000 -0.707106 -0.707107
0.000000 -0.707106 -0.707107
0.000000 -0.000000 -1.000000
0.000000 -0.000000 -1.000000
0.000000 0.707106 -0.707107
0.000000 0.707106 -0.707107
0.000000 1.000000 0.000000
256
0 0 1 2 0 0 0 2
0 3 4 5 1 1 1 2
0 1 5 2 2 3 3 1
0 1 3 5 2 2 3 1
0 0 6 1 0 0 0 2
0 7 4 3 1 1 1 2
0 7 3 1 4 2 2 1
0 6 7 1 5 4 2 1
0 0 8 6 0 0 0 2
0 9 4 7 1 1 1 2
0 8 7 6 6 4 5 1
0 8 9 7 6 6 4 1
0 0 10 8 0 0 0 2
0 11 4 9 1 1 1 2
0 11 9 8 7 6 6 1
0 10 11 8 8 7 6 1
0 0 12 10 0 0 0 2
0 13 4 11 1 1 1 2
0 12 11 10 9 7 8 1
0 12 13 11 9 9 7 1
0 0 14 12 0 0 0 2
0 15 4 13 1 1 1 2
0 15 13 12 10 9 9 1
0 14 15 12 10 10 9 1
0 0 16 14 0 0 0 2
0 17 4 15 1 1 1 2
0 16 15 14 11 10 10 1
0 16 17 15 11 11 10 1
0 0 2 16 0 0 0 2
0 5 4 17 1 1 1 2
0 5 17 16 3 11 11 1
0 2 5 16 3 3 11 1
0 18 19 20 0 0 0 2
0 21 22 23 1 1 1 2
0 18 21 19 12 12 13 1
0 21 23 19 12 13 13 1
0 19 24 20 0 0 0 2
0 23 22 25 1 1 1 2
0 19 23 25 13 13 14 1
0 19 25 24 13 14 15 1
0 24 26 20 0 0 0 2
0 25 22 27 1 1 1 2
0 24 25 26 15 14 16 1
0 25 27 26 14 16 16 1
0 26 28 20 0 0 0 2
0 27 22 29 1 1 1 2
0 26 27 29 16 16 17 1
0 26 29 28 16 17 18 1
0 28 30 20 0 0 0 2
0 29 22 31 1 1 1 2
0 28 29 30 18 17 19 1
0 29 31 30 17 19 19 1
0 30 32 20 0 0 0 2
0 31 22 33 1 1 1 2
0 30 31 33 19 19 20 1
0 30 33 32 19 20 20 1
0 32 34 20 0 0 0 2
0 33 22 35 1 1 1 2
0 32 33 34 20 20 21 1
0 33 35 34 20 21 21 1
0 34 18 20 0 0 0 2
0 35 22 21 1 1 1 2
0 34 35 21 21 21 12 1
0 34 21 18 21 12 12 1
0 36 37 38 0 0 0 2
0 39 40 41 1 1 1 2
0 37 41 38 2 3 3 1
0 37 39 41 2 2 3 1
0 36 42 37 0 0 0 2
0 43 40 39 1 1 1 2
0 43 39 37 5 2 2 1
0 42 43 37 5 5 2 1
0 36 44 42 0 0 0 2
0 45 40 43 1 1 1 2
0 44 43 42 22 5 5 1
0 44 45 43 22 22 5 1
0 36 46 44 0 0 0 2
0 47 40 45 1 1 1 2
0 47 45 44 23 22 22 1
0 46 47 44 23 23 22 1
0 36 48 46 0 0 0 2
0 49 40 47 1 1 1 2
0 48 47 46 9 23 23 1
0 48 49 47 9 9 23 1
0 36 50 48 0 0 0 2
0 51 40 49 1 1 1 2
0 51 49 48 24 9 9 1
0 50 51 48 25 24 9 1
0 36 52 50 0 0 0 2
0 53 40 51 1 1 1 2
0 52 51 50 26 24 25 1
0 52 53 51 26 27 24 1
0 36 38 52 0 0 0 2
0 41 40 53 1 1 1 2
0 41 53 52 3 27 26 1
0 38 41 52 3 3 26 1
0 54 55 56 0 0 0 2
0 57 58 59 1 1 1 2
0 54 57 55 28 28 29 1
0 57 59 55 28 29 29 1
0 55 60 56 0 0 0 2
0 59 58 61 1 1 1 2
0 55 59 61 29 29 30 1
0 55 61 60 29 30 30 1
0 60 62 56 0 0 0 2
0 61 58 63 1 1 1 2
0 60 61 62 30 30 31 1
0 61 63 62 30 31 31 1
0 62 64 56 0 0 0 2
0 63 58 65 1 1 1 2
0 62 63 65 31 31 32 1
0 62 65 64 31 32 32 1
0 64 66 56 0 0 0 2
0 65 58 67 1 1 1 2
0 64 65 66 32 32 33 1
0 65 67 66 32 33 33 1
0 66 68 56 0 0 0 2
0 67 58 69 1 1 1 2
0 66 67 69 33 33 34 1
0 66 69 68 33 34 34 1
0 68 70 56 0 0 0 2
0 69 58 71 1 1 1 2
0 68 69 70 34 34 35 1
0 69 71 70 34 35 35 1
0 70 54 56 0 0 0 2
0 71 58 57 1 1 1 2
0 70 71 57 35 35 28 1
0 70 57 54 35 28 28 1
0 72 73 74 0 0 0 2
0 75 76 77 1 1 1 2
0 72 75 73 12 12 13 1
0 75 77 73 12 13 13 1
0 73 78 74 0 0 0 2
0 77 76 79 1 1 1 2
0 73 77 79 13 13 15 1
0 73 79 78 13 15 15 1
0 78 80 74 0 0 0 2
0 79 76 81 1 1 1 2
0 78 79 80 15 15 36 1
0 79 81 80 15 36 36 1
0 80 82 74 0 0 0 2
0 81 76 83 1 1 1 2
0 80 81 83 36 36 37 1
0 80 83 82 36 37 37 1
0 82 84 74 0 0 0 2
0 83 76 85 1 1 1 2
0 82 83 84 37 37 19 1
0 83 85 84 37 19 19 1
0 84 86 74 0 0 0 2
0 85 76 87 1 1 1 2
0 84 85 87 19 19 38 1
0 84 87 86 19 38 39 1
0 86 88 74 0 0 0 2
0 87 76 89 1 1 1 2
0 86 87 88 39 38 40 1
0 87 89 88 38 41 40 1
0 88 72 74 0 0 0 2
0 89 76 75 1 1 1 2
0 88 89 75 40 41 12 1
0 88 75 72 40 12 12 1
0 90 91 92 0 0 0 2
0 93 94 95 1 1 1 2
0 91 95 92 42 43 43 1
0 91 93 95 42 42 43 1
0 90 96 91 0 0 0 2
0 97 94 93 1 1 1 2
0 97 93 91 44 42 42 1
0 96 97 91 44 44 42 1
0 90 98 96 0 0 0 2
0 99 94 97 1 1 1 2
0 98 97 96 45 44 44 1
0 98 99 97 45 45 44 1
0 90 100 98 0 0 0 2
0 101 94 99 1 1 1 2
0 101 99 98 46 45 45 1
0 100 101 98 46 46 45 1
0 90 102 100 0 0 0 2
0 103 94 101 1 1 1 2
0 102 101 100 47 46 46 1
0 102 103 101 47 47 46 1
0 90 104 102 0 0 0 2
0 105 94 103 1 1 1 2
0 105 103 102 48 47 47 1
0 104 105 102 48 48 47 1
0 90 106 104 0 0 0 2
0 107 94 105 1 1 1 2
0 106 105 104 49 48 48 1
0 106 107 105 49 49 48 1
0 90 92 106 0 0 0 2
0 95 94 107 1 1 1 2
0 95 107 106 43 49 49 1
0 92 95 106 43 43 49 1
0 108 109 110 0 0 0 2
0 111 112 113 1 1 1 2
0 109 113 110 50 51 51 1
0 109 111 113 50 50 51 1
0 108 114 109 0 0 0 2
0 115 112 111 1 1 1 2
0 115 111 109 52 50 50 1
0 114 115 109 52 52 50 1
0 108 116 114 0 0 0 2
0 117 112 115 1 1 1 2
0 116 115 114 53 52 52 1
0 116 117 115 53 53 52 1
0 108 118 116 0 0 0 2
0 119 112 117 1 1 1 2
0 119 117 116 54 53 53 1
0 118 119 116 55 54 53 1
0 108 120 118 0 0 0 2
0 121 112 119 1 1 1 2
0 120 119 118 56 54 55 1
0 120 121 119 56 56 54 1
0 108 122 120 0 0 0 2
0 123 112 121 1 1 1 2
0 123 121 120 57 56 56 1
0 122 123 120 57 57 56 1
0 108 124 122 0 0 0 2
0 125 112 123 1 1 1 2
0 124 123 122 58 57 57 1
0 124 125 123 58 58 57 1
0 108 110 124 0 0 0 2
0 113 112 125 1 1 1 2
0 113 125 124 51 58 58 1
0 110 113 124 51 51 58 1
0 126 127 128 0 0 0 2
0 129 130 131 1 1 1 2
0 127 131 128 59 60 60 1
0 127 129 131 59 59 60 1
0 126 132 127 0 0 0 2
0 133 130 129 1 1 1 2
0 133 129 127 17 59 59 1
0 132 133 127 17 17 59 1
0 126 134 132 0 0 0 2
0 135 130 133 1 1 1 2
0 134 133 132 61 17 17 1
0 134 135 133 61 61 17 1
0 126 136 134 0 0 0 2
0 137 130 135 1 1 1 2
0 137 135 134 62 61 61 1
0 136 137 134 63 62 61 1
0 126 138 136 0 0 0 2
0 139 130 137 1 1 1 2
0 138 137 136 64 62 63 1
0 138 139 137 64 65 62 1
0 126 140 138 0 0 0 2
0 141 130 139 1 1 1 2
0 141 139 138 66 65 64 1
0 140 141 138 67 66 64 1
0 126 142 140 0 0 0 2
0 143 130 141 1 1 1 2
0 142 141 140 68 66 67 1
0 142 143 141 68 68 66 1
0 126 128 142 0 0 0 2
0 131 130 143 1 1 1 2
0 131 143 142 60 68 68 1
0 128 131 142 60 60 68 1
"Duplicate23" 0 1
36
0 3.027306 1.920835 -3.608014 0.723592 0.183023 -1
0 3.027306 1.862051 8.002338 0.295915 0.185344 -1
0 3.027306 2.455897 7.218905 0.310451 0.155389 -1
0 4.657844 1.862051 8.002338 0.295915 0.185344 -1
0 4.657844 1.920835 -3.608014 0.723592 0.183023 -1
0 4.657844 2.455897 7.218905 0.310451 0.155389 -1
0 3.027306 1.862051 8.002338 0.303032 0.383684 -1
0 4.657844 2.455897 7.218905 0.331056 0.326806 -1
0 3.027306 2.455897 7.218905 0.331788 0.383459 -1
0 4.657844 1.862051 8.002338 0.302300 0.327031 -1
0 3.027306 1.546978 5.983109 0.370295 0.197782 -1
0 4.657844 1.546978 5.983109 0.370295 0.197782 -1
0 3.027306 1.546979 -4.449140 0.754575 0.197782 -1
0 4.657844 1.546979 -4.449140 0.754575 0.197782 -1
0 3.027306 2.052303 -8.090163 0.888695 0.177833 -1
0 4.657844 2.052303 -8.090163 0.888695 0.177833 -1
0 3.027306 2.735562 -8.098397 0.888999 0.150858 -1
0 4.657844 2.735562 -8.098397 0.888999 0.150858 -1
0 3.027306 3.040554 -7.798495 0.877952 0.138817 -1
0 4.657844 3.040554 -7.798495 0.877952 0.138817 -1
0 4.657844 3.040554 -7.798495 0.882269 0.322486 -1
0 4.657844 2.735562 -8.098397 0.893277 0.322400 -1
0 3.027306 2.735562 -8.098397 0.894009 0.379054 -1
0 3.027306 3.040554 -7.798495 0.883001 0.379140 -1
0 3.027306 2.995007 -4.449138 0.738950 0.135407 -1
0 4.657844 2.995007 -4.449138 0.738950 0.135407 -1
0 3.027306 2.995007 -4.449138 0.760063 0.380103 -1
0 4.657844 2.995007 -4.449138 0.759331 0.323450 -1
0 3.027306 2.956013 -3.808558 0.730979 0.142155 -1
0 4.657844 2.956013 -3.808558 0.730979 0.142155 -1
0 4.657844 2.956013 -3.808558 0.735819 0.323634 -1
0 3.027306 2.956013 -3.808558 0.736551 0.380287 -1
0 3.027306 2.945345 3.999133 0.443377 0.142576 -1
0 4.657844 2.945345 3.999133 0.443377 0.142576 -1
0 3.027306 2.945345 3.999133 0.449970 0.382533 -1
0 4.657844 2.945345 3.999133 0.449237 0.325880 -1
15
-1.000000 0.000000 0.000000
1.000000 0.000000 0.000000
0.000000 -0.244407 0.969673
0.000000 0.921166 0.389171
0.000000 -0.997007 0.077317
0.000000 -0.997007 0.077317
0.000000 -0.997624 -0.068898
0.000000 -0.661240 -0.750174
0.000000 0.373210 -0.927747
0.000000 0.373210 -0.927747
0.000000 0.924868 -0.380288
0.000000 0.999308 0.037189
0.000000 0.999517 0.031077
0.000000 0.999517 0.031077
0.000000 0.997105 0.076039
40
0 0 1 2 0 0 0 2
0 3 4 5 1 1 1 2
0 6 7 8 2 3 3 1
0 6 9 7 2 2 3 1
0 0 10 1 0 0 0 2
0 11 4 3 1 1 1 2
0 11 3 1 4 2 2 1
0 10 11 1 5 4 2 1
0 0 12 10 0 0 0 2
0 13 4 11 1 1 1 2
0 12 11 10 6 4 5 1
0 12 13 11 6 6 4 1
0 0 14 12 0 0 0 2
0 15 4 13 1 1 1 2
0 15 13 12 7 6 6 1
0 14 15 12 7 7 6 1
0 0 16 14 0 0 0 2
0 17 4 15 1 1 1 2
0 16 15 14 8 7 7 1
0 16 17 15 8 9 7 1
0 0 18 16 0 0 0 2
0 19 4 17 1 1 1 2
0 20 21 22 10 9 8 1
0 23 20 22 10 10 8 1
0 0 24 18 0 0 0 2
0 25 4 19 1 1 1 2
0 26 20 23 11 10 10 1
0 26 27 20 11 11 10 1
0 0 28 24 0 0 0 2
0 29 4 25 1 1 1 2
0 30 27 26 12 11 11 1
0 31 30 26 13 12 11 1
0 0 32 28 0 0 0 2
0 33 4 29 1 1 1 2
0 34 30 31 14 12 13 1
0 34 35 30 14 14 12 1
0 0 2 32 0 0 0 2
0 5 4 33 1 1 1 2
0 7 35 34 3 14 14 1
0 8 7 34 3 3 14 1
"barrel1" 0 1
18
0 0.395833 3.436621 -9.007052 0.934467 0.460597 -1
0 0.395833 3.981683 -8.461991 0.916737 0.460638 -1
0 0.395833 4.207455 -9.007052 0.934467 0.460597 -1
0 3.020833 3.981683 -8.461991 0.916301 0.383819 -1
0 3.020833 3.436621 -9.007052 0.934031 0.383778 -1
0 3.020833 4.207455 -9.007052 0.934031 0.383778 -1
0 0.395833 3.436621 -8.236218 0.909393 0.460655 -1
0 3.020833 3.436621 -8.236218 0.908957 0.383836 -1
0 0.395833 2.891560 -8.461991 0.916737 0.460638 -1
0 3.020833 2.891560 -8.461991 0.916301 0.383819 -1
0 0.395833 2.665788 -9.007052 0.934467 0.460597 -1
0 3.020833 2.665788 -9.007052 0.934031 0.383778 -1
0 0.395833 2.891560 -9.552114 0.952197 0.460557 -1
0 3.020833 2.891560 -9.552114 0.951761 0.383737 -1
0 0.395833 3.436621 -9.777886 0.959540 0.460539 -1
0 3.020833 3.436621 -9.777886 0.959105 0.383720 -1
0 0.395833 3.981683 -9.552114 0.952197 0.460557 -1
0 3.020833 3.981683 -9.552114 0.951761 0.383737 -1
12
-1.000000 0.000000 0.000000
1.000000 0.000000 0.000000
0.000000 0.707107 0.707106
0.000000 1.000000 0.000000
0.000000 0.000000 1.000000
0.000000 -0.707107 0.707106
0.000000 -1.000000 0.000000
0.000000 -0.707107 -0.707106
0.000000 -0.707107 -0.707106
0.000000 0.000000 -1.000000
0.000000 0.000000 -1.000000
0.000000 0.707107 -0.707106
32
0 0 1 2 0 0 0 2
0 3 4 5 1 1 1 2
0 1 5 2 2 3 3 1
0 1 3 5 2 2 3 1
0 0 6 1 0 0 0 2
0 7 4 3 1 1 1 2
0 7 3 1 4 2 2 1
0 6 7 1 4 4 2 1
0 0 8 6 0 0 0 2
0 9 4 7 1 1 1 2
0 8 7 6 5 4 4 1
0 8 9 7 5 5 4 1
0 0 10 8 0 0 0 2
0 11 4 9 1 1 1 2
0 11 9 8 6 5 5 1
0 10 11 8 6 6 5 1
0 0 12 10 0 0 0 2
0 13 4 11 1 1 1 2
0 12 11 10 7 6 6 1
0 12 13 11 7 8 6 1
0 0 14 12 0 0 0 2
0 15 4 13 1 1 1 2
0 15 13 12 9 8 7 1
0 14 15 12 10 9 7 1
0 0 16 14 0 0 0 2
0 17 4 15 1 1 1 2
0 16 15 14 11 9 10 1
0 16 17 15 11 11 9 1
0 0 2 16 0 0 0 2
0 5 4 17 1 1 1 2
0 5 17 16 3 11 11 1
0 2 5 16 3 3 11 1

Materials: 2
"Material02"
0.800000 0.800000 0.800000 1.000000
0.800000 0.800000 0.800000 1.000000
0.000000 0.000000 0.000000 1.000000
0.000000 0.000000 0.000000 1.000000
0.000000
1.000000
".\black.bmp"
""
"Material03"
0.800000 0.800000 0.800000 1.000000
0.800000 0.800000 0.800000 1.000000
0.000000 0.000000 0.000000 1.000000
0.000000 0.000000 0.000000 1.000000
0.000000
1.000000
".\t90.bmp"
""

Bones: 0
