// MilkShape 3D ASCII

Frames: 30
Frame: 1

Meshes: 13
"gunHead" 0 0
55
0 -6.770157 3.428571 9.364937 0.941075 0.878578 -1
0 -5.853430 6.763737 9.150820 0.939546 0.854416 -1
0 -7.578705 5.089231 6.946205 0.923808 0.866547 -1
0 -8.892408 8.978949 0.000000 0.874221 0.838367 -1
0 -8.464175 6.749889 5.142858 0.910934 0.854516 -1
0 -5.285715 11.892747 3.178461 0.896912 0.817258 -1
0 -0.142857 12.320980 5.407520 0.912825 0.814155 -1
0 -3.398241 8.714286 8.936704 0.938019 0.840284 -1
0 -5.285715 11.892747 -3.178461 0.851531 0.817258 -1
0 -0.142857 12.320980 -5.407520 0.835618 0.814155 -1
0 -0.142857 13.857143 0.000000 0.874221 0.803026 -1
0 5.000000 11.892747 3.178461 0.896912 0.817258 -1
0 5.000000 11.892747 -3.178461 0.851531 0.817258 -1
0 8.606694 8.978949 0.000000 0.874221 0.838367 -1
0 2.958681 8.714285 8.936704 0.938019 0.840284 -1
0 8.178461 6.749889 5.142858 0.910934 0.854516 -1
0 5.759169 3.571429 9.364937 0.941075 0.877543 -1
0 7.007277 5.160659 6.946205 0.923808 0.866030 -1
0 5.358925 6.233766 9.150820 0.939546 0.858255 -1
0 10.142858 3.571429 0.000000 0.874221 0.877543 -1
0 8.606694 -1.836092 0.000000 0.874221 0.916719 -1
0 8.178461 0.392968 5.142858 0.910934 0.900571 -1
0 8.178461 6.749889 -5.142858 0.837508 0.854516 -1
0 5.264663 3.571429 -8.749552 0.811760 0.877543 -1
0 8.178461 0.392968 -5.142858 0.837508 0.900571 -1
0 3.035604 8.714286 -8.321319 0.814818 0.840284 -1
0 -3.321318 8.714286 -8.321319 0.814818 0.840284 -1
0 -5.550377 3.571429 -8.749552 0.811760 0.877543 -1
0 -0.142857 3.571429 -10.285715 0.800794 0.877543 -1
0 -3.321318 -1.571429 -8.321319 0.814818 0.914802 -1
0 -0.142857 -5.178123 -5.407520 0.835618 0.940931 -1
0 3.035604 -1.571429 -8.321319 0.814818 0.914802 -1
0 5.000000 -4.749890 -3.178461 0.851531 0.937829 -1
0 -0.142857 -6.714287 0.000000 0.874221 0.952060 -1
0 -0.142857 -5.178123 5.407520 0.912825 0.940931 -1
0 5.000000 -4.749890 3.178461 0.896912 0.937829 -1
0 -5.285715 -4.749890 -3.178461 0.851531 0.937829 -1
0 -8.892408 -1.836092 0.000000 0.874221 0.916719 -1
0 -5.285715 -4.749890 3.178461 0.896912 0.937829 -1
0 -8.464175 0.392968 5.142858 0.910934 0.900571 -1
0 -7.578705 1.910770 6.946205 0.923808 0.889575 -1
0 -6.161122 0.774725 9.150820 0.939546 0.897804 -1
0 -3.398241 -1.340660 8.936704 0.938019 0.913130 -1
0 2.958681 -1.571429 8.936704 0.938019 0.914802 -1
0 5.330353 1.000000 9.150820 0.939546 0.896173 -1
0 7.007277 1.982198 6.946205 0.923808 0.889057 -1
0 -10.428573 3.571429 0.000000 0.874221 0.877543 -1
0 -8.464175 6.749889 -5.142858 0.837508 0.854516 -1
0 -8.464175 0.392968 -5.142858 0.837508 0.900571 -1
0 5.760879 7.501318 6.732088 0.922280 0.849072 -1
0 -5.892746 7.732088 6.732088 0.922280 0.847401 -1
0 -5.892746 -0.589231 6.732088 0.922280 0.907686 -1
0 5.607032 -0.589231 6.732088 0.922280 0.907686 -1
0 -0.076923 9.375775 8.865385 0.937509 0.835492 -1
0 -0.230769 -1.730769 9.115385 0.939293 0.915956 -1
55
-0.969985 0.014189 0.242750
-0.769783 0.536412 0.345973
-0.905361 0.199298 0.374970
-0.850651 0.525731 0.000000
-0.878355 0.334249 0.341716
-0.502435 0.814530 0.289999
0.002674 0.864243 0.503068
-0.414518 0.808761 0.417230
-0.500000 0.809017 -0.309017
0.000000 0.818483 -0.574531
0.000000 1.000000 0.000000
0.501415 0.813929 0.293434
0.500000 0.809017 -0.309017
0.850651 0.525731 -0.000000
0.361244 0.857128 0.367197
0.714250 0.598197 0.363328
0.508863 -0.009123 0.860799
0.535993 0.596108 0.597802
0.771857 0.435584 0.463146
1.000000 0.000000 -0.000000
0.850651 -0.525731 0.000000
0.773396 -0.313026 0.551247
0.809017 0.309017 -0.500000
0.525731 -0.000000 -0.850651
0.809017 -0.309017 -0.500000
0.264412 0.523127 -0.810201
-0.264412 0.523127 -0.810201
-0.525731 0.000000 -0.850651
0.000000 -0.000000 -1.000000
-0.309017 -0.500000 -0.809017
-0.000000 -0.850651 -0.525731
0.309017 -0.500000 -0.809017
0.500000 -0.809017 -0.309017
-0.000000 -1.000000 0.000000
-0.010327 -0.853915 0.520310
0.501415 -0.813929 0.293434
-0.500000 -0.809017 -0.309017
-0.850651 -0.525731 0.000000
-0.502168 -0.811942 0.297622
-0.872764 -0.309622 0.377383
-0.909425 -0.195849 0.366863
-0.766559 -0.534817 0.355468
-0.426223 -0.758055 0.493646
0.398331 -0.581358 0.709475
0.762822 -0.430566 0.482407
0.525271 -0.599158 0.604235
-1.000000 0.000000 -0.000000
-0.809017 0.309017 -0.500000
-0.809017 -0.309017 -0.500000
0.606308 0.740076 0.290996
-0.620543 0.716693 0.318242
-0.625072 -0.674704 0.392506
0.705283 -0.233627 0.669324
0.006661 0.761331 0.648329
-0.026695 -0.732421 0.680329
97
0 0 1 2 0 1 2 1
0 3 4 5 3 4 5 1
0 6 5 7 6 5 7 1
0 4 7 5 4 7 5 1
0 3 5 8 3 5 8 1
0 9 8 10 9 8 10 1
0 6 10 5 6 10 5 1
0 8 5 10 8 5 10 1
0 6 11 10 6 11 10 1
0 9 10 12 9 10 12 1
0 13 12 11 13 12 11 1
0 10 11 12 10 11 12 1
0 6 14 11 6 14 11 1
0 13 11 15 13 11 15 1
0 16 17 18 16 17 18 1
0 11 14 15 11 14 15 1
0 13 15 19 13 15 19 1
0 20 19 21 20 19 21 1
0 16 21 15 16 21 15 1
0 19 15 21 19 15 21 1
0 13 19 22 13 19 22 1
0 23 22 24 23 22 24 1
0 20 24 19 20 24 19 1
0 22 19 24 22 19 24 1
0 9 12 25 9 12 25 1
0 23 25 22 23 25 22 1
0 13 22 12 13 22 12 1
0 25 12 22 25 12 22 1
0 9 25 26 9 25 26 1
0 27 26 28 27 26 28 1
0 23 28 25 23 28 25 1
0 26 25 28 26 25 28 1
0 27 28 29 27 28 29 1
0 30 29 31 30 29 31 1
0 23 31 28 23 31 28 1
0 29 28 31 29 28 31 1
0 30 31 32 30 31 32 1
0 20 32 24 20 32 24 1
0 23 24 31 23 24 31 1
0 32 31 24 32 31 24 1
0 30 32 33 30 32 33 1
0 34 33 35 34 33 35 1
0 20 35 32 20 35 32 1
0 33 32 35 33 32 35 1
0 30 33 36 30 33 36 1
0 37 36 38 37 36 38 1
0 34 38 33 34 38 33 1
0 36 33 38 36 33 38 1
0 37 38 39 37 38 39 1
0 0 40 41 0 40 41 1
0 34 42 38 34 42 38 1
0 39 38 42 39 38 42 1
0 34 35 43 34 35 43 1
0 16 44 45 16 44 45 1
0 20 21 35 20 21 35 1
0 43 35 21 43 35 21 1
0 3 46 4 3 46 4 1
0 0 4 39 0 4 39 1
0 37 39 46 37 39 46 1
0 4 46 39 4 46 39 1
0 3 47 46 3 47 46 1
0 37 46 48 37 46 48 1
0 27 48 47 27 48 47 1
0 46 47 48 46 47 48 1
0 3 8 47 3 8 47 1
0 27 47 26 27 47 26 1
0 9 26 8 9 26 8 1
0 47 8 26 47 8 26 1
0 30 36 29 30 36 29 1
0 27 29 48 27 29 48 1
0 37 48 36 37 48 36 1
0 29 36 48 29 36 48 1
0 14 18 49 14 18 49 1
0 15 49 17 15 49 17 1
0 17 49 18 17 49 18 1
0 4 2 50 4 2 50 1
0 7 50 1 7 50 1 1
0 1 50 2 1 50 2 1
0 42 41 51 42 41 51 1
0 39 51 40 39 51 40 1
0 40 51 41 40 51 41 1
0 21 45 52 21 45 52 1
0 43 52 44 43 52 44 1
0 44 52 45 44 52 45 1
0 7 53 6 7 53 6 1
0 53 14 6 53 14 6 1
0 34 54 42 34 54 42 1
0 34 43 54 34 43 54 1
0 9 25 26 9 25 26 1
0 14 15 49 14 15 49 1
0 21 52 43 21 52 43 1
0 39 51 42 39 51 42 1
0 7 50 4 7 50 4 1
0 0 40 39 0 40 39 1
0 4 2 0 4 2 0 1
0 15 17 16 15 17 16 1
0 16 45 21 16 45 21 1
"gunFace" 0 0
13
0 -0.090226 9.097742 8.000000 0.622216 0.064026 -1
0 -2.721805 7.781955 8.000000 0.590013 0.080924 -1
0 -0.219781 3.484472 8.538462 0.620631 0.136113 -1
0 -4.142858 6.045113 8.000000 0.572624 0.103229 -1
0 -4.616542 3.413533 8.000000 0.566827 0.137024 -1
0 -4.142858 1.518797 8.000000 0.572624 0.161357 -1
0 -2.616542 -0.323309 8.000000 0.591301 0.185013 -1
0 -0.248121 -1.396535 8.000000 0.620284 0.198796 -1
0 1.857142 -0.165414 8.000000 0.646046 0.182986 -1
0 3.488721 1.624060 8.000000 0.666011 0.160005 -1
0 3.909774 3.571428 8.000000 0.671164 0.134996 -1
0 3.541353 5.676692 8.000000 0.666656 0.107960 -1
0 1.962405 7.834586 8.000000 0.647334 0.080248 -1
13
0.004811 0.095377 0.995430
-0.068580 0.084624 0.994050
0.004472 -0.005588 0.999974
-0.105428 0.047351 0.993299
-0.121492 -0.004160 0.992584
-0.108667 -0.055015 0.992555
-0.072891 -0.094519 0.992851
0.007366 -0.109692 0.993938
0.081486 -0.099928 0.991652
0.114350 -0.059082 0.991682
0.129354 -0.002767 0.991595
0.114245 0.047727 0.992306
0.078744 0.083463 0.993395
12
0 0 1 2 0 1 2 1
0 3 2 1 3 2 1 1
0 3 4 2 3 4 2 1
0 4 5 2 4 5 2 1
0 5 6 2 5 6 2 1
0 6 7 2 6 7 2 1
0 7 8 2 7 8 2 1
0 8 9 2 8 9 2 1
0 9 10 2 9 10 2 1
0 10 11 2 10 11 2 1
0 11 12 2 11 12 2 1
0 12 0 2 12 0 2 1
"gunAuge_re" 0 0
26
0 -2.650563 0.909601 8.145324 0.256375 0.938427 -1
0 -0.938745 1.694533 8.205103 0.416003 0.853763 -1
0 -1.423921 1.736345 8.404694 0.368974 0.851823 -1
0 -2.096691 7.244245 8.164666 0.266938 0.314281 -1
0 -1.032274 6.215614 8.418370 0.376443 0.410485 -1
0 -0.547099 6.173800 8.218779 0.423471 0.412425 -1
0 -2.580131 1.837288 8.454008 0.256893 0.847070 -1
0 -2.188485 6.316557 8.467685 0.264362 0.405733 -1
0 -3.730083 1.938231 8.324161 0.145415 0.842291 -1
0 -3.338438 6.417501 8.337837 0.152883 0.400953 -1
0 -4.200152 1.980043 8.091211 0.099842 0.840283 -1
0 -3.808507 6.459312 8.104887 0.107310 0.398945 -1
0 -3.714979 1.938231 7.891622 0.146870 0.842223 -1
0 -3.323333 6.417501 7.905298 0.154338 0.400885 -1
0 -2.558770 1.837288 7.842307 0.258951 0.846975 -1
0 -2.167124 6.316557 7.855983 0.266420 0.405638 -1
0 -1.408816 1.736345 7.972154 0.370429 0.851755 -1
0 -1.017169 6.215614 7.985831 0.377898 0.410417 -1
0 -0.067460 3.875036 8.235528 0.485216 0.635886 -1
0 -0.753596 3.934167 8.517793 0.418708 0.633142 -1
0 -2.388732 4.076922 8.587534 0.260201 0.626421 -1
0 -4.015018 4.219678 8.403902 0.102546 0.619661 -1
0 -4.679793 4.278810 8.074462 0.038097 0.616822 -1
0 -3.993658 4.219678 7.792199 0.104604 0.619566 -1
0 -2.358523 4.076922 7.722458 0.263111 0.626287 -1
0 -0.732235 3.934167 7.906091 0.420767 0.633047 -1
26
-0.087103 -0.996195 -0.003043
0.755257 -0.654898 0.026374
0.173743 -0.298854 0.938350
0.087103 0.996195 0.003040
0.222474 0.258476 0.940051
0.857436 0.513719 0.029941
-0.046972 -0.142154 0.988729
-0.022113 0.142153 0.989598
-0.287507 -0.258476 0.922242
-0.238777 0.298855 0.923943
-0.857436 -0.513719 -0.029944
-0.755257 0.654898 -0.026377
-0.222473 -0.258474 -0.940051
-0.173742 0.298853 -0.938350
0.022113 -0.142153 -0.989598
0.046971 0.142153 -0.988730
0.238776 -0.298853 -0.923944
0.287506 0.258475 -0.922243
0.995588 -0.087156 0.034765
0.212465 -0.021560 0.976931
-0.034899 -0.000000 0.999391
-0.280095 0.021560 0.959730
-0.995588 0.087155 -0.034768
-0.212464 0.021560 -0.976931
0.034900 0.000000 -0.999391
0.280094 -0.021560 -0.959731
48
0 0 1 2 0 1 2 2
0 3 4 5 3 4 5 2
0 0 2 6 0 2 6 2
0 3 7 4 3 7 4 2
0 0 6 8 0 6 8 2
0 3 9 7 3 9 7 2
0 0 8 10 0 8 10 2
0 3 11 9 3 11 9 2
0 0 10 12 0 10 12 2
0 3 13 11 3 13 11 2
0 0 12 14 0 12 14 2
0 3 15 13 3 15 13 2
0 0 14 16 0 14 16 2
0 3 17 15 3 17 15 2
0 0 16 1 0 16 1 2
0 3 5 17 3 5 17 2
0 1 18 19 1 18 19 2
0 1 19 2 1 19 2 2
0 2 19 6 2 19 6 2
0 19 20 6 19 20 6 2
0 6 20 21 6 20 21 2
0 6 21 8 6 21 8 2
0 8 21 10 8 21 10 2
0 21 22 10 21 22 10 2
0 10 22 23 10 22 23 2
0 10 23 12 10 23 12 2
0 12 23 14 12 23 14 2
0 23 24 14 23 24 14 2
0 14 24 25 14 24 25 2
0 14 25 16 14 25 16 2
0 16 25 1 16 25 1 2
0 25 18 1 25 18 1 2
0 18 5 19 18 5 19 2
0 5 4 19 5 4 19 2
0 19 4 7 19 4 7 2
0 19 7 20 19 7 20 2
0 20 7 21 20 7 21 2
0 7 9 21 7 9 21 2
0 21 9 11 21 9 11 2
0 21 11 22 21 11 22 2
0 22 11 23 22 11 23 2
0 11 13 23 11 13 23 2
0 23 13 15 23 13 15 2
0 23 15 24 23 15 24 2
0 24 15 25 24 15 25 2
0 15 17 25 15 17 25 2
0 25 17 5 25 17 5 2
0 25 5 18 25 5 18 2
"gunAuge_lnk" 0 0
26
0 1.335168 1.582499 8.581317 0.343192 0.428438 -1
0 0.820822 1.540687 8.477972 0.397669 0.428369 -1
0 2.489784 0.755754 8.092658 0.228368 0.333511 -1
0 0.438981 6.019954 8.566124 0.401549 0.894164 -1
0 0.953326 6.061768 8.669474 0.347073 0.894234 -1
0 1.949779 7.090398 8.217331 0.233853 0.992244 -1
0 2.479545 1.683442 8.409113 0.221925 0.429411 -1
0 2.097705 6.162711 8.497267 0.225803 0.895206 -1
0 3.583595 1.784385 8.062227 0.104899 0.430715 -1
0 3.201754 6.263655 8.150385 0.108780 0.896511 -1
0 4.000579 1.826197 7.743865 0.060670 0.431589 -1
0 3.618738 6.305466 7.832020 0.064550 0.897385 -1
0 3.486234 1.784385 7.640519 0.115148 0.431520 -1
0 3.104394 6.263655 7.728673 0.119026 0.897316 -1
0 2.341858 1.683442 7.812725 0.236417 0.430548 -1
0 1.960018 6.162711 7.900880 0.240295 0.896343 -1
0 1.237808 1.582499 8.159606 0.353440 0.429243 -1
0 0.855967 6.061768 8.247766 0.357321 0.895038 -1
0 0.698739 3.780321 8.820243 0.392365 0.660698 -1
0 -0.028651 3.721190 8.674086 0.469404 0.660600 -1
0 2.317141 3.923076 8.576703 0.220862 0.662072 -1
0 3.878510 4.065832 8.086137 0.055364 0.663918 -1
0 4.468211 4.124963 7.635904 -0.007184 0.665154 -1
0 3.740823 4.065832 7.489748 0.069856 0.665056 -1
0 2.122422 3.923076 7.733287 0.241357 0.663681 -1
0 0.561052 3.780321 8.223855 0.406857 0.661835 -1
26
0.008496 -0.298853 0.954261
-0.736347 -0.654898 0.170003
0.084922 -0.996195 -0.019607
-0.835969 0.513720 0.192994
-0.039018 0.258476 0.965230
-0.084923 0.996195 0.019602
0.234767 -0.142154 0.961601
0.210530 0.142153 0.967197
0.458197 -0.258477 0.850438
0.410687 0.298855 0.861407
0.835968 -0.513719 -0.193002
0.736348 0.654898 -0.170003
0.039014 -0.258473 -0.965230
-0.008496 0.298853 -0.954261
-0.210530 -0.142152 -0.967197
-0.234767 0.142153 -0.961601
-0.410687 -0.298853 -0.861408
-0.458194 0.258474 -0.850440
-0.022154 -0.021560 0.999522
-0.970663 -0.087155 0.224094
0.224951 0.000000 0.974370
0.458074 0.021560 0.888652
0.970662 0.087156 -0.224097
0.022153 0.021560 -0.999522
-0.224951 0.000000 -0.974370
-0.458073 -0.021560 -0.888653
48
0 0 1 2 0 1 2 2
0 3 4 5 3 4 5 2
0 6 0 2 6 0 2 2
0 4 7 5 4 7 5 2
0 8 6 2 8 6 2 2
0 7 9 5 7 9 5 2
0 10 8 2 10 8 2 2
0 9 11 5 9 11 5 2
0 12 10 2 12 10 2 2
0 11 13 5 11 13 5 2
0 14 12 2 14 12 2 2
0 13 15 5 13 15 5 2
0 16 14 2 16 14 2 2
0 15 17 5 15 17 5 2
0 1 16 2 1 16 2 2
0 17 3 5 17 3 5 2
0 18 19 1 18 19 1 2
0 0 18 1 0 18 1 2
0 6 18 0 6 18 0 2
0 6 20 18 6 20 18 2
0 21 20 6 21 20 6 2
0 8 21 6 8 21 6 2
0 10 21 8 10 21 8 2
0 10 22 21 10 22 21 2
0 23 22 10 23 22 10 2
0 12 23 10 12 23 10 2
0 14 23 12 14 23 12 2
0 14 24 23 14 24 23 2
0 25 24 14 25 24 14 2
0 16 25 14 16 25 14 2
0 1 25 16 1 25 16 2
0 1 19 25 1 19 25 2
0 18 3 19 18 3 19 2
0 18 4 3 18 4 3 2
0 7 4 18 7 4 18 2
0 20 7 18 20 7 18 2
0 21 7 20 21 7 20 2
0 21 9 7 21 9 7 2
0 11 9 21 11 9 21 2
0 22 11 21 22 11 21 2
0 23 11 22 23 11 22 2
0 23 13 11 23 13 11 2
0 15 13 23 15 13 23 2
0 24 15 23 24 15 23 2
0 25 15 24 25 15 24 2
0 25 17 15 25 17 15 2
0 3 17 25 3 17 25 2
0 19 3 25 19 3 25 2
"turretBody" 0 0
42
0 6.346532 -13.533004 0.000000 0.938743 0.936002 -1
0 4.385159 -13.533004 3.248840 0.917779 0.936002 -1
0 -0.350003 -13.533004 0.000000 0.867168 0.936002 -1
0 5.355849 -2.648541 0.000000 0.928154 0.809713 -1
0 -0.059096 -2.648541 0.000000 0.870277 0.809713 -1
0 3.769848 -2.648541 2.604709 0.911202 0.809713 -1
0 6.592591 -10.896635 0.000000 0.941373 0.905413 -1
0 4.585778 -10.896635 3.641600 0.919923 0.905413 -1
0 -0.350003 -13.533004 4.594543 0.867168 0.936002 -1
0 -0.059096 -2.648541 3.683616 0.870277 0.809713 -1
0 -0.259096 -10.896635 5.150000 0.868139 0.905413 -1
0 -5.085165 -13.533004 3.248840 0.816557 0.936002 -1
0 -3.888040 -2.648541 2.604709 0.829352 0.809713 -1
0 -5.103970 -10.896635 3.641600 0.816355 0.905413 -1
0 -7.046539 -13.533004 0.000000 0.795593 0.936002 -1
0 -5.474041 -2.648541 0.000000 0.812400 0.809713 -1
0 -7.110784 -10.896635 0.000000 0.794906 0.905413 -1
0 -5.085165 -13.533004 -3.248840 0.816557 0.936002 -1
0 -3.888040 -2.648541 -2.604709 0.829352 0.809713 -1
0 -5.103970 -10.896635 -3.641600 0.816355 0.905413 -1
0 -0.350003 -13.533004 -4.594543 0.867168 0.936002 -1
0 -0.059096 -2.648541 -3.683616 0.870277 0.809713 -1
0 -0.259096 -10.896635 -5.150000 0.868139 0.905413 -1
0 4.385159 -13.533004 -3.248840 0.917779 0.936002 -1
0 3.769848 -2.648541 -2.604709 0.911202 0.809713 -1
0 4.585778 -10.896635 -3.641600 0.919923 0.905413 -1
0 5.470724 -11.169333 0.000000 0.929382 0.908577 -1
0 3.792478 -11.169333 3.248828 0.911444 0.908577 -1
0 -0.259094 -11.169333 4.594556 0.868139 0.908577 -1
0 -4.310667 -11.169333 3.248828 0.824835 0.908577 -1
0 -5.988912 -11.169333 0.000000 0.806897 0.908577 -1
0 -4.310667 -11.805697 -3.248828 0.824835 0.915960 -1
0 -0.259094 -11.805697 -4.594556 0.868139 0.915960 -1
0 3.792478 -11.805697 -3.248828 0.911444 0.915960 -1
0 5.470703 -12.987543 0.000000 0.929382 0.929673 -1
0 3.792481 -12.987543 3.248840 0.911444 0.929673 -1
0 -0.259094 -12.987543 4.594543 0.868139 0.929673 -1
0 -4.310669 -12.987543 3.248840 0.824835 0.929673 -1
0 -5.988892 -12.987543 0.000000 0.806897 0.929673 -1
0 -4.310669 -12.987543 -3.248840 0.824835 0.929673 -1
0 -0.259094 -12.987543 -4.594543 0.868139 0.929673 -1
0 3.792481 -12.987543 -3.248840 0.911444 0.929673 -1
50
0.000000 -1.000000 0.000000
0.000000 1.000000 0.000000
0.988945 0.148285 0.000000
0.987048 0.160425 0.000000
0.611144 0.157194 0.775753
0.596961 0.157935 0.786571
0.000320 0.166684 0.986010
0.000365 0.175031 0.984563
-0.607377 0.185869 0.772364
-0.593257 0.185922 0.783249
-0.978452 0.206475 0.000000
-0.980874 0.194644 0.000000
-0.607377 0.185869 -0.772364
-0.593257 0.185922 -0.783249
0.000320 0.166684 -0.986010
0.000365 0.175031 -0.984563
0.611144 0.157194 -0.775753
0.596961 0.157935 -0.786571
0.761481 -0.647566 -0.028374
0.384592 -0.921615 -0.052107
0.207639 -0.953169 0.219899
0.552811 -0.581767 0.596613
0.043730 -0.904507 0.424211
0.040262 -0.548592 0.835120
-0.175297 -0.929961 0.323176
-0.459778 -0.609966 0.645404
-0.244129 -0.968694 0.045100
-0.823503 -0.565098 0.050060
-0.424332 -0.805069 -0.414495
-0.627388 -0.333454 -0.703699
-0.090317 -0.537537 -0.838389
-0.012914 -0.285329 -0.958343
0.398571 -0.615105 -0.680284
0.543411 -0.459006 -0.702864
0.880597 0.473525 0.017976
0.566006 0.349496 0.746652
-0.010365 0.058438 0.998237
-0.610227 0.227476 0.758866
-0.853266 0.520692 -0.028592
-0.545218 0.398824 -0.737344
0.012277 0.071241 -0.997384
0.621394 0.174091 -0.763913
0.575156 0.809424 0.118442
0.441597 0.353682 0.824561
-0.104231 0.129631 0.986069
-0.450950 0.723130 0.523190
-0.495349 0.862797 -0.101049
-0.406908 0.451702 -0.793972
0.106186 0.097112 -0.989593
0.509855 0.648869 -0.564816
80
0 0 1 2 0 0 0 2
0 3 4 5 1 1 1 2
0 6 3 7 2 3 4 1
0 3 5 7 3 5 4 1
0 1 8 2 0 0 0 2
0 5 4 9 1 1 1 2
0 7 5 9 4 5 6 1
0 7 9 10 4 6 7 1
0 8 11 2 0 0 0 2
0 9 4 12 1 1 1 2
0 10 9 13 7 6 8 1
0 9 12 13 6 9 8 1
0 11 14 2 0 0 0 2
0 12 4 15 1 1 1 2
0 13 12 15 8 9 10 1
0 13 15 16 8 10 11 1
0 14 17 2 0 0 0 2
0 15 4 18 1 1 1 2
0 16 15 19 11 10 12 1
0 15 18 19 10 13 12 1
0 17 20 2 0 0 0 2
0 18 4 21 1 1 1 2
0 19 18 21 12 13 14 1
0 19 21 22 12 14 15 1
0 20 23 2 0 0 0 2
0 21 4 24 1 1 1 2
0 22 21 25 15 14 16 1
0 21 24 25 14 17 16 1
0 23 0 2 0 0 0 2
0 24 4 3 1 1 1 2
0 25 24 3 16 17 3 1
0 25 3 6 16 3 2 1
0 26 6 7 18 19 20 3
0 26 7 27 18 20 21 3
0 27 7 10 21 20 22 3
0 27 10 28 21 22 23 3
0 28 10 13 23 22 24 3
0 28 13 29 23 24 25 3
0 29 13 16 25 24 26 3
0 29 16 30 25 26 27 3
0 30 16 19 27 26 28 3
0 30 19 31 27 28 29 3
0 31 19 22 29 28 30 3
0 31 22 32 29 30 31 3
0 32 22 25 31 30 32 3
0 32 25 33 31 32 33 3
0 33 25 6 33 32 19 3
0 33 6 26 33 19 18 3
0 34 26 27 34 18 21 3
0 34 27 35 34 21 35 3
0 35 27 28 35 21 23 3
0 35 28 36 35 23 36 3
0 36 28 29 36 23 25 3
0 36 29 37 36 25 37 3
0 37 29 30 37 25 27 3
0 37 30 38 37 27 38 3
0 38 30 31 38 27 29 3
0 38 31 39 38 29 39 3
0 39 31 32 39 29 31 3
0 39 32 40 39 31 40 3
0 40 32 33 40 31 33 3
0 40 33 41 40 33 41 3
0 41 33 26 41 33 18 3
0 41 26 34 41 18 34 3
0 0 34 35 42 34 35 3
0 0 35 1 42 35 43 3
0 1 35 36 43 35 36 3
0 1 36 8 43 36 44 3
0 8 36 37 44 36 37 3
0 8 37 11 44 37 45 3
0 11 37 38 45 37 38 3
0 11 38 14 45 38 46 3
0 14 38 39 46 38 39 3
0 14 39 17 46 39 47 3
0 17 39 40 47 39 40 3
0 17 40 20 47 40 48 3
0 20 40 41 48 40 41 3
0 20 41 23 48 41 49 3
0 23 41 34 49 41 34 3
0 23 34 0 49 34 42 3
"turretHand_re" 0 0
35
0 -11.503861 -5.361093 0.000000 0.403556 0.200888 4
0 -11.503865 -4.987240 0.721838 0.403556 0.184302 4
0 -11.503865 -4.084681 0.000000 0.403556 0.144262 4
0 -11.503865 -4.084681 1.020833 0.403556 0.144262 4
0 -11.503870 -3.182114 0.721838 0.403556 0.104221 4
0 -11.503861 -2.808258 0.000000 0.403556 0.087636 4
0 -11.503870 -3.182114 -0.721838 0.403556 0.104221 4
0 -11.503865 -4.084681 -1.020833 0.403556 0.144262 4
0 -11.503865 -4.987240 -0.721838 0.403556 0.184302 4
0 -13.535270 -4.006530 0.000000 0.294693 0.140795 4
0 -13.126218 -5.222228 0.000000 0.316614 0.194727 4
0 -13.126218 -4.866151 0.687500 0.316614 0.178930 4
0 -10.742086 -4.006529 0.000000 0.444380 0.140795 4
0 -11.151142 -4.866156 0.687500 0.422458 0.178931 4
0 -11.151142 -5.222225 0.000000 0.422458 0.194727 4
0 -13.126218 -4.006531 0.972272 0.316614 0.140795 4
0 -11.151138 -4.006530 0.972272 0.422459 0.140795 4
0 -13.126218 -3.146903 0.687500 0.316614 0.102659 4
0 -11.151142 -3.146902 0.687500 0.422458 0.102659 4
0 -13.126218 -2.790834 0.000000 0.316614 0.086863 4
0 -11.151142 -2.790835 0.000000 0.422458 0.086863 4
0 -13.126218 -3.146903 -0.687500 0.316614 0.102659 4
0 -11.151142 -3.146902 -0.687500 0.422458 0.102659 4
0 -13.126218 -4.006531 -0.972272 0.316614 0.140795 4
0 -11.151138 -4.006530 -0.972272 0.422459 0.140795 4
0 -13.126218 -4.866151 -0.687500 0.316614 0.178930 4
0 -11.151142 -4.866156 -0.687500 0.422458 0.178931 4
0 -12.138680 -5.725782 0.000000 0.369536 0.217066 4
0 -12.138676 -5.222226 0.972272 0.369537 0.194727 4
0 -12.138676 -4.006531 1.375000 0.369537 0.140795 4
0 -12.138676 -2.790838 0.972272 0.369537 0.086863 4
0 -12.138680 -2.287279 0.000000 0.369536 0.064524 4
0 -12.138676 -2.790838 -0.972272 0.369537 0.086863 4
0 -12.138676 -4.006531 -1.375000 0.369537 0.140795 4
0 -12.138676 -5.222226 -0.972272 0.369537 0.194727 4
34
-1.000000 -0.000003 0.000000
-1.000000 -0.000001 -0.000002
-1.000000 -0.000001 0.000000
-1.000000 -0.000003 0.000000
-1.000000 -0.000001 -0.000005
-1.000000 0.000003 0.000000
-1.000000 -0.000001 0.000005
-1.000000 -0.000001 0.000002
-1.000000 -0.000000 0.000000
-0.673359 -0.739315 0.000000
-0.736186 -0.433440 0.519769
1.000000 0.000000 -0.000000
0.736186 -0.433443 0.519767
0.673358 -0.739317 0.000000
-0.604698 -0.000000 0.796455
0.604699 -0.000000 0.796454
-0.736185 0.433442 0.519769
0.736185 0.433444 0.519767
-0.673357 0.739318 0.000000
0.673356 0.739318 0.000000
-0.736185 0.433442 -0.519769
0.736185 0.433444 -0.519767
-0.604698 -0.000000 -0.796455
0.604699 -0.000000 -0.796454
-0.736186 -0.433440 -0.519769
0.736186 -0.433443 -0.519767
0.000002 -1.000000 0.000000
0.000001 -0.645471 0.763785
0.000001 0.000000 1.000000
0.000001 0.645471 0.763784
0.000001 1.000000 0.000000
0.000001 0.645471 -0.763784
0.000001 0.000000 -1.000000
0.000001 -0.645471 -0.763785
56
0 0 1 2 0 1 2 2
0 1 3 2 1 3 2 2
0 3 4 2 3 4 2 2
0 4 5 2 4 5 2 2
0 5 6 2 5 6 2 2
0 6 7 2 6 3 2 2
0 7 8 2 3 7 2 2
0 8 0 2 7 0 2 2
0 9 10 11 8 9 10 1
0 12 13 14 11 12 13 1
0 9 11 15 8 10 14 1
0 12 16 13 11 15 12 1
0 9 15 17 8 14 16 1
0 12 18 16 11 17 15 1
0 9 17 19 8 16 18 1
0 12 20 18 11 19 17 1
0 9 19 21 8 18 20 1
0 12 22 20 11 21 19 1
0 9 21 23 8 20 22 1
0 12 24 22 11 23 21 1
0 9 23 25 8 22 24 1
0 12 26 24 11 25 23 1
0 9 25 10 8 24 9 1
0 12 14 26 11 13 25 1
0 10 27 28 9 26 27 1
0 10 28 11 9 27 10 1
0 11 28 15 10 27 14 1
0 28 29 15 27 28 14 1
0 15 29 30 14 28 29 1
0 15 30 17 14 29 16 1
0 17 30 19 16 29 18 1
0 30 31 19 29 30 18 1
0 19 31 32 18 30 31 1
0 19 32 21 18 31 20 1
0 21 32 23 20 31 22 1
0 32 33 23 31 32 22 1
0 23 33 34 22 32 33 1
0 23 34 25 22 33 24 1
0 25 34 10 24 33 9 1
0 34 27 10 33 26 9 1
0 27 14 28 26 13 27 1
0 14 13 28 13 12 27 1
0 28 13 16 27 12 15 1
0 28 16 29 27 15 28 1
0 29 16 30 28 15 29 1
0 16 18 30 15 17 29 1
0 30 18 20 29 17 19 1
0 30 20 31 29 19 30 1
0 31 20 32 30 19 31 1
0 20 22 32 19 21 31 1
0 32 22 24 31 21 23 1
0 32 24 33 31 23 32 1
0 33 24 34 32 23 33 1
0 24 26 34 23 25 33 1
0 34 26 14 33 25 13 1
0 34 14 27 33 13 26 1
"turretHand_lnk" 0 0
35
0 7.825662 -9.689087 -0.000000 0.328444 0.134251 2
0 7.007662 -10.070520 0.721838 0.328444 0.180440 2
0 6.668838 -10.228521 -0.000000 0.328444 0.199572 2
0 7.825662 -9.689087 1.020833 0.328444 0.134251 2
0 8.643666 -9.307646 0.721838 0.328444 0.088062 2
0 8.982491 -9.149643 -0.000000 0.328444 0.068929 2
0 8.643666 -9.307646 -0.721838 0.328444 0.088062 2
0 7.825662 -9.689087 -1.020834 0.328444 0.134251 2
0 7.007662 -10.070520 -0.721838 0.328444 0.180440 2
0 7.803045 -11.489698 0.687500 0.429600 0.174243 2
0 7.480329 -11.640184 0.000000 0.429600 0.192465 2
0 8.754995 -11.497133 0.000000 0.455105 0.130251 2
0 6.645627 -9.850157 -0.000000 0.306451 0.192465 2
0 6.968337 -9.699677 0.687500 0.306451 0.174243 2
0 7.574549 -8.965649 -0.000000 0.280946 0.130251 2
0 8.582124 -11.126407 0.972272 0.429600 0.130251 2
0 7.747420 -9.336378 0.972272 0.306451 0.130251 2
0 9.361213 -10.763117 0.687500 0.429600 0.086260 2
0 8.526512 -8.973087 0.687500 0.306451 0.086259 2
0 9.683921 -10.612636 0.000000 0.429600 0.068038 2
0 8.849216 -8.822603 -0.000000 0.306451 0.068038 2
0 9.361213 -10.763117 -0.687500 0.429600 0.086260 2
0 8.526512 -8.973087 -0.687500 0.306451 0.086259 2
0 8.582124 -11.126407 -0.972272 0.429600 0.130251 2
0 7.747420 -9.336378 -0.972272 0.306451 0.130251 2
0 7.803045 -11.489698 -0.687500 0.429600 0.174243 2
0 6.968337 -9.699677 -0.687500 0.306451 0.174243 2
0 7.062979 -10.745169 0.972272 0.368025 0.192465 2
0 6.606603 -10.957983 -0.000000 0.368026 0.218235 2
0 8.164772 -10.231393 1.375000 0.368025 0.130251 2
0 9.266565 -9.717617 0.972272 0.368025 0.068038 2
0 9.722944 -9.504807 -0.000000 0.368026 0.042268 2
0 9.266565 -9.717617 -0.972272 0.368025 0.068038 2
0 8.164772 -10.231393 -1.375000 0.368025 0.130251 2
0 7.062979 -10.745169 -0.972272 0.368025 0.192465 2
35
0.422617 -0.906308 0.000000
0.422615 -0.906309 0.000003
0.422617 -0.906308 -0.000000
0.422615 -0.906309 0.000000
0.422620 -0.906307 -0.000003
0.422622 -0.906306 0.000000
0.422620 -0.906307 0.000003
0.422615 -0.906309 0.000000
0.422615 -0.906309 -0.000003
-0.081702 -0.850391 0.519769
-0.385472 -0.922720 0.000000
0.422617 -0.906309 0.000000
-0.954622 0.297820 0.000000
-0.703958 0.484029 0.519768
-0.422619 0.906307 0.000000
0.255555 -0.548044 0.796454
-0.255557 0.548043 0.796454
0.703955 -0.484032 0.519769
0.081708 0.850391 0.519769
0.954622 -0.297821 -0.000000
0.385477 0.922717 0.000000
0.703955 -0.484032 -0.519769
0.081708 0.850391 -0.519769
0.255555 -0.548044 -0.796454
-0.255557 0.548043 -0.796454
-0.081702 -0.850391 -0.519769
-0.703958 0.484029 -0.519768
-0.584995 -0.272788 0.763785
-0.906308 -0.422618 0.000000
0.000000 -0.000000 1.000000
0.584995 0.272789 0.763785
0.906308 0.422619 0.000000
0.584995 0.272788 -0.763785
0.000000 -0.000000 -1.000000
-0.584995 -0.272788 -0.763785
56
0 0 1 2 0 1 2 2
0 0 3 1 0 3 1 2
0 0 4 3 0 4 3 2
0 0 5 4 0 5 4 2
0 0 6 5 0 6 5 2
0 0 7 6 0 7 6 2
0 0 8 7 0 8 7 2
0 0 2 8 0 2 8 2
0 9 10 11 9 10 11 1
0 12 13 14 12 13 14 1
0 15 9 11 15 9 11 1
0 13 16 14 13 16 14 1
0 17 15 11 17 15 11 1
0 16 18 14 16 18 14 1
0 19 17 11 19 17 11 1
0 18 20 14 18 20 14 1
0 21 19 11 21 19 11 1
0 20 22 14 20 22 14 1
0 23 21 11 23 21 11 1
0 22 24 14 22 24 14 1
0 25 23 11 25 23 11 1
0 24 26 14 24 26 14 1
0 10 25 11 10 25 11 1
0 26 12 14 26 12 14 1
0 27 28 10 27 28 10 1
0 9 27 10 9 27 10 1
0 15 27 9 15 27 9 1
0 15 29 27 15 29 27 1
0 30 29 15 30 29 15 1
0 17 30 15 17 30 15 1
0 19 30 17 19 30 17 1
0 19 31 30 19 31 30 1
0 32 31 19 32 31 19 1
0 21 32 19 21 32 19 1
0 23 32 21 23 32 21 1
0 23 33 32 23 33 32 1
0 34 33 23 34 33 23 1
0 25 34 23 25 34 23 1
0 10 34 25 10 34 25 1
0 10 28 34 10 28 34 1
0 27 12 28 27 12 28 1
0 27 13 12 27 13 12 1
0 16 13 27 16 13 27 1
0 29 16 27 29 16 27 1
0 30 16 29 30 16 29 1
0 30 18 16 30 18 16 1
0 20 18 30 20 18 30 1
0 31 20 30 31 20 30 1
0 32 20 31 32 20 31 1
0 32 22 20 32 22 20 1
0 24 22 32 24 22 32 1
0 33 24 32 33 24 32 1
0 34 24 33 34 24 33 1
0 34 26 24 34 26 24 1
0 12 26 34 12 26 34 1
0 28 12 34 28 12 34 1
"turretArm_lnk" 0 0
17
0 4.427087 -4.269459 0.721838 0.806764 0.896555 2
0 5.142817 -3.935707 -0.000000 0.806764 0.857581 2
0 4.130621 -4.407704 -0.000000 0.806764 0.912699 2
0 7.007662 -10.070520 0.721838 0.935845 0.902124 2
0 6.668838 -10.228521 -0.000000 0.935845 0.920574 2
0 5.142817 -3.935707 1.020833 0.806764 0.857581 2
0 7.825662 -9.689087 1.020833 0.935845 0.857581 2
0 5.858555 -3.601954 0.721838 0.806764 0.818607 2
0 8.643666 -9.307646 0.721838 0.935845 0.813038 2
0 6.155026 -3.463707 -0.000000 0.806764 0.802463 2
0 8.982491 -9.149643 -0.000000 0.935845 0.794587 2
0 5.858555 -3.601954 -0.721838 0.806764 0.818607 2
0 8.643666 -9.307646 -0.721838 0.935845 0.813038 2
0 5.142817 -3.935707 -1.020834 0.806764 0.857581 2
0 7.825662 -9.689087 -1.020834 0.935845 0.857581 2
0 4.427087 -4.269459 -0.721838 0.806764 0.896555 2
0 7.007662 -10.070520 -0.721838 0.935845 0.902124 2
25
-0.422620 0.906307 0.000000
-0.422619 0.906308 -0.000000
-0.422619 0.906307 -0.000000
-0.609430 -0.270822 0.745152
-0.915146 -0.403122 -0.000000
-0.916642 -0.399709 -0.000000
-0.625250 -0.278140 0.729178
-0.422619 0.906308 0.000000
-0.001413 0.003026 0.999994
-0.000001 -0.000001 1.000000
-0.422618 0.906308 0.000000
0.599194 0.292768 0.745154
0.614967 0.300183 0.729181
-0.422618 0.906308 -0.000000
0.897054 0.441920 -0.000000
0.895402 0.445259 -0.000000
-0.422618 0.906308 -0.000000
0.599194 0.292768 -0.745154
0.614967 0.300183 -0.729181
-0.422619 0.906308 0.000000
-0.001413 0.003026 -0.999994
-0.000001 -0.000001 -1.000000
-0.422620 0.906307 -0.000000
-0.609430 -0.270822 -0.745152
-0.625250 -0.278140 -0.729178
24
0 0 1 2 0 1 2 2
0 3 2 4 3 4 5 1
0 3 0 2 3 6 4 1
0 5 1 0 7 1 0 2
0 5 0 3 8 6 3 1
0 6 5 3 9 8 3 1
0 7 1 5 10 1 7 2
0 8 5 6 11 8 9 1
0 8 7 5 11 12 8 1
0 9 1 7 13 1 10 2
0 9 7 8 14 12 11 1
0 10 9 8 15 14 11 1
0 11 1 9 16 1 13 2
0 12 9 10 17 14 15 1
0 12 11 9 17 18 14 1
0 13 1 11 19 1 16 2
0 13 11 12 20 18 17 1
0 14 13 12 21 20 17 1
0 15 1 13 22 1 19 2
0 16 13 14 23 20 21 1
0 16 15 13 23 24 20 1
0 2 1 15 2 1 22 2
0 2 15 16 4 24 23 1
0 4 2 16 5 4 23 1
"turretArm_re" 0 0
17
0 -5.155716 -5.201516 0.000000 0.927922 0.913457 4
0 -5.155717 -4.084681 0.000000 0.927922 0.870962 4
0 -5.155718 -4.874402 0.721838 0.927922 0.901011 4
0 -11.503861 -5.361093 0.000000 0.839500 0.919530 4
0 -11.503865 -4.987240 0.721838 0.839500 0.905305 4
0 -5.155716 -4.084681 1.020833 0.927922 0.870962 4
0 -11.503865 -4.084681 1.020833 0.839500 0.870962 4
0 -5.155715 -3.294951 0.721838 0.927922 0.840912 4
0 -11.503870 -3.182114 0.721838 0.839500 0.836619 4
0 -5.155716 -2.967832 0.000000 0.927922 0.828466 4
0 -11.503861 -2.808258 0.000000 0.839500 0.822394 4
0 -5.155716 -3.294951 -0.721838 0.927922 0.840912 4
0 -11.503870 -3.182114 -0.721838 0.839500 0.836619 4
0 -5.155716 -4.084681 -1.020833 0.927922 0.870962 4
0 -11.503865 -4.084681 -1.020833 0.839500 0.870962 4
0 -5.155718 -4.874402 -0.721838 0.927922 0.901011 4
0 -11.503865 -4.987240 -0.721838 0.839500 0.905305 4
25
1.000000 0.000001 0.000000
1.000000 -0.000001 -0.000000
1.000000 -0.000001 0.000001
0.025130 -0.999684 0.000000
0.021404 -0.999771 0.000000
0.012108 -0.666785 0.745151
0.012162 -0.684216 0.729178
1.000000 -0.000002 -0.000000
0.003340 -0.000002 0.999994
0.000000 -0.000001 1.000000
1.000000 -0.000001 -0.000001
0.012108 0.666783 0.745154
0.012162 0.684213 0.729181
1.000000 -0.000000 -0.000000
0.021404 0.999771 0.000000
0.025129 0.999684 0.000000
1.000000 -0.000001 0.000001
0.012108 0.666783 -0.745154
0.012162 0.684213 -0.729181
1.000000 -0.000002 0.000000
0.003340 -0.000002 -0.999994
0.000000 -0.000001 -1.000000
1.000000 -0.000001 -0.000001
0.012108 -0.666785 -0.745151
0.012162 -0.684216 -0.729178
24
0 0 1 2 0 1 2 2
0 3 0 4 3 4 5 1
0 0 2 4 4 6 5 1
0 2 1 5 2 1 7 2
0 4 2 5 5 6 8 1
0 4 5 6 5 8 9 1
0 5 1 7 7 1 10 2
0 6 5 8 9 8 11 1
0 5 7 8 8 12 11 1
0 7 1 9 10 1 13 2
0 8 7 9 11 12 14 1
0 8 9 10 11 14 15 1
0 9 1 11 13 1 16 2
0 10 9 12 15 14 17 1
0 9 11 12 14 18 17 1
0 11 1 13 16 1 19 2
0 12 11 13 17 18 20 1
0 12 13 14 17 20 21 1
0 13 1 15 19 1 22 2
0 14 13 16 21 20 23 1
0 13 15 16 20 24 23 1
0 15 1 0 22 1 0 2
0 16 15 0 23 24 4 1
0 16 0 3 23 4 3 1
"gunKragen" 0 0
24
0 -0.230769 -1.730769 9.115385 0.334508 0.159560 -1
0 -0.248121 -1.396535 8.000000 0.334356 0.156437 -1
0 -3.398241 -1.340660 8.936704 0.306873 0.155915 -1
0 2.958681 -1.571429 8.936704 0.362334 0.158071 -1
0 -6.161122 0.774725 9.150820 0.282768 0.136148 -1
0 -2.616542 -0.323309 8.000000 0.313693 0.146409 -1
0 -4.142858 1.518797 8.000000 0.300377 0.129195 -1
0 1.857142 -0.165414 8.000000 0.352723 0.144933 -1
0 5.330353 1.000000 9.150820 0.383026 0.134044 -1
0 3.488721 1.624060 8.000000 0.366958 0.128212 -1
0 -0.076923 9.375775 8.865385 0.335850 0.055779 -1
0 -2.721805 7.781955 8.000000 0.312774 0.070672 -1
0 -0.090226 9.097742 8.000000 0.335734 0.058377 -1
0 -3.398241 8.714286 8.936704 0.306873 0.061960 -1
0 -4.142858 6.045113 8.000000 0.300377 0.086901 -1
0 -5.853430 6.763737 9.150820 0.285453 0.080186 -1
0 -4.616542 3.413533 8.000000 0.296244 0.111491 -1
0 -6.770157 3.428571 9.364937 0.277455 0.111350 -1
0 5.759169 3.571429 9.364937 0.386768 0.110016 -1
0 3.909774 3.571428 8.000000 0.370632 0.110016 -1
0 5.358925 6.233766 9.150820 0.383276 0.085138 -1
0 3.541353 5.676692 8.000000 0.367418 0.090344 -1
0 2.958681 8.714285 8.936704 0.362334 0.061960 -1
0 1.962405 7.834586 8.000000 0.353642 0.070180 -1
24
0.034912 0.957482 0.286374
0.022263 0.785120 0.618943
0.265803 0.689868 0.673373
-0.241465 0.607196 0.756973
0.449310 0.233755 0.862252
0.344129 0.436017 0.831543
0.422286 0.216119 0.880322
-0.342448 0.352221 0.871017
-0.443402 0.224717 0.867696
-0.512413 0.172351 0.841266
0.130784 -0.871734 0.472202
0.379460 -0.677076 0.630538
-0.033601 -0.857114 0.514029
0.350767 -0.493825 0.795676
0.478235 -0.304785 0.823649
0.489718 -0.198279 0.849036
0.516252 -0.004462 0.856425
0.535137 -0.018889 0.844554
-0.571066 0.039996 0.819929
-0.568136 0.004361 0.822923
-0.517151 -0.153344 0.842046
-0.472205 -0.259063 0.842561
-0.376326 -0.563602 0.735344
-0.391058 -0.425889 0.815899
25
0 0 1 2 0 1 2 1
0 0 3 1 0 3 1 1
0 4 2 5 4 2 5 1
0 5 6 4 5 6 4 1
0 2 1 5 2 1 5 1
0 3 7 1 3 7 1 1
0 3 8 7 3 8 7 1
0 8 9 7 8 9 7 1
0 10 11 12 10 11 12 1
0 13 11 10 13 11 10 1
0 13 14 11 13 14 11 1
0 13 15 14 13 15 14 1
0 15 16 14 15 16 14 1
0 15 17 16 15 17 16 1
0 4 6 16 4 6 16 1
0 16 17 4 16 17 4 1
0 18 9 8 18 9 8 1
0 18 19 9 18 19 9 1
0 20 19 18 20 19 18 1
0 20 21 19 20 21 19 1
0 21 21 22 21 21 22 1
0 21 20 22 21 20 22 1
0 22 23 21 22 23 21 1
0 22 12 23 22 12 23 1
0 22 10 12 22 10 12 1
"gun" 0 0
56
0 -14.629187 -0.546272 -17.606508 0.761190 0.416169 -1
0 -14.989525 0.923606 15.406529 0.981032 0.379621 -1
0 -14.989529 0.923606 -17.606508 0.761190 0.379621 -1
0 -14.629189 -0.546275 15.406529 0.981032 0.416169 -1
0 -13.644758 -1.622299 15.406529 0.981032 0.442924 -1
0 -13.644756 -1.622299 -17.606512 0.761190 0.442924 -1
0 -12.299999 -2.016151 -17.606508 0.761190 0.452717 -1
0 -12.299999 -2.016154 15.406526 0.981032 0.452717 -1
0 -10.955240 -1.622299 15.406529 0.981032 0.442924 -1
0 -10.955240 -1.622299 -17.606512 0.761190 0.442924 -1
0 -9.970798 -0.546272 -17.606508 0.761190 0.416169 -1
0 -9.970798 -0.546274 15.406529 0.981032 0.416169 -1
0 -9.610476 0.923606 15.406529 0.981032 0.379621 -1
0 -9.610476 0.923608 -17.606508 0.761190 0.379621 -1
0 -9.970798 2.393486 -17.606512 0.761190 0.343073 -1
0 -9.970798 2.393486 15.406533 0.981032 0.343073 -1
0 -10.955240 3.469510 15.406526 0.981032 0.316319 -1
0 -10.955240 3.469508 -17.606512 0.761190 0.316319 -1
0 -12.299999 3.863363 -17.606508 0.761190 0.306525 -1
0 -12.299999 3.863365 15.406529 0.981032 0.306525 -1
0 -13.644758 3.469510 15.406526 0.981032 0.316319 -1
0 -13.644756 3.469508 -17.606512 0.761190 0.316319 -1
0 -14.629187 2.393486 -17.606512 0.761190 0.343073 -1
0 -14.629189 2.393486 15.406533 0.981032 0.343073 -1
0 -14.478516 0.923604 15.406476 0.981031 0.379621 -1
0 -14.186649 -0.266995 15.406480 0.981031 0.409225 -1
0 -14.186651 -0.267005 -17.606508 0.761190 0.409225 -1
0 -14.478516 0.923608 -17.606508 0.761190 0.379621 -1
0 -13.389263 -1.138582 15.406480 0.981031 0.430896 -1
0 -13.389263 -1.138590 -17.606512 0.761190 0.430896 -1
0 -12.299999 -1.457597 15.406480 0.981031 0.438828 -1
0 -12.299999 -1.457591 -17.606504 0.761190 0.438828 -1
0 -11.210754 -1.138582 15.406480 0.981031 0.430896 -1
0 -11.210737 -1.138590 -17.606512 0.761190 0.430896 -1
0 -10.413355 -0.266995 15.406491 0.981032 0.409225 -1
0 -10.413355 -0.267005 -17.606508 0.761190 0.409225 -1
0 -10.121483 0.923604 15.406480 0.981031 0.379621 -1
0 -10.121490 0.923608 -17.606508 0.761190 0.379621 -1
0 -10.413355 2.114208 15.406487 0.981031 0.350017 -1
0 -10.413355 2.114218 -17.606508 0.761190 0.350017 -1
0 -11.210754 2.985792 15.406472 0.981031 0.328346 -1
0 -11.210737 2.985801 -17.606512 0.761190 0.328345 -1
0 -12.299999 3.304807 15.406480 0.981031 0.320414 -1
0 -12.299999 3.304801 -17.606508 0.761190 0.320414 -1
0 -13.389263 2.985792 15.406472 0.981031 0.328346 -1
0 -13.389263 2.985801 -17.606512 0.761190 0.328345 -1
0 -14.186649 2.114207 15.406480 0.981031 0.350017 -1
0 -14.186651 2.114218 -17.606508 0.761190 0.350017 -1
0 -12.928572 -1.526026 3.028572 0.440038 0.077318 -1
0 -12.928572 -4.383168 3.028572 0.427249 0.195188 -1
0 -11.642858 -1.526026 3.028572 0.440038 0.077318 -1
0 -11.642858 -4.383168 3.028572 0.427249 0.195188 -1
0 -11.642858 -1.526026 0.171429 0.315565 0.065207 -1
0 -11.642858 -4.383168 0.171429 0.302775 0.183077 -1
0 -12.928572 -1.526026 0.171429 0.315565 0.065207 -1
0 -12.928572 -4.383168 0.171429 0.302775 0.183077 -1
66
0.965926 0.000000 0.258819
0.965926 0.000000 0.258819
0.707107 0.000000 0.707107
0.258819 0.000000 0.965926
0.258819 0.000000 0.965926
-0.258819 0.000000 0.965926
-0.707107 0.000000 0.707107
-0.965926 0.000000 0.258819
-0.965926 0.000000 -0.258819
-0.965926 0.000000 -0.258819
-0.707107 0.000000 -0.707107
-0.258819 0.000000 -0.965926
-0.258819 0.000000 -0.965926
0.258819 0.000000 -0.965926
0.707107 0.000000 -0.707107
0.965926 0.000000 -0.258819
-0.965927 -0.000002 -0.258815
-0.965931 0.000001 -0.258800
-0.707107 -0.000002 -0.707107
-0.258815 0.000001 -0.965927
-0.258800 -0.000002 -0.965931
0.258815 -0.000002 -0.965927
0.258800 0.000001 -0.965931
0.707107 -0.000002 -0.707107
0.965927 0.000001 -0.258815
0.965931 -0.000002 -0.258800
0.965927 -0.000002 0.258815
0.965931 0.000001 0.258800
0.707107 -0.000002 0.707107
0.258815 0.000001 0.965927
0.258800 -0.000002 0.965931
-0.258815 -0.000002 0.965927
-0.258800 0.000001 0.965931
-0.707107 -0.000002 0.707107
-0.965927 0.000001 0.258815
-0.965931 -0.000002 0.258800
-0.000018 1.000000 -0.000005
-0.000018 1.000000 -0.000005
-0.000013 1.000000 -0.000013
-0.000013 1.000000 -0.000013
-0.000005 1.000000 -0.000018
-0.000005 1.000000 -0.000018
0.000005 1.000000 -0.000018
0.000005 1.000000 -0.000018
0.000013 1.000000 -0.000013
0.000013 1.000000 -0.000013
0.000018 1.000000 -0.000005
0.000018 1.000000 -0.000005
0.000018 1.000000 0.000005
0.000018 1.000000 0.000005
0.000013 1.000000 0.000013
0.000013 1.000000 0.000013
0.000005 1.000000 0.000018
0.000005 1.000000 0.000018
-0.000005 1.000000 0.000018
-0.000005 1.000000 0.000018
-0.000013 1.000000 0.000013
-0.000013 1.000000 0.000013
-0.000018 1.000000 0.000005
-0.000018 1.000000 0.000005
0.000000 -1.000000 0.000000
0.000000 0.000000 1.000000
1.000000 0.000000 0.000000
0.000000 0.000000 -1.000000
-1.000000 0.000000 0.000000
0.000000 1.000000 0.000000
108
0 0 1 2 0 0 0 255
0 0 3 1 1 1 1 255
0 4 3 0 2 2 2 255
0 5 4 0 2 2 2 255
0 6 4 5 3 3 3 255
0 6 7 4 4 4 4 255
0 8 7 6 5 5 5 255
0 9 8 6 5 5 5 255
0 10 8 9 6 6 6 255
0 10 11 8 6 6 6 255
0 12 11 10 7 7 7 255
0 13 12 10 7 7 7 255
0 14 12 13 8 8 8 255
0 14 15 12 9 9 9 255
0 16 15 14 10 10 10 255
0 17 16 14 10 10 10 255
0 18 16 17 11 11 11 255
0 18 19 16 12 12 12 255
0 20 19 18 13 13 13 255
0 21 20 18 13 13 13 255
0 22 20 21 14 14 14 255
0 22 23 20 14 14 14 255
0 1 23 22 15 15 15 255
0 2 1 22 15 15 15 255
0 24 25 26 16 16 16 255
0 27 24 26 17 17 17 255
0 25 28 29 18 18 18 255
0 26 25 29 18 18 18 255
0 28 30 31 19 19 19 255
0 29 28 31 20 20 20 255
0 30 32 33 21 21 21 255
0 31 30 33 22 22 22 255
0 32 34 35 23 23 23 255
0 33 32 35 23 23 23 255
0 34 36 37 24 24 24 255
0 35 34 37 25 25 25 255
0 36 38 39 26 26 26 255
0 37 36 39 27 27 27 255
0 38 40 41 28 28 28 255
0 39 38 41 28 28 28 255
0 40 42 43 29 29 29 255
0 41 40 43 30 30 30 255
0 42 44 45 31 31 31 255
0 43 42 45 32 32 32 255
0 44 46 47 33 33 33 255
0 45 44 47 33 33 33 255
0 46 24 27 34 34 34 255
0 47 46 27 35 35 35 255
0 1 3 25 36 36 36 255
0 24 1 25 37 37 37 255
0 3 4 28 38 38 38 255
0 25 3 28 39 39 39 255
0 4 7 30 40 40 40 255
0 28 4 30 41 41 41 255
0 7 8 32 42 42 42 255
0 30 7 32 43 43 43 255
0 8 11 34 44 44 44 255
0 32 8 34 45 45 45 255
0 11 12 36 46 46 46 255
0 34 11 36 47 47 47 255
0 12 15 38 48 48 48 255
0 36 12 38 49 49 49 255
0 15 16 40 50 50 50 255
0 38 15 40 51 51 51 255
0 16 19 42 52 52 52 255
0 40 16 42 53 53 53 255
0 19 20 44 54 54 54 255
0 42 19 44 55 55 55 255
0 20 23 46 56 56 56 255
0 44 20 46 57 57 57 255
0 23 1 24 58 58 58 255
0 46 23 24 59 59 59 255
0 26 0 2 60 60 60 255
0 26 2 27 60 60 60 255
0 29 5 0 60 60 60 255
0 29 0 26 60 60 60 255
0 31 6 5 60 60 60 255
0 31 5 29 60 60 60 255
0 33 9 6 60 60 60 255
0 33 6 31 60 60 60 255
0 35 10 9 60 60 60 255
0 35 9 33 60 60 60 255
0 37 13 10 60 60 60 255
0 37 10 35 60 60 60 255
0 39 14 13 60 60 60 255
0 39 13 37 60 60 60 255
0 41 17 14 60 60 60 255
0 41 14 39 60 60 60 255
0 43 18 17 60 60 60 255
0 43 17 41 60 60 60 255
0 45 21 18 60 60 60 255
0 45 18 43 60 60 60 255
0 47 22 21 60 60 60 255
0 47 21 45 60 60 60 255
0 27 2 22 60 60 60 255
0 27 22 47 60 60 60 255
0 48 49 50 61 61 61 1
0 49 51 50 61 61 61 1
0 50 51 52 62 62 62 2
0 51 53 52 62 62 62 2
0 52 53 54 63 63 63 1
0 53 55 54 63 63 63 1
0 54 55 48 64 64 64 2
0 55 49 48 64 64 64 2
0 54 48 52 65 65 65 3
0 48 50 52 65 65 65 3
0 49 55 51 60 60 60 3
0 55 53 51 60 60 60 3
"turretpivot" 0 -1
20
0 -0.827129 -9.237930 0.850000 0.000000 0.000000 -1
0 -0.827129 -10.937930 0.850000 0.000000 1.000000 -1
0 0.772871 -9.237930 0.850000 1.000000 0.000000 -1
0 0.772871 -10.937930 0.850000 1.000000 1.000000 -1
0 0.772871 -9.237930 0.850000 0.000000 0.000000 -1
0 0.772871 -10.937930 0.850000 0.000000 1.000000 -1
0 0.772871 -9.237930 -0.850000 1.000000 0.000000 -1
0 0.772871 -10.937930 -0.850000 1.000000 1.000000 -1
0 0.772871 -9.237930 -0.850000 0.000000 0.000000 -1
0 0.772871 -10.937930 -0.850000 0.000000 1.000000 -1
0 -0.827129 -9.237930 -0.850000 1.000000 0.000000 -1
0 -0.827129 -10.937930 -0.850000 1.000000 1.000000 -1
0 -0.827129 -9.237930 -0.850000 0.000000 0.000000 -1
0 -0.827129 -10.937930 -0.850000 0.000000 1.000000 -1
0 -0.827129 -9.237930 0.850000 1.000000 0.000000 -1
0 -0.827129 -10.937930 0.850000 1.000000 1.000000 -1
0 -0.827129 -9.237930 0.850000 0.000000 1.000000 -1
0 0.772871 -9.237930 0.850000 1.000000 1.000000 -1
0 -0.827129 -10.937930 0.850000 0.000000 0.000000 -1
0 0.772871 -10.937930 0.850000 1.000000 0.000000 -1
6
0.000000 0.000000 1.000000
1.000000 0.000000 0.000000
0.000000 0.000000 -1.000000
-1.000000 0.000000 0.000000
0.000000 1.000000 0.000000
0.000000 -1.000000 0.000000
12
0 0 1 2 0 0 0 1
0 1 3 2 0 0 0 1
0 4 5 6 1 1 1 2
0 5 7 6 1 1 1 2
0 8 9 10 2 2 2 1
0 9 11 10 2 2 2 1
0 12 13 14 3 3 3 2
0 13 15 14 3 3 3 2
0 12 16 6 4 4 4 3
0 16 17 6 4 4 4 3
0 18 13 19 5 5 5 3
0 13 7 19 5 5 5 3
"gunpivot" 1 -1
20
1 -12.711140 -2.630217 2.325000 0.000000 0.000000 -1
1 -12.735573 -4.030004 2.325000 0.000000 1.000000 -1
1 -11.611309 -2.649415 2.325000 1.000000 0.000000 -1
1 -11.635744 -4.049201 2.325000 1.000000 1.000000 -1
1 -11.611309 -2.649415 2.325000 0.000000 0.000000 -1
1 -11.635744 -4.049201 2.325000 0.000000 1.000000 -1
1 -11.611309 -2.649415 0.925000 1.000000 0.000000 -1
1 -11.635744 -4.049201 0.925000 1.000000 1.000000 -1
1 -11.611309 -2.649415 0.925000 0.000000 0.000000 -1
1 -11.635744 -4.049201 0.925000 0.000000 1.000000 -1
1 -12.711140 -2.630217 0.925000 1.000000 0.000000 -1
1 -12.735573 -4.030004 0.925000 1.000000 1.000000 -1
1 -12.711140 -2.630217 0.925000 0.000000 0.000000 -1
1 -12.735573 -4.030004 0.925000 0.000000 1.000000 -1
1 -12.711140 -2.630217 2.325000 1.000000 0.000000 -1
1 -12.735573 -4.030004 2.325000 1.000000 1.000000 -1
1 -12.711140 -2.630217 2.325000 0.000000 1.000000 -1
1 -11.611309 -2.649415 2.325000 1.000000 1.000000 -1
1 -12.735573 -4.030004 2.325000 0.000000 0.000000 -1
1 -11.635744 -4.049201 2.325000 1.000000 0.000000 -1
6
0.000000 0.000000 1.000000
0.999848 -0.017454 0.000000
0.000000 0.000000 -1.000000
-0.999848 0.017452 0.000000
0.017452 0.999848 0.000000
-0.017452 -0.999848 0.000000
12
1 0 1 2 0 0 0 1
1 1 3 2 0 0 0 1
1 4 5 6 1 1 1 2
1 5 7 6 1 1 1 2
1 8 9 10 2 2 2 1
1 9 11 10 2 2 2 1
1 12 13 14 3 3 3 2
1 13 15 14 3 3 3 2
1 12 16 6 4 4 4 3
1 16 17 6 4 4 4 3
1 18 13 19 5 5 5 3
1 13 7 19 5 5 5 3

Materials: 1
"Material01"
0.800000 0.800000 0.800000 1.000000
0.800000 0.800000 0.800000 1.000000
0.000000 0.000000 0.000000 1.000000
0.000000 0.000000 0.000000 1.000000
0.000000
1.000000
".\kenny02.bmp"
""

Bones: 5
"body"
""
8 -0.084240 -3.987271 0.000000 0.000000 0.000000 0.000000
0
0
"schulter_lnk"
"body"
8 5.250000 -0.125000 -0.000000 1.140808 1.526994 0.000000
0
0
"arm_lnk"
"schulter_lnk"
8 0.000000 0.000000 6.903418 0.000000 0.000000 0.000000
0
0
"schulter_re"
"body"
8 -4.875000 -0.125000 0.000000 -3.124657 1.570786 0.000000
0
0
"arm_re"
"schulter_re"
8 0.000000 0.000000 7.376058 0.000000 0.000000 0.000000
0
0
