// MilkShape 3D ASCII

Frames: 30
Frame: 1

Meshes: 28
"Duplicate11" 0 2
84
0 44.666672 25.666668 0.000000 0.323423 0.434978 -1
0 35.000004 25.666668 0.000000 0.323423 0.434978 -1
0 44.666672 19.583336 10.536642 0.352109 0.447437 -1
0 35.000004 19.583336 10.536642 0.352109 0.447437 -1
0 35.000004 7.416666 10.536642 0.352109 0.472355 -1
0 44.666672 7.416666 10.536642 0.352109 0.472355 -1
0 44.666672 1.333332 0.000000 0.323423 0.484814 -1
0 35.000004 1.333332 0.000000 0.323423 0.484814 -1
0 35.000004 7.416666 -10.536642 0.294738 0.472355 -1
0 44.666672 7.416666 -10.536642 0.294738 0.472355 -1
0 44.666672 19.583336 -10.536642 0.294738 0.447437 -1
0 35.000004 19.583336 -10.536642 0.294738 0.447437 -1
0 44.666672 25.666668 28.750000 0.401693 0.434978 -1
0 35.000004 25.666668 28.750000 0.401693 0.434978 -1
0 44.666672 19.583336 39.286644 0.430379 0.447437 -1
0 35.000004 19.583336 39.286644 0.430379 0.447437 -1
0 35.000004 7.416666 39.286644 0.430379 0.472355 -1
0 44.666672 7.416666 39.286644 0.430379 0.472355 -1
0 44.666672 1.333332 28.750000 0.401693 0.484814 -1
0 35.000004 1.333332 28.750000 0.401693 0.484814 -1
0 35.000004 7.416666 18.213358 0.373008 0.472355 -1
0 44.666672 7.416666 18.213358 0.373008 0.472355 -1
0 44.666672 19.583336 18.213358 0.373008 0.447437 -1
0 35.000004 19.583336 18.213358 0.373008 0.447437 -1
0 44.666672 25.666668 -28.250000 0.246515 0.434978 -1
0 35.000004 25.666668 -28.250000 0.246515 0.434978 -1
0 44.666672 19.583336 -17.713356 0.275200 0.447437 -1
0 35.000004 19.583336 -17.713356 0.275200 0.447437 -1
0 35.000004 7.416666 -17.713356 0.275200 0.472355 -1
0 44.666672 7.416666 -17.713356 0.275200 0.472355 -1
0 44.666672 1.333332 -28.250000 0.246515 0.484814 -1
0 35.000004 1.333332 -28.250000 0.246515 0.484814 -1
0 35.000004 7.416666 -38.786644 0.217829 0.472355 -1
0 44.666672 7.416666 -38.786644 0.217829 0.472355 -1
0 44.666672 19.583336 -38.786644 0.217829 0.447437 -1
0 35.000004 19.583336 -38.786644 0.217829 0.447437 -1
0 44.666672 25.666668 -53.916664 0.176639 0.434978 -1
0 35.000004 25.666668 -53.916664 0.176639 0.434978 -1
0 44.666672 19.583336 -43.380020 0.205324 0.447437 -1
0 35.000004 19.583336 -43.380020 0.205324 0.447437 -1
0 35.000004 7.416666 -43.380020 0.205324 0.472355 -1
0 44.666672 7.416666 -43.380020 0.205324 0.472355 -1
0 44.666672 1.333332 -53.916664 0.176639 0.484814 -1
0 35.000004 1.333332 -53.916664 0.176639 0.484814 -1
0 35.000004 7.416666 -64.453308 0.147954 0.472355 -1
0 44.666672 7.416666 -64.453308 0.147954 0.472355 -1
0 44.666672 19.583336 -64.453308 0.147954 0.447437 -1
0 35.000004 19.583336 -64.453308 0.147954 0.447437 -1
0 44.666672 19.583336 43.380020 0.441522 0.447437 -1
0 35.000004 25.666668 53.916664 0.470208 0.434978 -1
0 44.666672 25.666668 53.916664 0.470208 0.434978 -1
0 35.000004 19.583336 43.380020 0.441522 0.447437 -1
0 35.000004 7.416666 43.380020 0.441522 0.472355 -1
0 44.666672 7.416666 43.380020 0.441522 0.472355 -1
0 44.666672 1.333332 53.916664 0.470208 0.484814 -1
0 35.000004 1.333332 53.916664 0.470208 0.484814 -1
0 35.000004 7.416666 64.453308 0.498893 0.472355 -1
0 44.666672 7.416666 64.453308 0.498893 0.472355 -1
0 44.666672 19.583336 64.453308 0.498893 0.447437 -1
0 35.000004 19.583336 64.453308 0.498893 0.447437 -1
0 44.666672 26.207170 70.096939 0.514257 0.433871 -1
0 35.000004 30.914339 78.250000 0.536453 0.424231 -1
0 44.666672 30.914339 78.250000 0.536453 0.424231 -1
0 35.000004 26.207170 70.096939 0.514257 0.433871 -1
0 35.000004 16.792831 70.096939 0.514257 0.453152 -1
0 44.666672 16.792831 70.096939 0.514257 0.453152 -1
0 44.666672 12.085665 78.250000 0.536453 0.462793 -1
0 35.000004 12.085665 78.250000 0.536453 0.462793 -1
0 35.000004 16.792831 86.403053 0.558650 0.453152 -1
0 44.666672 16.792831 86.403053 0.558650 0.453152 -1
0 44.666672 26.207170 86.403053 0.558650 0.433871 -1
0 35.000004 26.207170 86.403053 0.558650 0.433871 -1
0 44.666672 37.147079 -85.999992 0.116638 0.407559 -1
0 35.000004 37.147079 -85.999992 0.116638 0.407559 -1
0 44.666672 31.656881 -76.490677 0.142527 0.418803 -1
0 35.000004 31.656881 -76.490677 0.142527 0.418803 -1
0 35.000004 20.676458 -76.490677 0.142527 0.441292 -1
0 44.666672 20.676458 -76.490677 0.142527 0.441292 -1
0 44.666672 15.186249 -85.999992 0.116638 0.452536 -1
0 35.000004 15.186249 -85.999992 0.116638 0.452536 -1
0 35.000004 20.676458 -95.509315 0.090750 0.441292 -1
0 44.666672 20.676458 -95.509315 0.090750 0.441292 -1
0 44.666672 31.656881 -95.509315 0.090750 0.418803 -1
0 35.000004 31.656881 -95.509315 0.090750 0.418803 -1
53
0.500000 0.866025 0.000000
-0.277350 0.960769 0.000000
0.654654 0.377964 0.654654
-0.755929 0.327327 0.566947
-0.654654 -0.377964 0.654654
0.755929 -0.327327 0.566947
0.277350 -0.960769 0.000000
-0.500000 -0.866025 0.000000
-0.500000 -0.433013 -0.750000
0.866025 -0.250000 -0.433013
0.500000 0.433013 -0.750000
-0.866025 0.250000 -0.433013
0.500000 0.866025 -0.000000
-0.277350 0.960769 -0.000000
0.654654 0.377965 0.654654
-0.654654 -0.377964 0.654654
0.755929 -0.327327 0.566947
0.277350 -0.960769 -0.000000
-0.500000 -0.866025 -0.000000
0.500000 0.866025 0.000000
-0.277350 0.960769 0.000000
-0.500000 -0.866025 0.000000
-0.500000 -0.433013 -0.750000
0.500000 0.433013 -0.750000
-0.866025 0.250000 -0.433013
0.654654 0.377965 -0.654654
-0.755929 0.327327 -0.566947
-0.654654 -0.377964 -0.654654
0.755929 -0.327327 -0.566947
-0.500000 -0.433013 0.750000
0.866025 -0.250000 0.433013
0.500000 0.433013 0.750000
-0.866025 0.250000 0.433013
0.654654 0.377965 -0.654654
-0.277350 0.960769 0.000000
0.500000 0.866025 0.000000
-0.755929 0.327327 -0.566947
-0.654654 -0.377965 -0.654654
0.755929 -0.327327 -0.566947
0.277350 -0.960769 0.000000
-0.500000 -0.866025 0.000000
0.500000 0.433013 0.750000
-0.866025 0.250000 0.433013
0.500000 0.866026 0.000000
-0.277350 0.960769 0.000000
0.654654 0.377965 0.654654
-0.755929 0.327327 0.566947
-0.654654 -0.377964 0.654654
0.755929 -0.327327 0.566947
0.277350 -0.960769 0.000000
-0.500000 -0.866025 0.000000
0.500000 0.433013 -0.750000
-0.866025 0.250000 -0.433012
140
0 0 1 2 0 1 2 1
0 1 3 2 1 3 2 1
0 2 3 4 2 3 4 1
0 2 4 5 2 4 5 1
0 5 4 6 5 4 6 1
0 4 7 6 4 7 6 1
0 6 7 8 6 7 8 1
0 6 8 9 6 8 9 1
0 9 8 10 9 8 10 1
0 8 11 10 8 11 10 1
0 10 11 1 10 11 1 1
0 10 1 0 10 1 0 1
0 0 2 10 0 2 10 1
0 10 2 9 10 2 9 1
0 9 2 5 9 2 5 1
0 5 6 9 5 6 9 1
0 1 11 3 1 11 3 1
0 3 11 4 3 11 4 1
0 4 11 8 4 11 8 1
0 4 8 7 4 8 7 1
0 12 13 14 12 13 14 1
0 13 15 14 13 3 14 1
0 14 15 16 14 3 15 1
0 14 16 17 14 15 16 1
0 17 16 18 16 15 17 1
0 16 19 18 15 18 17 1
0 18 19 20 17 18 8 1
0 18 20 21 17 8 9 1
0 21 20 22 9 8 10 1
0 20 23 22 8 11 10 1
0 22 23 13 10 11 13 1
0 22 13 12 10 13 12 1
0 12 14 22 12 14 10 1
0 22 14 21 10 14 9 1
0 21 14 17 9 14 16 1
0 17 18 21 16 17 9 1
0 13 23 15 13 11 3 1
0 15 23 16 3 11 15 1
0 16 23 20 15 11 8 1
0 16 20 19 15 8 18 1
0 24 25 26 19 20 14 1
0 25 27 26 20 3 14 1
0 26 27 28 14 3 15 1
0 26 28 29 14 15 16 1
0 29 28 30 16 15 6 1
0 28 31 30 15 21 6 1
0 30 31 32 6 21 22 1
0 30 32 33 6 22 9 1
0 33 32 34 9 22 23 1
0 32 35 34 22 24 23 1
0 34 35 25 23 24 20 1
0 34 25 24 23 20 19 1
0 24 26 34 19 14 23 1
0 34 26 33 23 14 9 1
0 33 26 29 9 14 16 1
0 29 30 33 16 6 9 1
0 25 35 27 20 24 3 1
0 27 35 28 3 24 15 1
0 28 35 32 15 24 22 1
0 28 32 31 15 22 21 1
0 36 37 38 19 20 14 1
0 37 39 38 20 3 14 1
0 38 39 40 14 3 15 1
0 38 40 41 14 15 16 1
0 41 40 42 16 15 6 1
0 40 43 42 15 21 6 1
0 42 43 44 6 21 22 1
0 42 44 45 6 22 9 1
0 45 44 46 9 22 23 1
0 44 47 46 22 24 23 1
0 46 47 37 23 24 20 1
0 46 37 36 23 20 19 1
0 36 38 46 19 14 23 1
0 46 38 45 23 14 9 1
0 45 38 41 9 14 16 1
0 41 42 45 16 6 9 1
0 37 47 39 20 24 3 1
0 39 47 40 3 24 15 1
0 40 47 44 15 24 22 1
0 40 44 43 15 22 21 1
0 48 49 50 25 20 19 1
0 48 51 49 25 26 20 1
0 52 51 48 27 26 25 1
0 53 52 48 28 27 25 1
0 54 52 53 6 27 28 1
0 54 55 52 6 21 27 1
0 56 55 54 29 21 6 1
0 57 56 54 30 29 6 1
0 58 56 57 31 29 30 1
0 58 59 56 31 32 29 1
0 49 59 58 20 32 31 1
0 50 49 58 19 20 31 1
0 58 48 50 31 25 19 1
0 57 48 58 30 25 31 1
0 53 48 57 28 25 30 1
0 57 54 53 30 6 28 1
0 51 59 49 26 32 20 1
0 52 59 51 27 32 26 1
0 56 59 52 29 32 27 1
0 55 56 52 21 29 27 1
0 60 61 62 33 34 35 1
0 60 63 61 33 36 34 1
0 64 63 60 37 36 33 1
0 65 64 60 38 37 33 1
0 66 64 65 39 37 38 1
0 66 67 64 39 40 37 1
0 68 67 66 29 40 39 1
0 69 68 66 30 29 39 1
0 70 68 69 41 29 30 1
0 70 71 68 41 42 29 1
0 61 71 70 34 42 41 1
0 62 61 70 35 34 41 1
0 70 60 62 41 33 35 1
0 69 60 70 30 33 41 1
0 65 60 69 38 33 30 1
0 69 66 65 30 39 38 1
0 63 71 61 36 42 34 1
0 64 71 63 37 42 36 1
0 68 71 64 29 42 37 1
0 67 68 64 40 29 37 1
0 72 73 74 43 44 45 1
0 73 75 74 44 46 45 1
0 74 75 76 45 46 47 1
0 74 76 77 45 47 48 1
0 77 76 78 48 47 49 1
0 76 79 78 47 50 49 1
0 78 79 80 49 50 22 1
0 78 80 81 49 22 9 1
0 81 80 82 9 22 51 1
0 80 83 82 22 52 51 1
0 82 83 73 51 52 44 1
0 82 73 72 51 44 43 1
0 72 74 82 43 45 51 1
0 82 74 81 51 45 9 1
0 81 74 77 9 45 48 1
0 77 78 81 48 49 9 1
0 73 83 75 44 52 46 1
0 75 83 76 46 52 47 1
0 76 83 80 47 52 22 1
0 76 80 79 47 22 50 1
"Duplicate12" 0 2
28
0 28.573898 38.633774 78.333290 0.525905 0.391380 -1
0 28.573898 22.666666 78.333290 0.525905 0.429649 -1
0 46.760353 38.633774 78.333290 0.525905 0.391380 -1
0 46.760353 22.666666 78.333290 0.525905 0.429649 -1
0 46.760353 38.633774 -88.666710 0.114192 0.391380 -1
0 46.760353 22.708500 -88.666710 0.114192 0.429549 -1
0 28.573898 38.633774 -88.666710 0.114192 0.391380 -1
0 28.573898 22.708500 -88.666710 0.114192 0.429549 -1
0 46.760353 22.708506 -102.602905 0.079835 0.429549 -1
0 46.760353 30.982050 -100.704185 0.084516 0.409719 -1
0 46.760353 22.708506 -88.434631 0.114764 0.429549 -1
0 28.572258 22.708506 -102.602905 0.079835 0.429549 -1
0 28.572258 22.708506 -88.434631 0.114764 0.429549 -1
0 28.572258 30.982050 -100.704185 0.084516 0.409719 -1
0 46.760353 37.023392 -95.518349 0.097300 0.395239 -1
0 28.572258 37.023392 -95.518349 0.097300 0.395239 -1
0 46.760353 38.633774 -88.434631 0.114764 0.391380 -1
0 28.572258 38.633774 -88.434631 0.114764 0.391380 -1
0 46.760353 22.708506 78.101303 0.525333 0.429549 -1
0 46.760353 30.982050 90.370857 0.555581 0.409719 -1
0 46.760353 22.708506 92.269577 0.560262 0.429549 -1
0 28.572258 30.982050 90.370857 0.555581 0.409719 -1
0 28.572258 22.708506 78.101303 0.525333 0.429549 -1
0 28.572258 22.708506 92.269577 0.560262 0.429549 -1
0 46.760353 37.023392 85.185020 0.542796 0.395239 -1
0 28.572258 37.023392 85.185020 0.542796 0.395239 -1
0 46.760353 38.633774 78.101303 0.525333 0.391380 -1
0 28.572258 38.633774 78.101303 0.525333 0.391380 -1
22
0.000000 0.000000 1.000000
1.000000 0.000000 0.000000
0.000000 0.000000 -1.000000
-1.000000 0.000000 0.000000
0.000000 1.000000 0.000000
0.000000 -1.000000 -0.000251
0.000000 -0.623026 -0.782201
0.000000 0.450626 -0.892713
0.000000 0.450626 -0.892713
0.000000 0.856424 -0.516273
0.000000 0.856424 -0.516273
0.000000 0.781562 0.623827
0.000000 -0.894427 0.447214
0.000000 -0.447214 0.894427
0.000000 0.450626 0.892713
0.000000 -0.623026 0.782201
0.000000 0.450626 0.892713
0.000000 0.856424 0.516273
0.000000 0.856424 0.516273
0.000000 0.781562 -0.623827
0.000000 -0.447214 -0.894427
0.000000 -0.894427 -0.447214
44
0 0 1 2 0 0 0 1
0 1 3 2 0 0 0 1
0 2 3 4 1 1 1 2
0 3 5 4 1 1 1 2
0 4 5 6 2 2 2 1
0 5 7 6 2 2 2 1
0 6 7 0 3 3 3 2
0 7 1 0 3 3 3 2
0 6 0 4 4 4 4 3
0 0 2 4 4 4 4 3
0 1 7 3 5 5 5 3
0 7 5 3 5 5 5 3
0 8 9 10 1 1 1 2
0 11 12 13 3 3 3 2
0 8 11 13 6 6 7 1
0 8 13 9 6 7 8 1
0 9 14 10 1 1 1 2
0 13 12 15 3 3 3 2
0 9 13 14 8 7 9 1
0 13 15 14 7 10 9 1
0 14 16 10 1 1 1 2
0 15 12 17 3 3 3 2
0 14 15 17 9 10 11 1
0 14 17 16 9 11 11 1
0 17 12 10 11 12 13 1
0 16 17 10 11 11 13 1
0 10 12 8 13 12 6 1
0 8 12 11 6 12 6 1
0 18 19 20 1 1 1 2
0 21 22 23 3 3 3 2
0 21 23 20 14 15 15 1
0 19 21 20 16 14 15 1
0 18 24 19 1 1 1 2
0 25 22 21 3 3 3 2
0 24 21 19 17 14 16 1
0 24 25 21 17 18 14 1
0 18 26 24 1 1 1 2
0 27 22 25 3 3 3 2
0 27 25 24 19 18 17 1
0 26 27 24 19 19 17 1
0 18 22 27 20 21 19 1
0 18 27 26 20 19 19 1
0 20 22 18 15 21 20 1
0 23 22 20 15 21 15 1
"Box07" 0 2
8
0 -28.161568 37.571430 80.738098 0.563330 0.365713 -1
0 -28.161568 13.071430 80.738098 0.563330 0.448987 -1
0 28.161568 37.571430 80.738098 0.563330 0.365713 -1
0 28.161568 13.071430 80.738098 0.563330 0.448987 -1
0 28.161568 37.571430 -94.261902 0.057635 0.365713 -1
0 28.161568 13.071430 -80.761902 0.096646 0.448987 -1
0 -28.161568 37.571430 -94.261902 0.057635 0.365713 -1
0 -28.161568 13.071430 -80.761902 0.096646 0.448987 -1
6
0.000000 0.000000 1.000000
1.000000 0.000000 0.000000
0.000000 -0.482605 -0.875838
-1.000000 0.000000 0.000000
0.000000 1.000000 0.000000
0.000000 -1.000000 0.000000
12
0 0 1 2 0 0 0 1
0 1 3 2 0 0 0 1
0 2 3 4 1 1 1 2
0 3 5 4 1 1 1 2
0 4 5 6 2 2 2 1
0 5 7 6 2 2 2 1
0 6 7 0 3 3 3 2
0 7 1 0 3 3 3 2
0 6 0 4 4 4 4 3
0 0 2 4 4 4 4 3
0 1 7 3 5 5 5 3
0 7 5 3 5 5 5 3
"Box08" 0 2
12
0 -45.809151 45.571430 96.238098 0.587807 0.361721 -1
0 -45.809151 25.071430 96.238098 0.587807 0.442578 -1
0 45.809151 45.571430 96.238098 0.587807 0.361721 -1
0 45.809151 25.071430 96.238098 0.587807 0.442578 -1
0 45.809151 45.571430 -113.761902 0.087207 0.361721 -1
0 45.809151 25.071430 -113.761902 0.087207 0.442578 -1
0 -45.809151 45.571430 -113.761902 0.087207 0.361721 -1
0 -45.809151 25.071430 -113.761902 0.087207 0.442578 -1
0 -45.809151 45.571430 -113.761902 0.086508 0.865764 -1
0 -45.809151 45.571430 96.238098 0.589055 0.865996 -1
0 45.809151 45.571430 -113.761902 0.086530 0.614044 -1
0 45.809151 45.571430 96.238098 0.589078 0.614276 -1
6
0.000000 0.000000 1.000000
1.000000 0.000000 0.000000
0.000000 0.000000 -1.000000
-1.000000 0.000000 0.000000
0.000000 1.000000 0.000000
0.000000 -1.000000 0.000000
12
0 0 1 2 0 0 0 1
0 1 3 2 0 0 0 1
0 2 3 4 1 1 1 2
0 3 5 4 1 1 1 2
0 4 5 6 2 2 2 1
0 5 7 6 2 2 2 1
0 6 7 0 3 3 3 2
0 7 1 0 3 3 3 2
0 8 9 10 4 4 4 3
0 9 11 10 4 4 4 3
0 1 7 3 5 5 5 3
0 7 5 3 5 5 5 3
"Box09" 0 2
12
0 -45.802994 72.971420 -34.861900 0.271838 0.292545 -1
0 -45.802994 45.471424 -34.861900 0.271838 0.358942 -1
0 45.802994 72.971420 -34.861900 0.271838 0.292545 -1
0 45.802994 45.471424 -34.861900 0.271838 0.358942 -1
0 45.802994 72.971420 -113.861900 0.080604 0.292545 -1
0 45.802994 45.471424 -113.861900 0.080604 0.358942 -1
0 -45.802994 72.971420 -113.861900 0.080604 0.292545 -1
0 -45.802994 45.471424 -113.861900 0.080604 0.358942 -1
0 -45.802994 72.971420 -113.861900 0.270971 0.616697 -1
0 -45.802994 72.971420 -34.861900 0.082028 0.617124 -1
0 45.802994 72.971420 -113.861900 0.272660 0.872937 -1
0 45.802994 72.971420 -34.861900 0.083717 0.873363 -1
6
0.000000 0.000000 1.000000
1.000000 0.000000 0.000000
0.000000 0.000000 -1.000000
-1.000000 0.000000 0.000000
0.000000 1.000000 0.000000
0.000000 -1.000000 0.000000
12
0 0 1 2 0 0 0 1
0 1 3 2 0 0 0 1
0 2 3 4 1 1 1 2
0 3 5 4 1 1 1 2
0 4 5 6 2 2 2 1
0 5 7 6 2 2 2 1
0 6 7 0 3 3 3 2
0 7 1 0 3 3 3 2
0 8 9 10 4 4 4 3
0 9 11 10 4 4 4 3
0 1 7 3 5 5 5 3
0 7 5 3 5 5 5 3
"Box10" 0 2
18
0 -45.866947 72.771423 -113.861900 0.079888 0.292807 -1
0 -45.866947 25.104767 -113.861900 0.079888 0.403095 -1
0 45.866947 72.771423 -113.861900 0.079888 0.292807 -1
0 45.866947 25.104767 -113.861900 0.079888 0.403095 -1
0 46.188900 68.227684 -123.528572 0.052301 0.303321 -1
0 46.188900 44.981850 -123.528572 0.052301 0.357105 -1
0 46.188900 68.227684 -123.528572 0.696750 0.309325 -1
0 46.188900 44.981850 -123.528572 0.696750 0.370077 -1
0 -46.188900 68.227684 -123.528572 0.962913 0.309325 -1
0 -46.188900 44.981850 -123.528572 0.962913 0.370077 -1
0 -46.188900 68.227684 -123.528572 0.052301 0.303321 -1
0 -46.188900 44.981850 -123.528572 0.052301 0.357105 -1
0 -46.188900 68.227684 -123.528572 0.036741 0.864932 -1
0 -45.866947 72.771423 -113.861900 0.078275 0.864398 -1
0 46.188900 68.227684 -123.528572 0.037890 0.618035 -1
0 45.866947 72.771423 -113.861900 0.079416 0.619223 -1
0 -45.866947 25.104767 -113.861900 0.961986 0.422026 -1
0 45.866947 25.104767 -113.861900 0.697677 0.422026 -1
7
0.000000 0.000000 1.000000
0.999446 0.000000 0.033287
0.000000 0.000000 -1.000000
-0.999446 0.000000 0.033287
0.000000 0.905009 -0.425392
0.000000 -0.437346 -0.899293
0.000000 -0.437346 -0.899293
12
0 0 1 2 0 0 0 1
0 1 3 2 0 0 0 1
0 2 3 4 1 1 1 2
0 3 5 4 1 1 1 2
0 6 7 8 2 2 2 1
0 7 9 8 2 2 2 1
0 10 11 0 3 3 3 2
0 11 1 0 3 3 3 2
0 12 13 14 4 4 4 3
0 13 15 14 4 4 4 3
0 16 9 17 5 5 5 3
0 9 7 17 5 6 5 3
"Duplicate19" 0 2
36
0 30.406511 66.903397 -141.500000 0.014821 0.307710 -1
0 30.406511 66.903397 -123.166656 0.042232 0.307710 -1
0 39.996235 55.463322 -141.500000 0.014821 0.335298 -1
0 39.996235 55.463322 -123.166656 0.042232 0.335298 -1
0 39.996235 40.024563 -123.166656 0.042232 0.372530 -1
0 39.996235 40.024563 -141.500000 0.014821 0.372530 -1
0 -40.662979 40.024570 -141.500000 0.014821 0.372530 -1
0 -40.662979 40.024570 -123.166656 0.042232 0.372530 -1
0 -40.662857 55.463314 -123.166656 0.042232 0.335299 -1
0 -40.662857 55.463314 -141.500000 0.014821 0.335299 -1
0 -31.073191 66.903381 -141.500000 0.014821 0.307710 -1
0 -31.073191 66.903381 -123.166656 0.042232 0.307710 -1
0 -16.788723 73.275391 -123.166656 0.042232 0.292344 -1
0 -16.788723 73.275391 -141.500000 0.014821 0.292344 -1
0 -16.788723 73.275391 -141.500000 0.013963 0.794552 -1
0 -16.788723 73.275391 -123.166656 0.043401 0.794457 -1
0 16.122051 73.275391 -141.500000 0.013783 0.687176 -1
0 16.122051 73.275391 -123.166656 0.043222 0.687082 -1
0 16.122051 73.275391 -141.500000 0.014821 0.292344 -1
0 16.122051 73.275391 -123.166656 0.042232 0.292344 -1
0 39.592941 55.497852 -141.500000 0.014821 0.335215 -1
0 30.099113 66.823532 -123.166656 0.042232 0.307903 -1
0 30.099113 66.823532 -141.500000 0.014821 0.307903 -1
0 39.592941 55.497852 -123.166656 0.042232 0.335215 -1
0 39.592941 40.213482 -123.166656 0.042232 0.372074 -1
0 39.592941 40.213482 -141.500000 0.014821 0.372074 -1
0 -40.259682 40.213490 -141.500000 0.014821 0.372074 -1
0 -40.259682 40.213490 -123.166656 0.042232 0.372074 -1
0 -40.259563 55.497845 -123.166656 0.042232 0.335216 -1
0 -40.259563 55.497845 -141.500000 0.014821 0.335216 -1
0 -30.765793 66.823517 -141.500000 0.014821 0.307903 -1
0 -30.765793 66.823517 -123.166656 0.042232 0.307903 -1
0 -16.624168 73.131790 -123.166656 0.042232 0.292691 -1
0 -16.624168 73.131790 -141.500000 0.014821 0.292691 -1
0 15.957497 73.131805 -141.500000 0.014821 0.292690 -1
0 15.957497 73.131805 -123.166656 0.042232 0.292690 -1
22
0.602296 0.798273 0.000000
0.602296 0.798273 0.000000
0.939777 0.341788 0.000000
0.707107 -0.707107 0.000000
-0.707110 -0.707104 0.000000
-0.707110 -0.707104 0.000000
-0.939776 0.341790 0.000000
-0.939776 0.341790 0.000000
-0.602297 0.798272 0.000000
-0.208259 0.978074 0.000000
0.208259 0.978074 0.000000
0.208259 0.978074 0.000000
-0.939777 -0.341788 0.000000
-0.602296 -0.798273 0.000000
-0.602296 -0.798273 0.000000
-0.707107 0.707107 0.000000
0.707110 0.707104 0.000000
0.939776 -0.341790 0.000000
0.602297 -0.798272 0.000000
0.208259 -0.978074 0.000000
-0.208258 -0.978074 0.000000
-0.208258 -0.978074 0.000000
32
0 0 1 2 0 1 2 1
0 1 3 2 1 2 2 1
0 2 3 4 2 2 3 1
0 2 4 5 2 3 3 1
0 5 4 6 3 3 4 1
0 4 7 6 3 5 4 1
0 6 7 8 4 5 6 1
0 6 8 9 4 6 7 1
0 9 8 10 7 6 8 1
0 8 11 10 6 8 8 1
0 10 11 12 8 8 9 1
0 10 12 13 8 9 9 1
0 14 15 16 9 9 10 1
0 15 17 16 9 11 10 1
0 18 19 1 10 11 1 1
0 18 1 0 10 1 0 1
0 20 21 22 12 13 14 1
0 20 23 21 12 12 13 1
0 24 23 20 15 12 12 1
0 25 24 20 15 15 12 1
0 26 24 25 16 15 15 1
0 26 27 24 16 16 15 1
0 28 27 26 17 16 16 1
0 29 28 26 17 17 16 1
0 30 28 29 18 17 17 1
0 30 31 28 18 18 17 1
0 32 31 30 19 18 18 1
0 33 32 30 19 19 18 1
0 34 32 33 20 19 19 1
0 34 35 32 20 21 19 1
0 21 35 34 13 21 20 1
0 22 21 34 14 13 20 1
"turret" 0 2
12
0 -18.941801 84.104767 47.138100 0.457529 0.261530 -1
0 -18.941801 48.604763 47.138100 0.457529 0.337456 -1
0 18.941790 84.104767 47.138100 0.457529 0.261530 -1
0 18.941790 48.604763 47.138100 0.457529 0.337456 -1
0 18.941790 84.104767 -4.361904 0.356486 0.261530 -1
0 18.941790 48.604763 -4.361904 0.356486 0.337456 -1
0 -18.941801 84.104767 -4.361904 0.356486 0.261530 -1
0 -18.941801 48.604763 -4.361904 0.356486 0.337456 -1
0 -18.941801 84.104767 -4.361904 0.335550 0.794297 -1
0 -18.941801 84.104767 47.138100 0.444608 0.794605 -1
0 18.941790 84.104767 -4.361904 0.335753 0.694477 -1
0 18.941790 84.104767 47.138100 0.444811 0.694786 -1
6
0.000000 0.000000 1.000000
1.000000 0.000000 0.000000
0.000000 0.000000 -1.000000
-1.000000 0.000000 0.000000
0.000000 1.000000 0.000000
0.000000 -1.000000 0.000000
12
0 0 1 2 0 0 0 1
0 1 3 2 0 0 0 1
0 2 3 4 1 1 1 2
0 3 5 4 1 1 1 2
0 4 5 6 2 2 2 1
0 5 7 6 2 2 2 1
0 6 7 0 3 3 3 2
0 7 1 0 3 3 3 2
0 8 9 10 4 4 4 3
0 9 11 10 4 4 4 3
0 1 7 3 5 5 5 3
0 7 5 3 5 5 5 3
"turret" 0 2
20
0 18.941790 72.854767 73.295433 0.502210 0.283934 -1
0 18.941790 57.181000 73.295563 0.502210 0.319664 -1
0 18.941790 66.354759 57.638100 0.471106 0.298751 -1
0 -18.941801 72.854752 73.295433 0.502210 0.283934 -1
0 -18.941801 66.354759 57.638100 0.471106 0.298751 -1
0 -18.941801 57.181000 73.295563 0.502210 0.319664 -1
0 18.941790 72.854767 73.295433 0.786236 0.626416 -1
0 -18.941801 72.854752 73.295433 0.873055 0.626416 -1
0 18.941790 57.181000 73.295563 0.786236 0.717039 -1
0 -18.941801 57.181000 73.295563 0.873055 0.717039 -1
0 18.941790 45.528526 65.867096 0.487453 0.346226 -1
0 -18.941801 45.528526 65.867096 0.487453 0.346226 -1
0 18.941790 45.528526 46.866207 0.449707 0.346226 -1
0 -18.941801 45.528526 46.866207 0.449707 0.346226 -1
0 18.941790 84.181000 46.866207 0.449707 0.258116 -1
0 -18.941801 84.181000 46.866207 0.449707 0.258116 -1
0 18.941790 84.181000 46.866207 0.447113 0.695572 -1
0 -18.941801 84.181000 46.866207 0.447470 0.797006 -1
0 18.941790 72.854767 73.295433 0.504306 0.694991 -1
0 -18.941801 72.854752 73.295433 0.504663 0.796426 -1
10
1.000000 0.000000 0.000000
-1.000000 0.000000 0.000000
-0.000000 0.716886 0.697190
-0.000000 0.358448 0.933550
-0.000000 -0.279972 0.960008
0.000000 -0.279972 0.960008
0.000000 -0.876800 0.480854
0.000000 -0.707107 -0.707107
-0.000000 0.834836 -0.550499
0.000000 0.834836 -0.550499
20
0 0 1 2 0 0 0 2
0 3 4 5 1 1 1 2
0 6 7 8 2 3 4 1
0 7 9 8 3 5 4 1
0 1 10 2 0 0 0 2
0 5 4 11 1 1 1 2
0 1 5 11 4 5 6 1
0 1 11 10 4 6 6 1
0 10 12 2 0 0 0 2
0 11 4 13 1 1 1 2
0 10 11 12 6 6 7 1
0 11 13 12 6 7 7 1
0 12 14 2 0 0 0 2
0 13 4 15 1 1 1 2
0 12 13 15 7 7 8 1
0 12 15 14 7 8 9 1
0 14 0 2 0 0 0 2
0 15 4 3 1 1 1 2
0 16 17 18 9 8 2 1
0 17 19 18 8 3 2 1
"turret" 0 2
14
0 23.000000 45.604763 22.138100 0.399350 0.358732 -1
0 11.500000 45.604763 42.056686 0.446260 0.358732 -1
0 0.000000 45.604763 22.138100 0.399350 0.358732 -1
0 23.000000 48.604763 22.138100 0.399350 0.345584 -1
0 0.000000 48.604763 22.138100 0.399350 0.345584 -1
0 11.500000 48.604763 42.056686 0.446260 0.345584 -1
0 -11.500000 45.604763 42.056686 0.446260 0.358732 -1
0 -11.500000 48.604763 42.056686 0.446260 0.345584 -1
0 -23.000000 45.604763 22.138100 0.399350 0.358732 -1
0 -23.000000 48.604763 22.138100 0.399350 0.345584 -1
0 -11.500000 45.604763 2.219515 0.352439 0.358732 -1
0 -11.500000 48.604763 2.219515 0.352439 0.345584 -1
0 11.500000 45.604763 2.219515 0.352439 0.358732 -1
0 11.500000 48.604763 2.219515 0.352439 0.345584 -1
8
0.000000 -1.000000 0.000000
0.000000 1.000000 0.000000
1.000000 0.000000 -0.000000
0.500000 0.000000 0.866025
-0.500000 0.000000 0.866025
-1.000000 0.000000 -0.000000
-0.500000 0.000000 -0.866025
0.500000 0.000000 -0.866025
24
0 0 1 2 0 0 0 2
0 3 4 5 1 1 1 2
0 0 3 1 2 2 3 1
0 3 5 1 2 3 3 1
0 1 6 2 0 0 0 2
0 5 4 7 1 1 1 2
0 1 5 7 3 3 4 1
0 1 7 6 3 4 4 1
0 6 8 2 0 0 0 2
0 7 4 9 1 1 1 2
0 6 7 8 4 4 5 1
0 7 9 8 4 5 5 1
0 8 10 2 0 0 0 2
0 9 4 11 1 1 1 2
0 8 9 11 5 5 6 1
0 8 11 10 5 6 6 1
0 10 12 2 0 0 0 2
0 11 4 13 1 1 1 2
0 10 11 12 6 6 7 1
0 11 13 12 6 7 7 1
0 12 0 2 0 0 0 2
0 13 4 3 1 1 1 2
0 12 13 3 7 7 2 1
0 12 3 0 7 2 2 1
"turret" 0 2
8
0 -18.941801 109.604767 33.820137 0.421441 0.204842 -1
0 -18.941801 84.104767 47.138100 0.443907 0.261262 -1
0 -14.980906 109.604767 33.820137 0.421441 0.204842 -1
0 -14.980906 84.104767 47.138100 0.443907 0.261262 -1
0 -14.980906 109.604767 8.956060 0.379498 0.204842 -1
0 -14.980906 84.104767 -4.361900 0.357033 0.261262 -1
0 -18.941801 109.604767 8.956060 0.379498 0.204842 -1
0 -18.941801 84.104767 -4.361904 0.357033 0.261262 -1
8
0.000000 0.462938 0.886391
1.000000 0.000000 0.000000
0.000000 0.462938 -0.886391
0.000000 0.462938 -0.886391
0.000001 0.462938 -0.886391
-1.000000 0.000000 0.000000
0.000000 1.000000 0.000000
0.000000 -1.000000 0.000000
12
0 0 1 2 0 0 0 1
0 1 3 2 0 0 0 1
0 2 3 4 1 1 1 2
0 3 5 4 1 1 1 2
0 4 5 6 2 3 3 1
0 5 7 6 3 4 3 1
0 6 7 0 5 5 5 2
0 7 1 0 5 5 5 2
0 6 0 4 6 6 6 3
0 0 2 4 6 6 6 3
0 1 7 3 7 7 7 3
0 7 5 3 7 7 7 3
"turret" 0 2
8
0 14.980906 109.604767 33.820137 0.421713 0.210779 -1
0 18.941790 84.104767 47.138100 0.444531 0.258951 -1
0 18.941790 109.604767 33.820137 0.421713 0.210779 -1
0 14.980906 84.104767 47.138100 0.444531 0.258951 -1
0 14.980906 109.604767 8.956060 0.379114 0.210779 -1
0 14.980906 84.104767 -4.361900 0.356296 0.258951 -1
0 18.941790 109.604767 8.956060 0.379114 0.210779 -1
0 18.941790 84.104767 -4.361904 0.356296 0.258951 -1
8
0.000000 0.462938 0.886391
-1.000000 0.000000 0.000000
-0.000000 0.462938 -0.886391
0.000000 0.462938 -0.886391
-0.000001 0.462938 -0.886391
1.000000 0.000000 0.000000
0.000000 1.000000 0.000000
0.000000 -1.000000 0.000000
12
0 0 1 2 0 0 0 1
0 0 3 1 0 0 0 1
0 4 3 0 1 1 1 2
0 4 5 3 1 1 1 2
0 6 5 4 2 2 3 1
0 6 7 5 2 4 2 1
0 2 7 6 5 5 5 2
0 2 1 7 5 5 5 2
0 4 2 6 6 6 6 3
0 4 0 2 6 6 6 3
0 3 7 1 7 7 7 3
0 3 5 7 7 7 7 3
"turret" 1 3
20
1 -17.142061 109.964211 33.027908 0.000000 0.000000 -1
1 -17.142061 80.227127 49.511436 0.000000 1.000000 -1
1 17.142057 109.964211 33.027908 1.000000 0.000000 -1
1 17.142057 80.227127 49.511436 1.000000 1.000000 -1
1 17.142057 109.964211 33.027908 0.000000 0.000000 -1
1 17.142057 80.227127 49.511436 0.000000 1.000000 -1
1 17.142057 108.994591 31.278664 1.000000 0.000000 -1
1 17.142057 79.257500 47.762207 1.000000 1.000000 -1
1 17.142057 108.994591 31.278664 0.000000 0.000000 -1
1 17.142057 79.257500 47.762207 0.000000 1.000000 -1
1 -17.142061 108.994591 31.278664 1.000000 0.000000 -1
1 -17.142061 79.257500 47.762207 1.000000 1.000000 -1
1 -17.142061 108.994591 31.278664 0.000000 0.000000 -1
1 -17.142061 79.257500 47.762207 0.000000 1.000000 -1
1 -17.142061 109.964211 33.027908 1.000000 0.000000 -1
1 -17.142061 80.227127 49.511436 1.000000 1.000000 -1
1 -17.142061 109.964211 33.027908 0.000000 1.000000 -1
1 17.142057 109.964211 33.027908 1.000000 1.000000 -1
1 -17.142061 80.227127 49.511436 0.000000 0.000000 -1
1 17.142057 80.227127 49.511436 1.000000 0.000000 -1
6
0.000000 0.484809 0.874620
1.000000 0.000000 0.000000
0.000000 -0.484810 -0.874620
-1.000000 0.000000 0.000000
0.000000 0.874620 -0.484809
0.000000 -0.874617 0.484815
12
1 0 1 2 0 0 0 1
1 1 3 2 0 0 0 1
1 4 5 6 1 1 1 2
1 5 7 6 1 1 1 2
1 8 9 10 2 2 2 1
1 9 11 10 2 2 2 1
1 12 13 14 3 3 3 2
1 13 15 14 3 3 3 2
1 12 16 6 4 4 4 3
1 16 17 6 4 4 4 3
1 18 13 19 5 5 5 3
1 13 7 19 5 5 5 3
"gun" 0 0
44
0 -23.228909 71.525307 -15.638083 0.000000 0.000000 -1
0 -22.496679 69.757545 -15.638083 0.000000 0.000000 -1
0 -24.996674 69.757538 -15.638083 0.000000 0.000000 -1
0 -23.697203 71.057014 68.361938 0.000000 0.000000 -1
0 -24.996674 69.757538 71.361938 0.000000 0.000000 -1
0 -23.158947 69.757538 68.361938 0.000000 0.000000 -1
0 -23.228909 71.525307 -15.638083 0.000000 1.000000 -1
0 -23.228909 71.525307 54.861931 0.000000 0.500000 -1
0 -22.496679 69.757545 54.861931 0.125000 0.500000 -1
0 -22.496679 69.757545 -15.638083 0.125000 1.000000 -1
0 -23.158947 69.757538 68.361938 0.125000 0.000000 -1
0 -23.228907 67.989777 -15.638083 0.000000 0.000000 -1
0 -23.697210 68.458076 68.361938 0.000000 0.000000 -1
0 -23.228907 67.989777 -15.638083 0.250000 1.000000 -1
0 -23.228907 67.989777 54.861931 0.250000 0.500000 -1
0 -23.697210 68.458076 68.361938 0.250000 0.000000 -1
0 -24.996679 67.257545 -15.638083 0.000000 0.000000 -1
0 -24.996675 67.919815 68.361938 0.000000 0.000000 -1
0 -24.996679 67.257545 54.861931 0.375000 0.500000 -1
0 -24.996679 67.257545 -15.638083 0.375000 1.000000 -1
0 -24.996675 67.919815 68.361938 0.375000 0.000000 -1
0 -26.764441 67.989769 -15.638083 0.000000 0.000000 -1
0 -26.296146 68.458069 68.361938 0.000000 0.000000 -1
0 -26.764441 67.989769 -15.638083 0.500000 1.000000 -1
0 -26.764441 67.989769 54.861931 0.500000 0.500000 -1
0 -26.296146 68.458069 68.361938 0.500000 0.000000 -1
0 -27.496670 69.757538 -15.638083 0.000000 0.000000 -1
0 -26.834402 69.757545 68.361938 0.000000 0.000000 -1
0 -27.496670 69.757538 54.861931 0.625000 0.500000 -1
0 -27.496670 69.757538 -15.638083 0.625000 1.000000 -1
0 -26.834402 69.757545 68.361938 0.625000 0.000000 -1
0 -26.764442 71.525307 -15.638083 0.000000 0.000000 -1
0 -26.296143 71.057007 68.361938 0.000000 0.000000 -1
0 -26.764442 71.525307 -15.638083 0.750000 1.000000 -1
0 -26.764442 71.525307 54.861931 0.750000 0.500000 -1
0 -26.296143 71.057007 68.361938 0.750000 0.000000 -1
0 -24.996670 72.257538 -15.638083 0.000000 0.000000 -1
0 -24.996675 71.595268 68.361938 0.000000 0.000000 -1
0 -24.996670 72.257538 54.861931 0.875000 0.500000 -1
0 -24.996670 72.257538 -15.638083 0.875000 1.000000 -1
0 -24.996675 71.595268 68.361938 0.875000 0.000000 -1
0 -23.228909 71.525307 -15.638083 1.000000 1.000000 -1
0 -23.228909 71.525307 54.861931 1.000000 0.500000 -1
0 -23.697203 71.057014 68.361938 1.000000 0.000000 -1
34
0.000000 0.000000 -1.000000
0.602968 0.602968 0.522360
-0.000000 -0.000001 1.000000
0.852726 -0.000004 0.522359
0.707107 0.707106 0.000000
0.706895 0.706894 0.024508
0.999700 -0.000000 0.024509
1.000000 0.000001 0.000000
0.706258 0.706257 0.048998
0.998799 -0.000005 0.048998
0.602968 -0.602970 0.522357
0.707107 -0.707106 0.000000
0.706895 -0.706894 0.024509
0.706257 -0.706258 0.048998
0.000003 -0.852726 0.522358
0.000001 -0.999700 0.024509
0.000001 -1.000000 0.000000
0.000003 -0.998799 0.048998
-0.602968 -0.602968 0.522359
-0.707106 -0.707107 0.000000
-0.706894 -0.706895 0.024509
-0.706257 -0.706258 0.048998
-0.852725 0.000003 0.522359
-0.999700 0.000000 0.024509
-1.000000 -0.000000 0.000000
-0.998799 0.000003 0.048998
-0.602968 0.602968 0.522359
-0.707107 0.707106 0.000000
-0.706895 0.706894 0.024509
-0.706258 0.706257 0.048998
-0.000003 0.852725 0.522360
0.000000 0.999700 0.024509
0.000001 1.000000 0.000000
-0.000003 0.998799 0.048998
48
0 0 1 2 0 0 0 2
0 3 4 5 1 2 3 2
0 6 7 8 4 5 6 1
0 6 8 9 4 6 7 1
0 7 3 8 5 8 6 1
0 3 10 8 8 9 6 1
0 1 11 2 0 0 0 2
0 5 4 12 3 2 10 2
0 9 8 13 7 6 11 1
0 8 14 13 6 12 11 1
0 8 10 15 6 9 13 1
0 8 15 14 6 13 12 1
0 11 16 2 0 0 0 2
0 12 4 17 10 2 14 2
0 13 14 18 11 12 15 1
0 13 18 19 11 15 16 1
0 14 15 18 12 13 15 1
0 15 20 18 13 17 15 1
0 16 21 2 0 0 0 2
0 17 4 22 14 2 18 2
0 19 18 23 16 15 19 1
0 18 24 23 15 20 19 1
0 18 20 25 15 17 21 1
0 18 25 24 15 21 20 1
0 21 26 2 0 0 0 2
0 22 4 27 18 2 22 2
0 23 24 28 19 20 23 1
0 23 28 29 19 23 24 1
0 24 25 28 20 21 23 1
0 25 30 28 21 25 23 1
0 26 31 2 0 0 0 2
0 27 4 32 22 2 26 2
0 29 28 33 24 23 27 1
0 28 34 33 23 28 27 1
0 28 30 35 23 25 29 1
0 28 35 34 23 29 28 1
0 31 36 2 0 0 0 2
0 32 4 37 26 2 30 2
0 33 34 38 27 28 31 1
0 33 38 39 27 31 32 1
0 34 35 38 28 29 31 1
0 35 40 38 29 33 31 1
0 36 0 2 0 0 0 2
0 37 4 3 30 2 1 2
0 39 38 41 32 31 4 1
0 38 42 41 31 5 4 1
0 38 40 43 31 33 8 1
0 38 43 42 31 8 5 1
"gun" 0 0
28
0 -30.834284 63.531506 40.138100 0.000000 0.000000 -1
0 -26.033493 68.332291 44.209900 0.000000 0.000000 -1
0 -26.033493 68.332291 58.066299 0.000000 0.000000 -1
0 -31.257782 63.955006 40.138100 0.000000 0.000000 -1
0 -26.456997 68.755783 58.066299 0.000000 0.000000 -1
0 -26.456997 68.755783 44.209900 0.000000 0.000000 -1
0 -19.166910 76.045876 40.138100 0.000000 0.000000 -1
0 -23.967691 71.245094 44.209900 0.000000 0.000000 -1
0 -23.967691 71.245094 58.066299 0.000000 0.000000 -1
0 -18.743420 75.622383 40.138100 0.000000 0.000000 -1
0 -23.544199 70.821602 58.066299 0.000000 0.000000 -1
0 -23.544199 70.821602 44.209900 0.000000 0.000000 -1
0 -31.159760 63.852276 -2.638098 0.000000 0.000000 -1
0 -26.371084 68.640953 4.861902 0.000000 1.000000 -1
0 -31.159760 63.852276 -16.638098 1.000000 0.000000 -1
0 -26.371084 68.640953 -16.638098 1.000000 1.000000 -1
0 -30.937023 63.629543 -16.638098 0.000000 0.000000 -1
0 -26.148352 68.418213 -16.638098 0.000000 1.000000 -1
0 -30.937023 63.629543 -2.638098 1.000000 0.000000 -1
0 -26.148352 68.418213 4.861902 1.000000 1.000000 -1
0 -18.862316 75.704262 -2.638098 0.000000 0.000000 -1
0 -23.650974 70.915588 4.861902 0.000000 1.000000 -1
0 -18.862316 75.704262 -16.638098 1.000000 0.000000 -1
0 -23.650974 70.915588 -16.638098 1.000000 1.000000 -1
0 -19.085041 75.927002 -16.638098 0.000000 0.000000 -1
0 -23.873711 71.138329 -16.638098 0.000000 1.000000 -1
0 -19.085041 75.927002 -2.638098 1.000000 0.000000 -1
0 -23.873711 71.138329 4.861902 1.000000 1.000000 -1
9
0.707106 -0.707107 0.000000
-0.707106 0.707107 0.000000
-0.707107 0.707107 0.000000
0.707107 -0.707107 0.000000
-0.707107 0.707107 0.000000
0.707107 -0.707107 0.000000
0.707108 -0.707106 0.000000
0.707108 -0.707106 0.000000
-0.707107 0.707106 0.000000
12
0 0 1 2 0 0 0 1
0 3 4 5 1 1 1 1
0 6 7 8 2 2 2 1
0 9 10 11 3 3 3 1
0 12 13 14 4 4 4 2
0 13 15 14 4 4 4 2
0 16 17 18 5 5 5 2
0 17 19 18 5 5 5 2
0 20 21 22 6 6 6 2
0 21 23 22 6 7 6 2
0 24 25 26 8 8 8 2
0 25 27 26 8 8 8 2
"gun" 0 0
28
0 -18.755331 63.955009 40.138100 0.000000 0.000000 -1
0 -23.556122 68.755798 44.209900 0.000000 0.000000 -1
0 -23.556122 68.755798 58.066299 0.000000 0.000000 -1
0 -19.178829 63.531509 40.138100 0.000000 0.000000 -1
0 -23.979610 68.332291 58.066299 0.000000 0.000000 -1
0 -23.979610 68.332291 44.209900 0.000000 0.000000 -1
0 -31.269711 75.622391 40.138100 0.000000 0.000000 -1
0 -26.468914 70.821602 44.209900 0.000000 0.000000 -1
0 -26.468914 70.821602 58.066299 0.000000 0.000000 -1
0 -30.846214 76.045876 40.138100 0.000000 0.000000 -1
0 -26.045427 71.245087 58.066299 0.000000 0.000000 -1
0 -26.045427 71.245087 44.209900 0.000000 0.000000 -1
0 -19.076101 63.629532 -2.638098 0.000000 0.000000 -1
0 -23.864780 68.418205 4.861902 0.000000 1.000000 -1
0 -19.076101 63.629532 -16.638098 1.000000 0.000000 -1
0 -23.864780 68.418205 -16.638098 1.000000 1.000000 -1
0 -18.853367 63.852276 -16.638098 0.000000 0.000000 -1
0 -23.642046 68.640945 -16.638098 0.000000 1.000000 -1
0 -18.853367 63.852276 -2.638098 1.000000 0.000000 -1
0 -23.642046 68.640945 4.861902 1.000000 1.000000 -1
0 -30.928083 75.926971 -2.638098 0.000000 0.000000 -1
0 -26.139418 71.138313 4.861902 0.000000 1.000000 -1
0 -30.928083 75.926971 -16.638098 1.000000 0.000000 -1
0 -26.139418 71.138313 -16.638098 1.000000 1.000000 -1
0 -31.150833 75.704247 -16.638098 0.000000 0.000000 -1
0 -26.362156 70.915581 -16.638098 0.000000 1.000000 -1
0 -31.150833 75.704247 -2.638098 1.000000 0.000000 -1
0 -26.362156 70.915581 4.861902 1.000000 1.000000 -1
9
0.707107 0.707107 0.000000
-0.707107 -0.707107 0.000000
-0.707106 -0.707107 0.000000
0.707107 0.707107 0.000000
-0.707106 -0.707107 0.000000
0.707106 0.707107 0.000000
0.707106 0.707107 0.000000
0.707106 0.707107 0.000000
-0.707106 -0.707108 0.000000
12
0 0 1 2 0 0 0 1
0 3 4 5 1 1 1 1
0 6 7 8 2 2 2 1
0 9 10 11 3 3 3 1
0 12 13 14 4 4 4 2
0 13 15 14 4 4 4 2
0 16 17 18 5 5 5 2
0 17 19 18 5 6 5 2
0 20 21 22 7 7 7 2
0 21 23 22 7 7 7 2
0 24 25 26 8 8 8 2
0 25 27 26 8 8 8 2
"gun" 0 0
100
0 -23.228909 95.025307 -15.638083 0.000000 0.000000 -1
0 -22.496679 93.257545 -15.638083 0.000000 0.000000 -1
0 -24.996674 93.257538 -15.638083 0.000000 0.000000 -1
0 -23.697203 94.557014 68.361938 0.000000 0.000000 -1
0 -24.996674 93.257538 71.361938 0.000000 0.000000 -1
0 -23.158947 93.257538 68.361938 0.000000 0.000000 -1
0 -23.228909 95.025307 -15.638083 0.000000 1.000000 -1
0 -23.228909 95.025307 54.861931 0.000000 0.500000 -1
0 -22.496679 93.257545 54.861931 0.125000 0.500000 -1
0 -22.496679 93.257545 -15.638083 0.125000 1.000000 -1
0 -23.158947 93.257538 68.361938 0.125000 0.000000 -1
0 -23.228907 91.489777 -15.638083 0.000000 0.000000 -1
0 -23.697210 91.958076 68.361938 0.000000 0.000000 -1
0 -23.228907 91.489777 -15.638083 0.250000 1.000000 -1
0 -23.228907 91.489777 54.861931 0.250000 0.500000 -1
0 -23.697210 91.958076 68.361938 0.250000 0.000000 -1
0 -24.996679 90.757545 -15.638083 0.000000 0.000000 -1
0 -24.996675 91.419815 68.361938 0.000000 0.000000 -1
0 -24.996679 90.757545 54.861931 0.375000 0.500000 -1
0 -24.996679 90.757545 -15.638083 0.375000 1.000000 -1
0 -24.996675 91.419815 68.361938 0.375000 0.000000 -1
0 -26.764441 91.489769 -15.638083 0.000000 0.000000 -1
0 -26.296146 91.958069 68.361938 0.000000 0.000000 -1
0 -26.764441 91.489769 -15.638083 0.500000 1.000000 -1
0 -26.764441 91.489769 54.861931 0.500000 0.500000 -1
0 -26.296146 91.958069 68.361938 0.500000 0.000000 -1
0 -27.496670 93.257538 -15.638083 0.000000 0.000000 -1
0 -26.834402 93.257545 68.361938 0.000000 0.000000 -1
0 -27.496670 93.257538 54.861931 0.625000 0.500000 -1
0 -27.496670 93.257538 -15.638083 0.625000 1.000000 -1
0 -26.834402 93.257545 68.361938 0.625000 0.000000 -1
0 -26.764442 95.025307 -15.638083 0.000000 0.000000 -1
0 -26.296143 94.557007 68.361938 0.000000 0.000000 -1
0 -26.764442 95.025307 -15.638083 0.750000 1.000000 -1
0 -26.764442 95.025307 54.861931 0.750000 0.500000 -1
0 -26.296143 94.557007 68.361938 0.750000 0.000000 -1
0 -24.996670 95.757538 -15.638083 0.000000 0.000000 -1
0 -24.996675 95.095268 68.361938 0.000000 0.000000 -1
0 -24.996670 95.757538 54.861931 0.875000 0.500000 -1
0 -24.996670 95.757538 -15.638083 0.875000 1.000000 -1
0 -24.996675 95.095268 68.361938 0.875000 0.000000 -1
0 -23.228909 95.025307 -15.638083 1.000000 1.000000 -1
0 -23.228909 95.025307 54.861931 1.000000 0.500000 -1
0 -23.697203 94.557014 68.361938 1.000000 0.000000 -1
0 -30.834284 87.031509 40.138100 0.000000 0.000000 -1
0 -26.033493 91.832291 44.209900 0.000000 0.000000 -1
0 -26.033493 91.832291 58.066299 0.000000 0.000000 -1
0 -31.257782 87.455002 40.138100 0.000000 0.000000 -1
0 -26.456997 92.255783 58.066299 0.000000 0.000000 -1
0 -26.456997 92.255783 44.209900 0.000000 0.000000 -1
0 -19.166910 99.545876 40.138100 0.000000 0.000000 -1
0 -23.967691 94.745094 44.209900 0.000000 0.000000 -1
0 -23.967691 94.745094 58.066299 0.000000 0.000000 -1
0 -18.743420 99.122383 40.138100 0.000000 0.000000 -1
0 -23.544199 94.321602 58.066299 0.000000 0.000000 -1
0 -23.544199 94.321602 44.209900 0.000000 0.000000 -1
0 -31.159760 87.352280 -2.638098 0.000000 0.000000 -1
0 -26.371084 92.140953 4.861902 0.000000 1.000000 -1
0 -31.159760 87.352280 -16.638098 1.000000 0.000000 -1
0 -26.371084 92.140953 -16.638098 1.000000 1.000000 -1
0 -30.937023 87.129547 -16.638098 0.000000 0.000000 -1
0 -26.148352 91.918213 -16.638098 0.000000 1.000000 -1
0 -30.937023 87.129547 -2.638098 1.000000 0.000000 -1
0 -26.148352 91.918213 4.861902 1.000000 1.000000 -1
0 -18.862316 99.204262 -2.638098 0.000000 0.000000 -1
0 -23.650974 94.415588 4.861902 0.000000 1.000000 -1
0 -18.862316 99.204262 -16.638098 1.000000 0.000000 -1
0 -23.650974 94.415588 -16.638098 1.000000 1.000000 -1
0 -19.085041 99.427002 -16.638098 0.000000 0.000000 -1
0 -23.873711 94.638329 -16.638098 0.000000 1.000000 -1
0 -19.085041 99.427002 -2.638098 1.000000 0.000000 -1
0 -23.873711 94.638329 4.861902 1.000000 1.000000 -1
0 -18.755331 87.455009 40.138100 0.000000 0.000000 -1
0 -23.556122 92.255798 44.209900 0.000000 0.000000 -1
0 -23.556122 92.255798 58.066299 0.000000 0.000000 -1
0 -19.178829 87.031509 40.138100 0.000000 0.000000 -1
0 -23.979610 91.832291 58.066299 0.000000 0.000000 -1
0 -23.979610 91.832291 44.209900 0.000000 0.000000 -1
0 -31.269711 99.122391 40.138100 0.000000 0.000000 -1
0 -26.468914 94.321602 44.209900 0.000000 0.000000 -1
0 -26.468914 94.321602 58.066299 0.000000 0.000000 -1
0 -30.846214 99.545876 40.138100 0.000000 0.000000 -1
0 -26.045427 94.745087 58.066299 0.000000 0.000000 -1
0 -26.045427 94.745087 44.209900 0.000000 0.000000 -1
0 -19.076101 87.129532 -2.638098 0.000000 0.000000 -1
0 -23.864780 91.918205 4.861902 0.000000 1.000000 -1
0 -19.076101 87.129532 -16.638098 1.000000 0.000000 -1
0 -23.864780 91.918205 -16.638098 1.000000 1.000000 -1
0 -18.853367 87.352280 -16.638098 0.000000 0.000000 -1
0 -23.642046 92.140945 -16.638098 0.000000 1.000000 -1
0 -18.853367 87.352280 -2.638098 1.000000 0.000000 -1
0 -23.642046 92.140945 4.861902 1.000000 1.000000 -1
0 -30.928083 99.426971 -2.638098 0.000000 0.000000 -1
0 -26.139418 94.638313 4.861902 0.000000 1.000000 -1
0 -30.928083 99.426971 -16.638098 1.000000 0.000000 -1
0 -26.139418 94.638313 -16.638098 1.000000 1.000000 -1
0 -31.150833 99.204247 -16.638098 0.000000 0.000000 -1
0 -26.362156 94.415581 -16.638098 0.000000 1.000000 -1
0 -31.150833 99.204247 -2.638098 1.000000 0.000000 -1
0 -26.362156 94.415581 4.861902 1.000000 1.000000 -1
53
0.000000 0.000000 -1.000000
0.602968 0.602968 0.522360
-0.000000 -0.000001 1.000000
0.852726 -0.000004 0.522359
0.707107 0.707106 0.000000
0.706895 0.706894 0.024508
0.999700 -0.000000 0.024509
1.000000 0.000001 0.000000
0.706258 0.706257 0.048998
0.998799 -0.000005 0.048998
0.602968 -0.602970 0.522357
0.707107 -0.707106 0.000000
0.706895 -0.706894 0.024509
0.706257 -0.706258 0.048998
0.000003 -0.852726 0.522358
0.000001 -0.999700 0.024509
0.000001 -1.000000 0.000000
0.000003 -0.998799 0.048998
-0.602968 -0.602968 0.522359
-0.707106 -0.707107 0.000000
-0.706894 -0.706895 0.024509
-0.706257 -0.706258 0.048998
-0.852725 0.000003 0.522359
-0.999700 0.000000 0.024509
-1.000000 -0.000000 0.000000
-0.998799 0.000003 0.048998
-0.602968 0.602968 0.522359
-0.707107 0.707106 0.000000
-0.706895 0.706894 0.024509
-0.706258 0.706257 0.048998
-0.000003 0.852725 0.522360
0.000000 0.999700 0.024509
0.000001 1.000000 0.000000
-0.000003 0.998799 0.048998
0.707106 -0.707107 0.000000
-0.707106 0.707107 0.000000
-0.707107 0.707107 0.000000
0.707107 -0.707107 0.000000
-0.707107 0.707107 0.000000
-0.707107 0.707107 0.000000
0.707106 -0.707107 0.000000
0.707108 -0.707106 0.000000
0.707108 -0.707106 0.000000
-0.707107 0.707106 0.000000
0.707107 0.707107 0.000000
-0.707107 -0.707107 0.000000
-0.707106 -0.707107 0.000000
0.707107 0.707107 0.000000
-0.707106 -0.707107 0.000000
0.707106 0.707108 0.000000
0.707106 0.707108 0.000000
0.707106 0.707107 0.000000
-0.707106 -0.707108 0.000000
72
0 0 1 2 0 0 0 2
0 3 4 5 1 2 3 2
0 6 7 8 4 5 6 1
0 6 8 9 4 6 7 1
0 7 3 8 5 8 6 1
0 3 10 8 8 9 6 1
0 1 11 2 0 0 0 2
0 5 4 12 3 2 10 2
0 9 8 13 7 6 11 1
0 8 14 13 6 12 11 1
0 8 10 15 6 9 13 1
0 8 15 14 6 13 12 1
0 11 16 2 0 0 0 2
0 12 4 17 10 2 14 2
0 13 14 18 11 12 15 1
0 13 18 19 11 15 16 1
0 14 15 18 12 13 15 1
0 15 20 18 13 17 15 1
0 16 21 2 0 0 0 2
0 17 4 22 14 2 18 2
0 19 18 23 16 15 19 1
0 18 24 23 15 20 19 1
0 18 20 25 15 17 21 1
0 18 25 24 15 21 20 1
0 21 26 2 0 0 0 2
0 22 4 27 18 2 22 2
0 23 24 28 19 20 23 1
0 23 28 29 19 23 24 1
0 24 25 28 20 21 23 1
0 25 30 28 21 25 23 1
0 26 31 2 0 0 0 2
0 27 4 32 22 2 26 2
0 29 28 33 24 23 27 1
0 28 34 33 23 28 27 1
0 28 30 35 23 25 29 1
0 28 35 34 23 29 28 1
0 31 36 2 0 0 0 2
0 32 4 37 26 2 30 2
0 33 34 38 27 28 31 1
0 33 38 39 27 31 32 1
0 34 35 38 28 29 31 1
0 35 40 38 29 33 31 1
0 36 0 2 0 0 0 2
0 37 4 3 30 2 1 2
0 39 38 41 32 31 4 1
0 38 42 41 31 5 4 1
0 38 40 43 31 33 8 1
0 38 43 42 31 8 5 1
0 44 45 46 34 34 34 1
0 47 48 49 35 35 35 1
0 50 51 52 36 36 36 1
0 53 54 55 37 37 37 1
0 56 57 58 38 38 38 2
0 57 59 58 38 39 38 2
0 60 61 62 40 40 40 2
0 61 63 62 40 40 40 2
0 64 65 66 41 41 41 2
0 65 67 66 41 42 41 2
0 68 69 70 43 43 43 2
0 69 71 70 43 43 43 2
0 72 73 74 44 44 44 1
0 75 76 77 45 45 45 1
0 78 79 80 46 46 46 1
0 81 82 83 47 47 47 1
0 84 85 86 48 48 48 2
0 85 87 86 48 48 48 2
0 88 89 90 49 50 50 2
0 89 91 90 50 50 50 2
0 92 93 94 51 51 51 2
0 93 95 94 51 51 51 2
0 96 97 98 52 52 52 2
0 97 99 98 52 52 52 2
"gun" 0 0
100
0 24.996674 93.257538 -15.638083 0.000000 0.000000 -1
0 22.496679 93.257545 -15.638083 0.000000 0.000000 -1
0 23.228909 95.025307 -15.638083 0.000000 0.000000 -1
0 23.158947 93.257538 68.361938 0.000000 0.000000 -1
0 24.996674 93.257538 71.361938 0.000000 0.000000 -1
0 23.697203 94.557014 68.361938 0.000000 0.000000 -1
0 22.496679 93.257545 54.861931 0.125000 0.500000 -1
0 23.228909 95.025307 54.861931 0.000000 0.500000 -1
0 23.228909 95.025307 -15.638083 0.000000 1.000000 -1
0 22.496679 93.257545 -15.638083 0.125000 1.000000 -1
0 23.158947 93.257538 68.361938 0.125000 0.000000 -1
0 23.228907 91.489777 -15.638083 0.000000 0.000000 -1
0 23.697210 91.958076 68.361938 0.000000 0.000000 -1
0 23.228907 91.489777 -15.638083 0.250000 1.000000 -1
0 23.228907 91.489777 54.861931 0.250000 0.500000 -1
0 23.697210 91.958076 68.361938 0.250000 0.000000 -1
0 24.996679 90.757545 -15.638083 0.000000 0.000000 -1
0 24.996675 91.419815 68.361938 0.000000 0.000000 -1
0 24.996679 90.757545 54.861931 0.375000 0.500000 -1
0 24.996679 90.757545 -15.638083 0.375000 1.000000 -1
0 24.996675 91.419815 68.361938 0.375000 0.000000 -1
0 26.764441 91.489769 -15.638083 0.000000 0.000000 -1
0 26.296146 91.958069 68.361938 0.000000 0.000000 -1
0 26.764441 91.489769 -15.638083 0.500000 1.000000 -1
0 26.764441 91.489769 54.861931 0.500000 0.500000 -1
0 26.296146 91.958069 68.361938 0.500000 0.000000 -1
0 27.496670 93.257538 -15.638083 0.000000 0.000000 -1
0 26.834402 93.257545 68.361938 0.000000 0.000000 -1
0 27.496670 93.257538 54.861931 0.625000 0.500000 -1
0 27.496670 93.257538 -15.638083 0.625000 1.000000 -1
0 26.834402 93.257545 68.361938 0.625000 0.000000 -1
0 26.764442 95.025307 -15.638083 0.000000 0.000000 -1
0 26.296143 94.557007 68.361938 0.000000 0.000000 -1
0 26.764442 95.025307 -15.638083 0.750000 1.000000 -1
0 26.764442 95.025307 54.861931 0.750000 0.500000 -1
0 26.296143 94.557007 68.361938 0.750000 0.000000 -1
0 24.996670 95.757538 -15.638083 0.000000 0.000000 -1
0 24.996675 95.095268 68.361938 0.000000 0.000000 -1
0 24.996670 95.757538 54.861931 0.875000 0.500000 -1
0 24.996670 95.757538 -15.638083 0.875000 1.000000 -1
0 24.996675 95.095268 68.361938 0.875000 0.000000 -1
0 23.228909 95.025307 -15.638083 1.000000 1.000000 -1
0 23.228909 95.025307 54.861931 1.000000 0.500000 -1
0 23.697203 94.557014 68.361938 1.000000 0.000000 -1
0 26.033493 91.832291 58.066299 0.000000 0.000000 -1
0 26.033493 91.832291 44.209900 0.000000 0.000000 -1
0 30.834284 87.031509 40.138100 0.000000 0.000000 -1
0 26.456997 92.255783 44.209900 0.000000 0.000000 -1
0 26.456997 92.255783 58.066299 0.000000 0.000000 -1
0 31.257782 87.455002 40.138100 0.000000 0.000000 -1
0 23.967691 94.745094 58.066299 0.000000 0.000000 -1
0 23.967691 94.745094 44.209900 0.000000 0.000000 -1
0 19.166910 99.545876 40.138100 0.000000 0.000000 -1
0 23.544199 94.321602 44.209900 0.000000 0.000000 -1
0 23.544199 94.321602 58.066299 0.000000 0.000000 -1
0 18.743420 99.122383 40.138100 0.000000 0.000000 -1
0 31.159760 87.352280 -16.638098 1.000000 0.000000 -1
0 26.371084 92.140953 4.861902 0.000000 1.000000 -1
0 31.159760 87.352280 -2.638098 0.000000 0.000000 -1
0 26.371084 92.140953 -16.638098 1.000000 1.000000 -1
0 30.937023 87.129547 -2.638098 1.000000 0.000000 -1
0 26.148352 91.918213 -16.638098 0.000000 1.000000 -1
0 30.937023 87.129547 -16.638098 0.000000 0.000000 -1
0 26.148352 91.918213 4.861902 1.000000 1.000000 -1
0 18.862316 99.204262 -16.638098 1.000000 0.000000 -1
0 23.650974 94.415588 4.861902 0.000000 1.000000 -1
0 18.862316 99.204262 -2.638098 0.000000 0.000000 -1
0 23.650974 94.415588 -16.638098 1.000000 1.000000 -1
0 19.085041 99.427002 -2.638098 1.000000 0.000000 -1
0 23.873711 94.638329 -16.638098 0.000000 1.000000 -1
0 19.085041 99.427002 -16.638098 0.000000 0.000000 -1
0 23.873711 94.638329 4.861902 1.000000 1.000000 -1
0 23.556122 92.255798 58.066299 0.000000 0.000000 -1
0 23.556122 92.255798 44.209900 0.000000 0.000000 -1
0 18.755331 87.455009 40.138100 0.000000 0.000000 -1
0 23.979610 91.832291 44.209900 0.000000 0.000000 -1
0 23.979610 91.832291 58.066299 0.000000 0.000000 -1
0 19.178829 87.031509 40.138100 0.000000 0.000000 -1
0 26.468914 94.321602 58.066299 0.000000 0.000000 -1
0 26.468914 94.321602 44.209900 0.000000 0.000000 -1
0 31.269711 99.122391 40.138100 0.000000 0.000000 -1
0 26.045427 94.745087 44.209900 0.000000 0.000000 -1
0 26.045427 94.745087 58.066299 0.000000 0.000000 -1
0 30.846214 99.545876 40.138100 0.000000 0.000000 -1
0 19.076101 87.129532 -16.638098 1.000000 0.000000 -1
0 23.864780 91.918205 4.861902 0.000000 1.000000 -1
0 19.076101 87.129532 -2.638098 0.000000 0.000000 -1
0 23.864780 91.918205 -16.638098 1.000000 1.000000 -1
0 18.853367 87.352280 -2.638098 1.000000 0.000000 -1
0 23.642046 92.140945 -16.638098 0.000000 1.000000 -1
0 18.853367 87.352280 -16.638098 0.000000 0.000000 -1
0 23.642046 92.140945 4.861902 1.000000 1.000000 -1
0 30.928083 99.426971 -16.638098 1.000000 0.000000 -1
0 26.139418 94.638313 4.861902 0.000000 1.000000 -1
0 30.928083 99.426971 -2.638098 0.000000 0.000000 -1
0 26.139418 94.638313 -16.638098 1.000000 1.000000 -1
0 31.150833 99.204247 -2.638098 1.000000 0.000000 -1
0 26.362156 94.415581 -16.638098 0.000000 1.000000 -1
0 31.150833 99.204247 -16.638098 0.000000 0.000000 -1
0 26.362156 94.415581 4.861902 1.000000 1.000000 -1
53
0.000000 0.000000 -1.000000
-0.852726 -0.000004 0.522359
0.000000 -0.000001 1.000000
-0.602968 0.602968 0.522360
-0.999700 -0.000000 0.024509
-0.706895 0.706894 0.024508
-0.707107 0.707106 0.000000
-1.000000 0.000001 0.000000
-0.706258 0.706257 0.048998
-0.998799 -0.000005 0.048998
-0.602968 -0.602970 0.522357
-0.707107 -0.707106 0.000000
-0.706895 -0.706894 0.024509
-0.706257 -0.706258 0.048998
-0.000003 -0.852726 0.522358
-0.000001 -0.999700 0.024509
-0.000001 -1.000000 0.000000
-0.000003 -0.998799 0.048998
0.602968 -0.602968 0.522359
0.707106 -0.707107 0.000000
0.706894 -0.706895 0.024509
0.706257 -0.706258 0.048998
0.852725 0.000003 0.522359
0.999700 0.000000 0.024509
1.000000 -0.000000 0.000000
0.998799 0.000003 0.048998
0.602968 0.602968 0.522359
0.707107 0.707106 0.000000
0.706895 0.706894 0.024509
0.706258 0.706257 0.048998
0.000003 0.852725 0.522360
-0.000000 0.999700 0.024509
-0.000001 1.000000 0.000000
0.000003 0.998799 0.048998
-0.707106 -0.707107 0.000000
0.707106 0.707107 0.000000
0.707107 0.707107 0.000000
-0.707107 -0.707107 0.000000
0.707107 0.707107 0.000000
0.707107 0.707107 0.000000
-0.707106 -0.707107 0.000000
-0.707108 -0.707106 0.000000
-0.707108 -0.707106 0.000000
0.707107 0.707106 0.000000
-0.707107 0.707107 0.000000
0.707107 -0.707107 0.000000
0.707106 -0.707107 0.000000
-0.707107 0.707107 0.000000
0.707106 -0.707107 0.000000
-0.707106 0.707108 0.000000
-0.707106 0.707108 0.000000
-0.707106 0.707107 0.000000
0.707106 -0.707108 0.000000
72
0 0 1 2 0 0 0 2
0 3 4 5 1 2 3 2
0 6 7 8 4 5 6 1
0 9 6 8 7 4 6 1
0 6 5 7 4 8 5 1
0 6 10 5 4 9 8 1
0 0 11 1 0 0 0 2
0 12 4 3 10 2 1 2
0 13 6 9 11 4 7 1
0 13 14 6 11 12 4 1
0 15 10 6 13 9 4 1
0 14 15 6 12 13 4 1
0 0 16 11 0 0 0 2
0 17 4 12 14 2 10 2
0 18 14 13 15 12 11 1
0 19 18 13 16 15 11 1
0 18 15 14 15 13 12 1
0 18 20 15 15 17 13 1
0 0 21 16 0 0 0 2
0 22 4 17 18 2 14 2
0 23 18 19 19 15 16 1
0 23 24 18 19 20 15 1
0 25 20 18 21 17 15 1
0 24 25 18 20 21 15 1
0 0 26 21 0 0 0 2
0 27 4 22 22 2 18 2
0 28 24 23 23 20 19 1
0 29 28 23 24 23 19 1
0 28 25 24 23 21 20 1
0 28 30 25 23 25 21 1
0 0 31 26 0 0 0 2
0 32 4 27 26 2 22 2
0 33 28 29 27 23 24 1
0 33 34 28 27 28 23 1
0 35 30 28 29 25 23 1
0 34 35 28 28 29 23 1
0 0 36 31 0 0 0 2
0 37 4 32 30 2 26 2
0 38 34 33 31 28 27 1
0 39 38 33 32 31 27 1
0 38 35 34 31 29 28 1
0 38 40 35 31 33 29 1
0 0 2 36 0 0 0 2
0 5 4 37 3 2 30 2
0 41 38 39 6 31 32 1
0 41 42 38 6 5 31 1
0 43 40 38 8 33 31 1
0 42 43 38 5 8 31 1
0 44 45 46 34 34 34 1
0 47 48 49 35 35 35 1
0 50 51 52 36 36 36 1
0 53 54 55 37 37 37 1
0 56 57 58 38 38 38 2
0 56 59 57 38 39 38 2
0 60 61 62 40 40 40 2
0 60 63 61 40 40 40 2
0 64 65 66 41 41 41 2
0 64 67 65 41 42 41 2
0 68 69 70 43 43 43 2
0 68 71 69 43 43 43 2
0 72 73 74 44 44 44 1
0 75 76 77 45 45 45 1
0 78 79 80 46 46 46 1
0 81 82 83 47 47 47 1
0 84 85 86 48 48 48 2
0 84 87 85 48 48 48 2
0 88 89 90 49 49 50 2
0 88 91 89 49 49 49 2
0 92 93 94 51 51 51 2
0 92 95 93 51 51 51 2
0 96 97 98 52 52 52 2
0 96 99 97 52 52 52 2
"gun" 0 0
100
0 24.996674 69.757538 -15.638083 0.000000 0.000000 -1
0 22.496679 69.757545 -15.638083 0.000000 0.000000 -1
0 23.228909 71.525307 -15.638083 0.000000 0.000000 -1
0 23.158947 69.757538 68.361938 0.000000 0.000000 -1
0 24.996674 69.757538 71.361938 0.000000 0.000000 -1
0 23.697203 71.057014 68.361938 0.000000 0.000000 -1
0 22.496679 69.757545 54.861931 0.125000 0.500000 -1
0 23.228909 71.525307 54.861931 0.000000 0.500000 -1
0 23.228909 71.525307 -15.638083 0.000000 1.000000 -1
0 22.496679 69.757545 -15.638083 0.125000 1.000000 -1
0 23.158947 69.757538 68.361938 0.125000 0.000000 -1
0 23.228907 67.989777 -15.638083 0.000000 0.000000 -1
0 23.697210 68.458076 68.361938 0.000000 0.000000 -1
0 23.228907 67.989777 -15.638083 0.250000 1.000000 -1
0 23.228907 67.989777 54.861931 0.250000 0.500000 -1
0 23.697210 68.458076 68.361938 0.250000 0.000000 -1
0 24.996679 67.257545 -15.638083 0.000000 0.000000 -1
0 24.996675 67.919815 68.361938 0.000000 0.000000 -1
0 24.996679 67.257545 54.861931 0.375000 0.500000 -1
0 24.996679 67.257545 -15.638083 0.375000 1.000000 -1
0 24.996675 67.919815 68.361938 0.375000 0.000000 -1
0 26.764441 67.989769 -15.638083 0.000000 0.000000 -1
0 26.296146 68.458069 68.361938 0.000000 0.000000 -1
0 26.764441 67.989769 -15.638083 0.500000 1.000000 -1
0 26.764441 67.989769 54.861931 0.500000 0.500000 -1
0 26.296146 68.458069 68.361938 0.500000 0.000000 -1
0 27.496670 69.757538 -15.638083 0.000000 0.000000 -1
0 26.834402 69.757545 68.361938 0.000000 0.000000 -1
0 27.496670 69.757538 54.861931 0.625000 0.500000 -1
0 27.496670 69.757538 -15.638083 0.625000 1.000000 -1
0 26.834402 69.757545 68.361938 0.625000 0.000000 -1
0 26.764442 71.525307 -15.638083 0.000000 0.000000 -1
0 26.296143 71.057007 68.361938 0.000000 0.000000 -1
0 26.764442 71.525307 -15.638083 0.750000 1.000000 -1
0 26.764442 71.525307 54.861931 0.750000 0.500000 -1
0 26.296143 71.057007 68.361938 0.750000 0.000000 -1
0 24.996670 72.257538 -15.638083 0.000000 0.000000 -1
0 24.996675 71.595268 68.361938 0.000000 0.000000 -1
0 24.996670 72.257538 54.861931 0.875000 0.500000 -1
0 24.996670 72.257538 -15.638083 0.875000 1.000000 -1
0 24.996675 71.595268 68.361938 0.875000 0.000000 -1
0 23.228909 71.525307 -15.638083 1.000000 1.000000 -1
0 23.228909 71.525307 54.861931 1.000000 0.500000 -1
0 23.697203 71.057014 68.361938 1.000000 0.000000 -1
0 26.033493 68.332291 58.066299 0.000000 0.000000 -1
0 26.033493 68.332291 44.209900 0.000000 0.000000 -1
0 30.834284 63.531506 40.138100 0.000000 0.000000 -1
0 26.456997 68.755783 44.209900 0.000000 0.000000 -1
0 26.456997 68.755783 58.066299 0.000000 0.000000 -1
0 31.257782 63.955006 40.138100 0.000000 0.000000 -1
0 23.967691 71.245094 58.066299 0.000000 0.000000 -1
0 23.967691 71.245094 44.209900 0.000000 0.000000 -1
0 19.166910 76.045876 40.138100 0.000000 0.000000 -1
0 23.544199 70.821602 44.209900 0.000000 0.000000 -1
0 23.544199 70.821602 58.066299 0.000000 0.000000 -1
0 18.743420 75.622383 40.138100 0.000000 0.000000 -1
0 31.159760 63.852276 -16.638098 1.000000 0.000000 -1
0 26.371084 68.640953 4.861902 0.000000 1.000000 -1
0 31.159760 63.852276 -2.638098 0.000000 0.000000 -1
0 26.371084 68.640953 -16.638098 1.000000 1.000000 -1
0 30.937023 63.629543 -2.638098 1.000000 0.000000 -1
0 26.148352 68.418213 -16.638098 0.000000 1.000000 -1
0 30.937023 63.629543 -16.638098 0.000000 0.000000 -1
0 26.148352 68.418213 4.861902 1.000000 1.000000 -1
0 18.862316 75.704262 -16.638098 1.000000 0.000000 -1
0 23.650974 70.915588 4.861902 0.000000 1.000000 -1
0 18.862316 75.704262 -2.638098 0.000000 0.000000 -1
0 23.650974 70.915588 -16.638098 1.000000 1.000000 -1
0 19.085041 75.927002 -2.638098 1.000000 0.000000 -1
0 23.873711 71.138329 -16.638098 0.000000 1.000000 -1
0 19.085041 75.927002 -16.638098 0.000000 0.000000 -1
0 23.873711 71.138329 4.861902 1.000000 1.000000 -1
0 23.556122 68.755798 58.066299 0.000000 0.000000 -1
0 23.556122 68.755798 44.209900 0.000000 0.000000 -1
0 18.755331 63.955009 40.138100 0.000000 0.000000 -1
0 23.979610 68.332291 44.209900 0.000000 0.000000 -1
0 23.979610 68.332291 58.066299 0.000000 0.000000 -1
0 19.178829 63.531509 40.138100 0.000000 0.000000 -1
0 26.468914 70.821602 58.066299 0.000000 0.000000 -1
0 26.468914 70.821602 44.209900 0.000000 0.000000 -1
0 31.269711 75.622391 40.138100 0.000000 0.000000 -1
0 26.045427 71.245087 44.209900 0.000000 0.000000 -1
0 26.045427 71.245087 58.066299 0.000000 0.000000 -1
0 30.846214 76.045876 40.138100 0.000000 0.000000 -1
0 19.076101 63.629532 -16.638098 1.000000 0.000000 -1
0 23.864780 68.418205 4.861902 0.000000 1.000000 -1
0 19.076101 63.629532 -2.638098 0.000000 0.000000 -1
0 23.864780 68.418205 -16.638098 1.000000 1.000000 -1
0 18.853367 63.852276 -2.638098 1.000000 0.000000 -1
0 23.642046 68.640945 -16.638098 0.000000 1.000000 -1
0 18.853367 63.852276 -16.638098 0.000000 0.000000 -1
0 23.642046 68.640945 4.861902 1.000000 1.000000 -1
0 30.928083 75.926971 -16.638098 1.000000 0.000000 -1
0 26.139418 71.138313 4.861902 0.000000 1.000000 -1
0 30.928083 75.926971 -2.638098 0.000000 0.000000 -1
0 26.139418 71.138313 -16.638098 1.000000 1.000000 -1
0 31.150833 75.704247 -2.638098 1.000000 0.000000 -1
0 26.362156 70.915581 -16.638098 0.000000 1.000000 -1
0 31.150833 75.704247 -16.638098 0.000000 0.000000 -1
0 26.362156 70.915581 4.861902 1.000000 1.000000 -1
52
0.000000 0.000000 -1.000000
-0.852726 -0.000004 0.522359
0.000000 -0.000001 1.000000
-0.602968 0.602968 0.522360
-0.999700 -0.000000 0.024509
-0.706895 0.706894 0.024508
-0.707107 0.707106 0.000000
-1.000000 0.000001 0.000000
-0.706258 0.706257 0.048998
-0.998799 -0.000005 0.048998
-0.602968 -0.602970 0.522357
-0.707107 -0.707106 0.000000
-0.706895 -0.706894 0.024509
-0.706257 -0.706258 0.048998
-0.000003 -0.852726 0.522358
-0.000001 -0.999700 0.024509
-0.000001 -1.000000 0.000000
-0.000003 -0.998799 0.048998
0.602968 -0.602968 0.522359
0.707106 -0.707107 0.000000
0.706894 -0.706895 0.024509
0.706257 -0.706258 0.048998
0.852725 0.000003 0.522359
0.999700 0.000000 0.024509
1.000000 -0.000000 0.000000
0.998799 0.000003 0.048998
0.602968 0.602968 0.522359
0.707107 0.707106 0.000000
0.706895 0.706894 0.024509
0.706258 0.706257 0.048998
0.000003 0.852725 0.522360
-0.000000 0.999700 0.024509
-0.000001 1.000000 0.000000
0.000003 0.998799 0.048998
-0.707106 -0.707107 0.000000
0.707106 0.707107 0.000000
0.707107 0.707107 0.000000
-0.707107 -0.707107 0.000000
0.707107 0.707107 0.000000
-0.707107 -0.707107 0.000000
-0.707108 -0.707106 0.000000
-0.707108 -0.707106 0.000000
0.707107 0.707106 0.000000
-0.707107 0.707107 0.000000
0.707107 -0.707107 0.000000
0.707106 -0.707107 0.000000
-0.707107 0.707107 0.000000
0.707106 -0.707107 0.000000
-0.707106 0.707107 0.000000
-0.707106 0.707107 0.000000
-0.707106 0.707107 0.000000
0.707106 -0.707108 0.000000
72
0 0 1 2 0 0 0 2
0 3 4 5 1 2 3 2
0 6 7 8 4 5 6 1
0 9 6 8 7 4 6 1
0 6 5 7 4 8 5 1
0 6 10 5 4 9 8 1
0 0 11 1 0 0 0 2
0 12 4 3 10 2 1 2
0 13 6 9 11 4 7 1
0 13 14 6 11 12 4 1
0 15 10 6 13 9 4 1
0 14 15 6 12 13 4 1
0 0 16 11 0 0 0 2
0 17 4 12 14 2 10 2
0 18 14 13 15 12 11 1
0 19 18 13 16 15 11 1
0 18 15 14 15 13 12 1
0 18 20 15 15 17 13 1
0 0 21 16 0 0 0 2
0 22 4 17 18 2 14 2
0 23 18 19 19 15 16 1
0 23 24 18 19 20 15 1
0 25 20 18 21 17 15 1
0 24 25 18 20 21 15 1
0 0 26 21 0 0 0 2
0 27 4 22 22 2 18 2
0 28 24 23 23 20 19 1
0 29 28 23 24 23 19 1
0 28 25 24 23 21 20 1
0 28 30 25 23 25 21 1
0 0 31 26 0 0 0 2
0 32 4 27 26 2 22 2
0 33 28 29 27 23 24 1
0 33 34 28 27 28 23 1
0 35 30 28 29 25 23 1
0 34 35 28 28 29 23 1
0 0 36 31 0 0 0 2
0 37 4 32 30 2 26 2
0 38 34 33 31 28 27 1
0 39 38 33 32 31 27 1
0 38 35 34 31 29 28 1
0 38 40 35 31 33 29 1
0 0 2 36 0 0 0 2
0 5 4 37 3 2 30 2
0 41 38 39 6 31 32 1
0 41 42 38 6 5 31 1
0 43 40 38 8 33 31 1
0 42 43 38 5 8 31 1
0 44 45 46 34 34 34 1
0 47 48 49 35 35 35 1
0 50 51 52 36 36 36 1
0 53 54 55 37 37 37 1
0 56 57 58 38 38 38 2
0 56 59 57 38 38 38 2
0 60 61 62 39 39 39 2
0 60 63 61 39 39 39 2
0 64 65 66 40 40 40 2
0 64 67 65 40 41 40 2
0 68 69 70 42 42 42 2
0 68 71 69 42 42 42 2
0 72 73 74 43 43 43 1
0 75 76 77 44 44 44 1
0 78 79 80 45 45 45 1
0 81 82 83 46 46 46 1
0 84 85 86 47 47 47 2
0 84 87 85 47 47 47 2
0 88 89 90 48 48 48 2
0 88 91 89 48 49 48 2
0 92 93 94 50 50 50 2
0 92 95 93 50 50 50 2
0 96 97 98 51 51 51 2
0 96 99 97 51 51 51 2
"gun" 0 2
17
0 -29.204548 88.189301 20.611900 0.397669 0.243339 -1
0 -31.435318 80.854767 20.611900 0.397669 0.256951 -1
0 -29.204559 86.041061 25.798193 0.410090 0.247326 -1
0 -17.704552 93.104767 20.611900 0.397669 0.234216 -1
0 -17.704557 89.516830 29.273956 0.418414 0.240875 -1
0 -29.204544 80.854767 27.946424 0.415235 0.256951 -1
0 -17.704556 80.854767 32.861900 0.427008 0.256951 -1
0 -29.204556 75.668472 25.798193 0.410090 0.266577 -1
0 -17.704552 72.192703 29.273956 0.418414 0.273028 -1
0 -29.204552 73.520233 20.611900 0.397669 0.270564 -1
0 -17.704552 68.604767 20.611900 0.397669 0.279687 -1
0 -29.204556 75.668472 15.425608 0.385247 0.266577 -1
0 -17.704552 72.192703 11.949842 0.376922 0.273028 -1
0 -29.204544 80.854767 13.277373 0.380102 0.256951 -1
0 -17.704556 80.854767 8.361900 0.368330 0.256951 -1
0 -29.204559 86.041061 15.425608 0.385247 0.247326 -1
0 -17.704557 89.516830 11.949842 0.376922 0.240875 -1
25
-0.956728 0.290985 0.000000
-1.000000 -0.000000 0.000000
-0.956728 0.205756 0.205757
-0.393034 0.919524 0.000000
-0.393034 0.919524 0.000000
-0.393034 0.650201 0.650202
-0.393034 0.650201 0.650202
-0.956727 -0.000000 0.290986
-0.393034 -0.000000 0.919524
-0.393035 -0.000000 0.919524
-0.956728 -0.205756 0.205758
-0.393034 -0.650201 0.650202
-0.393034 -0.650201 0.650202
-0.956728 -0.290985 0.000000
-0.393034 -0.919524 0.000000
-0.393034 -0.919524 0.000000
-0.956728 -0.205756 -0.205758
-0.393034 -0.650201 -0.650202
-0.393034 -0.650201 -0.650202
-0.956727 -0.000000 -0.290986
-0.393034 -0.000000 -0.919524
-0.393035 -0.000000 -0.919524
-0.956728 0.205756 -0.205757
-0.393034 0.650201 -0.650202
-0.393035 0.650201 -0.650202
24
0 0 1 2 0 1 2 2
0 3 0 4 3 4 5 1
0 0 2 4 4 6 5 1
0 2 1 5 2 1 7 2
0 4 2 5 5 6 8 1
0 4 5 6 5 8 9 1
0 5 1 7 7 1 10 2
0 6 5 8 9 8 11 1
0 5 7 8 8 12 11 1
0 7 1 9 10 1 13 2
0 8 7 9 11 12 14 1
0 8 9 10 11 14 15 1
0 9 1 11 13 1 16 2
0 10 9 12 15 14 17 1
0 9 11 12 14 18 17 1
0 11 1 13 16 1 19 2
0 12 11 13 17 18 20 1
0 12 13 14 17 20 21 1
0 13 1 15 19 1 22 2
0 14 13 16 21 20 23 1
0 13 15 16 20 24 23 1
0 15 1 0 22 1 0 2
0 16 15 0 23 24 4 1
0 16 0 3 23 4 3 1
"gun" 0 2
17
0 29.204559 86.041061 25.798193 0.405369 0.248867 -1
0 31.435318 80.854767 20.611900 0.392845 0.257075 -1
0 29.204548 88.189301 20.611900 0.392845 0.245467 -1
0 17.704557 89.516830 29.273956 0.413763 0.243366 -1
0 17.704552 93.104767 20.611900 0.392845 0.237688 -1
0 29.204544 80.854767 27.946424 0.410557 0.257075 -1
0 17.704556 80.854767 32.861900 0.422427 0.257075 -1
0 29.204556 75.668472 25.798193 0.405369 0.265283 -1
0 17.704552 72.192703 29.273956 0.413763 0.270784 -1
0 29.204552 73.520233 20.611900 0.392845 0.268683 -1
0 17.704552 68.604767 20.611900 0.392845 0.276462 -1
0 29.204556 75.668472 15.425608 0.380321 0.265283 -1
0 17.704552 72.192703 11.949842 0.371928 0.270784 -1
0 29.204544 80.854767 13.277373 0.375133 0.257075 -1
0 17.704556 80.854767 8.361900 0.363264 0.257075 -1
0 29.204559 86.041061 15.425608 0.380321 0.248867 -1
0 17.704557 89.516830 11.949842 0.371928 0.243366 -1
25
0.956728 0.205756 0.205757
1.000000 -0.000000 0.000000
0.956728 0.290985 0.000000
0.393034 0.650201 0.650202
0.393034 0.919524 0.000000
0.393034 0.919524 0.000000
0.393034 0.650201 0.650202
0.956727 -0.000000 0.290986
0.393034 -0.000000 0.919524
0.393035 -0.000000 0.919524
0.956728 -0.205756 0.205758
0.393034 -0.650201 0.650202
0.393034 -0.650201 0.650202
0.956728 -0.290985 0.000000
0.393034 -0.919524 0.000000
0.393034 -0.919524 0.000000
0.956728 -0.205756 -0.205758
0.393034 -0.650201 -0.650202
0.393034 -0.650201 -0.650202
0.956727 -0.000000 -0.290986
0.393034 -0.000000 -0.919524
0.393035 -0.000000 -0.919524
0.956728 0.205756 -0.205757
0.393034 0.650201 -0.650202
0.393035 0.650201 -0.650202
24
0 0 1 2 0 1 2 2
0 3 2 4 3 4 5 1
0 3 0 2 3 6 4 1
0 5 1 0 7 1 0 2
0 5 0 3 8 6 3 1
0 6 5 3 9 8 3 1
0 7 1 5 10 1 7 2
0 8 5 6 11 8 9 1
0 8 7 5 11 12 8 1
0 9 1 7 13 1 10 2
0 9 7 8 14 12 11 1
0 10 9 8 15 14 11 1
0 11 1 9 16 1 13 2
0 12 9 10 17 14 15 1
0 12 11 9 17 18 14 1
0 13 1 11 19 1 16 2
0 13 11 12 20 18 17 1
0 14 13 12 21 20 17 1
0 15 1 13 22 1 19 2
0 16 13 14 23 20 21 1
0 16 15 13 23 24 20 1
0 2 1 15 2 1 22 2
0 2 15 16 4 24 23 1
0 4 2 16 5 4 23 1
"turretpivot" 0 1
20
0 -3.250000 51.104763 23.861900 0.000000 0.000000 -1
0 -3.250000 47.104763 23.861900 0.000000 1.000000 -1
0 3.250000 51.104763 23.861900 1.000000 0.000000 -1
0 3.250000 47.104763 23.861900 1.000000 1.000000 -1
0 3.250000 51.104763 23.861900 0.000000 0.000000 -1
0 3.250000 47.104763 23.861900 0.000000 1.000000 -1
0 3.250000 51.104763 17.361900 1.000000 0.000000 -1
0 3.250000 47.104763 17.361900 1.000000 1.000000 -1
0 3.250000 51.104763 17.361900 0.000000 0.000000 -1
0 3.250000 47.104763 17.361900 0.000000 1.000000 -1
0 -3.250000 51.104763 17.361900 1.000000 0.000000 -1
0 -3.250000 47.104763 17.361900 1.000000 1.000000 -1
0 -3.250000 51.104763 17.361900 0.000000 0.000000 -1
0 -3.250000 47.104763 17.361900 0.000000 1.000000 -1
0 -3.250000 51.104763 23.861900 1.000000 0.000000 -1
0 -3.250000 47.104763 23.861900 1.000000 1.000000 -1
0 -3.250000 51.104763 23.861900 0.000000 1.000000 -1
0 3.250000 51.104763 23.861900 1.000000 1.000000 -1
0 -3.250000 47.104763 23.861900 0.000000 0.000000 -1
0 3.250000 47.104763 23.861900 1.000000 0.000000 -1
6
0.000000 0.000000 1.000000
1.000000 0.000000 0.000000
0.000000 0.000000 -1.000000
-1.000000 0.000000 0.000000
0.000000 1.000000 0.000000
0.000000 -1.000000 0.000000
12
0 0 1 2 0 0 0 1
0 1 3 2 0 0 0 1
0 4 5 6 1 1 1 2
0 5 7 6 1 1 1 2
0 8 9 10 2 2 2 1
0 9 11 10 2 2 2 1
0 12 13 14 3 3 3 2
0 13 15 14 3 3 3 2
0 12 16 6 4 4 4 3
0 16 17 6 4 4 4 3
0 18 13 19 5 5 5 3
0 13 7 19 5 5 5 3
"gunpivot" 0 1
20
0 -1.500000 82.104767 21.861900 0.000000 0.000000 -1
0 -1.500000 80.104767 21.861900 0.000000 1.000000 -1
0 1.500000 82.104767 21.861900 1.000000 0.000000 -1
0 1.500000 80.104767 21.861900 1.000000 1.000000 -1
0 1.500000 82.104767 21.861900 0.000000 0.000000 -1
0 1.500000 80.104767 21.861900 0.000000 1.000000 -1
0 1.500000 82.104767 18.861900 1.000000 0.000000 -1
0 1.500000 80.104767 18.861900 1.000000 1.000000 -1
0 1.500000 82.104767 18.861900 0.000000 0.000000 -1
0 1.500000 80.104767 18.861900 0.000000 1.000000 -1
0 -1.500000 82.104767 18.861900 1.000000 0.000000 -1
0 -1.500000 80.104767 18.861900 1.000000 1.000000 -1
0 -1.500000 82.104767 18.861900 0.000000 0.000000 -1
0 -1.500000 80.104767 18.861900 0.000000 1.000000 -1
0 -1.500000 82.104767 21.861900 1.000000 0.000000 -1
0 -1.500000 80.104767 21.861900 1.000000 1.000000 -1
0 -1.500000 82.104767 21.861900 0.000000 1.000000 -1
0 1.500000 82.104767 21.861900 1.000000 1.000000 -1
0 -1.500000 80.104767 21.861900 0.000000 0.000000 -1
0 1.500000 80.104767 21.861900 1.000000 0.000000 -1
6
0.000000 0.000000 1.000000
1.000000 0.000000 0.000000
0.000000 0.000000 -1.000000
-1.000000 0.000000 0.000000
0.000000 1.000000 0.000000
0.000000 -1.000000 0.000000
12
0 0 1 2 0 0 0 1
0 1 3 2 0 0 0 1
0 4 5 6 1 1 1 2
0 5 7 6 1 1 1 2
0 8 9 10 2 2 2 1
0 9 11 10 2 2 2 1
0 12 13 14 3 3 3 2
0 13 15 14 3 3 3 2
0 12 16 6 4 4 4 3
0 16 17 6 4 4 4 3
0 18 13 19 5 5 5 3
0 13 7 19 5 5 5 3
"Duplicate31" 0 2
84
0 -44.666672 19.583336 10.536642 0.352109 0.447437 -1
0 -35.000004 25.666668 0.000000 0.323423 0.434978 -1
0 -44.666672 25.666668 0.000000 0.323423 0.434978 -1
0 -35.000004 19.583336 10.536642 0.352109 0.447437 -1
0 -35.000004 7.416666 10.536642 0.352109 0.472355 -1
0 -44.666672 7.416666 10.536642 0.352109 0.472355 -1
0 -44.666672 1.333332 0.000000 0.323423 0.484814 -1
0 -35.000004 1.333332 0.000000 0.323423 0.484814 -1
0 -35.000004 7.416666 -10.536642 0.294738 0.472355 -1
0 -44.666672 7.416666 -10.536642 0.294738 0.472355 -1
0 -44.666672 19.583336 -10.536642 0.294738 0.447437 -1
0 -35.000004 19.583336 -10.536642 0.294738 0.447437 -1
0 -44.666672 19.583336 39.286644 0.430379 0.447437 -1
0 -35.000004 25.666668 28.750000 0.401693 0.434978 -1
0 -44.666672 25.666668 28.750000 0.401693 0.434978 -1
0 -35.000004 19.583336 39.286644 0.430379 0.447437 -1
0 -35.000004 7.416666 39.286644 0.430379 0.472355 -1
0 -44.666672 7.416666 39.286644 0.430379 0.472355 -1
0 -44.666672 1.333332 28.750000 0.401693 0.484814 -1
0 -35.000004 1.333332 28.750000 0.401693 0.484814 -1
0 -35.000004 7.416666 18.213358 0.373008 0.472355 -1
0 -44.666672 7.416666 18.213358 0.373008 0.472355 -1
0 -44.666672 19.583336 18.213358 0.373008 0.447437 -1
0 -35.000004 19.583336 18.213358 0.373008 0.447437 -1
0 -44.666672 19.583336 -17.713356 0.275200 0.447437 -1
0 -35.000004 25.666668 -28.250000 0.246515 0.434978 -1
0 -44.666672 25.666668 -28.250000 0.246515 0.434978 -1
0 -35.000004 19.583336 -17.713356 0.275200 0.447437 -1
0 -35.000004 7.416666 -17.713356 0.275200 0.472355 -1
0 -44.666672 7.416666 -17.713356 0.275200 0.472355 -1
0 -44.666672 1.333332 -28.250000 0.246515 0.484814 -1
0 -35.000004 1.333332 -28.250000 0.246515 0.484814 -1
0 -35.000004 7.416666 -38.786644 0.217829 0.472355 -1
0 -44.666672 7.416666 -38.786644 0.217829 0.472355 -1
0 -44.666672 19.583336 -38.786644 0.217829 0.447437 -1
0 -35.000004 19.583336 -38.786644 0.217829 0.447437 -1
0 -44.666672 19.583336 -43.380020 0.205324 0.447437 -1
0 -35.000004 25.666668 -53.916664 0.176639 0.434978 -1
0 -44.666672 25.666668 -53.916664 0.176639 0.434978 -1
0 -35.000004 19.583336 -43.380020 0.205324 0.447437 -1
0 -35.000004 7.416666 -43.380020 0.205324 0.472355 -1
0 -44.666672 7.416666 -43.380020 0.205324 0.472355 -1
0 -44.666672 1.333332 -53.916664 0.176639 0.484814 -1
0 -35.000004 1.333332 -53.916664 0.176639 0.484814 -1
0 -35.000004 7.416666 -64.453308 0.147954 0.472355 -1
0 -44.666672 7.416666 -64.453308 0.147954 0.472355 -1
0 -44.666672 19.583336 -64.453308 0.147954 0.447437 -1
0 -35.000004 19.583336 -64.453308 0.147954 0.447437 -1
0 -44.666672 25.666668 53.916664 0.470208 0.434978 -1
0 -35.000004 25.666668 53.916664 0.470208 0.434978 -1
0 -44.666672 19.583336 43.380020 0.441522 0.447437 -1
0 -35.000004 19.583336 43.380020 0.441522 0.447437 -1
0 -35.000004 7.416666 43.380020 0.441522 0.472355 -1
0 -44.666672 7.416666 43.380020 0.441522 0.472355 -1
0 -44.666672 1.333332 53.916664 0.470208 0.484814 -1
0 -35.000004 1.333332 53.916664 0.470208 0.484814 -1
0 -35.000004 7.416666 64.453308 0.498893 0.472355 -1
0 -44.666672 7.416666 64.453308 0.498893 0.472355 -1
0 -44.666672 19.583336 64.453308 0.498893 0.447437 -1
0 -35.000004 19.583336 64.453308 0.498893 0.447437 -1
0 -44.666672 30.914339 78.250000 0.536453 0.424231 -1
0 -35.000004 30.914339 78.250000 0.536453 0.424231 -1
0 -44.666672 26.207170 70.096939 0.514257 0.433871 -1
0 -35.000004 26.207170 70.096939 0.514257 0.433871 -1
0 -35.000004 16.792831 70.096939 0.514257 0.453152 -1
0 -44.666672 16.792831 70.096939 0.514257 0.453152 -1
0 -44.666672 12.085665 78.250000 0.536453 0.462793 -1
0 -35.000004 12.085665 78.250000 0.536453 0.462793 -1
0 -35.000004 16.792831 86.403053 0.558650 0.453152 -1
0 -44.666672 16.792831 86.403053 0.558650 0.453152 -1
0 -44.666672 26.207170 86.403053 0.558650 0.433871 -1
0 -35.000004 26.207170 86.403053 0.558650 0.433871 -1
0 -44.666672 31.656881 -76.490677 0.142527 0.418803 -1
0 -35.000004 37.147079 -85.999992 0.116638 0.407559 -1
0 -44.666672 37.147079 -85.999992 0.116638 0.407559 -1
0 -35.000004 31.656881 -76.490677 0.142527 0.418803 -1
0 -35.000004 20.676458 -76.490677 0.142527 0.441292 -1
0 -44.666672 20.676458 -76.490677 0.142527 0.441292 -1
0 -44.666672 15.186249 -85.999992 0.116638 0.452536 -1
0 -35.000004 15.186249 -85.999992 0.116638 0.452536 -1
0 -35.000004 20.676458 -95.509315 0.090750 0.441292 -1
0 -44.666672 20.676458 -95.509315 0.090750 0.441292 -1
0 -44.666672 31.656881 -95.509315 0.090750 0.418803 -1
0 -35.000004 31.656881 -95.509315 0.090750 0.418803 -1
53
-0.654654 0.377964 0.654654
0.277350 0.960769 0.000000
-0.500000 0.866025 0.000000
0.755929 0.327327 0.566947
0.654654 -0.377964 0.654654
-0.755929 -0.327327 0.566947
-0.277350 -0.960769 0.000000
0.500000 -0.866025 0.000000
0.500000 -0.433013 -0.750000
-0.866025 -0.250000 -0.433013
-0.500000 0.433013 -0.750000
0.866025 0.250000 -0.433013
-0.654654 0.377965 0.654654
0.277350 0.960769 -0.000000
-0.500000 0.866025 -0.000000
0.654654 -0.377964 0.654654
-0.755929 -0.327327 0.566947
-0.277350 -0.960769 -0.000000
0.500000 -0.866025 -0.000000
0.277350 0.960769 0.000000
-0.500000 0.866025 0.000000
0.500000 -0.866025 0.000000
0.500000 -0.433013 -0.750000
-0.500000 0.433013 -0.750000
0.866025 0.250000 -0.433013
-0.654654 0.377965 -0.654654
0.755929 0.327327 -0.566947
0.654654 -0.377964 -0.654654
-0.755929 -0.327327 -0.566947
0.500000 -0.433013 0.750000
-0.866025 -0.250000 0.433013
-0.500000 0.433013 0.750000
0.866025 0.250000 0.433013
-0.500000 0.866025 0.000000
0.277350 0.960769 0.000000
-0.654654 0.377965 -0.654654
0.755929 0.327327 -0.566947
0.654654 -0.377965 -0.654654
-0.755929 -0.327327 -0.566947
-0.277350 -0.960769 0.000000
0.500000 -0.866025 0.000000
-0.500000 0.433013 0.750000
0.866025 0.250000 0.433013
-0.654654 0.377965 0.654654
0.277350 0.960769 0.000000
-0.500000 0.866026 0.000000
0.755929 0.327327 0.566947
0.654654 -0.377964 0.654654
-0.755929 -0.327327 0.566947
-0.277350 -0.960769 0.000000
0.500000 -0.866025 0.000000
-0.500000 0.433013 -0.750000
0.866025 0.250000 -0.433012
140
0 0 1 2 0 1 2 1
0 0 3 1 0 3 1 1
0 4 3 0 4 3 0 1
0 5 4 0 5 4 0 1
0 6 4 5 6 4 5 1
0 6 7 4 6 7 4 1
0 8 7 6 8 7 6 1
0 9 8 6 9 8 6 1
0 10 8 9 10 8 9 1
0 10 11 8 10 11 8 1
0 1 11 10 1 11 10 1
0 2 1 10 2 1 10 1
0 10 0 2 10 0 2 1
0 9 0 10 9 0 10 1
0 5 0 9 5 0 9 1
0 9 6 5 9 6 5 1
0 3 11 1 3 11 1 1
0 4 11 3 4 11 3 1
0 8 11 4 8 11 4 1
0 7 8 4 7 8 4 1
0 12 13 14 12 13 14 1
0 12 15 13 12 3 13 1
0 16 15 12 15 3 12 1
0 17 16 12 16 15 12 1
0 18 16 17 17 15 16 1
0 18 19 16 17 18 15 1
0 20 19 18 8 18 17 1
0 21 20 18 9 8 17 1
0 22 20 21 10 8 9 1
0 22 23 20 10 11 8 1
0 13 23 22 13 11 10 1
0 14 13 22 14 13 10 1
0 22 12 14 10 12 14 1
0 21 12 22 9 12 10 1
0 17 12 21 16 12 9 1
0 21 18 17 9 17 16 1
0 15 23 13 3 11 13 1
0 16 23 15 15 11 3 1
0 20 23 16 8 11 15 1
0 19 20 16 18 8 15 1
0 24 25 26 12 19 20 1
0 24 27 25 12 3 19 1
0 28 27 24 15 3 12 1
0 29 28 24 16 15 12 1
0 30 28 29 6 15 16 1
0 30 31 28 6 21 15 1
0 32 31 30 22 21 6 1
0 33 32 30 9 22 6 1
0 34 32 33 23 22 9 1
0 34 35 32 23 24 22 1
0 25 35 34 19 24 23 1
0 26 25 34 20 19 23 1
0 34 24 26 23 12 20 1
0 33 24 34 9 12 23 1
0 29 24 33 16 12 9 1
0 33 30 29 9 6 16 1
0 27 35 25 3 24 19 1
0 28 35 27 15 24 3 1
0 32 35 28 22 24 15 1
0 31 32 28 21 22 15 1
0 36 37 38 12 19 20 1
0 36 39 37 12 3 19 1
0 40 39 36 15 3 12 1
0 41 40 36 16 15 12 1
0 42 40 41 6 15 16 1
0 42 43 40 6 21 15 1
0 44 43 42 22 21 6 1
0 45 44 42 9 22 6 1
0 46 44 45 23 22 9 1
0 46 47 44 23 24 22 1
0 37 47 46 19 24 23 1
0 38 37 46 20 19 23 1
0 46 36 38 23 12 20 1
0 45 36 46 9 12 23 1
0 41 36 45 16 12 9 1
0 45 42 41 9 6 16 1
0 39 47 37 3 24 19 1
0 40 47 39 15 24 3 1
0 44 47 40 22 24 15 1
0 43 44 40 21 22 15 1
0 48 49 50 20 19 25 1
0 49 51 50 19 26 25 1
0 50 51 52 25 26 27 1
0 50 52 53 25 27 28 1
0 53 52 54 28 27 6 1
0 52 55 54 27 21 6 1
0 54 55 56 6 21 29 1
0 54 56 57 6 29 30 1
0 57 56 58 30 29 31 1
0 56 59 58 29 32 31 1
0 58 59 49 31 32 19 1
0 58 49 48 31 19 20 1
0 48 50 58 20 25 31 1
0 58 50 57 31 25 30 1
0 57 50 53 30 25 28 1
0 53 54 57 28 6 30 1
0 49 59 51 19 32 26 1
0 51 59 52 26 32 27 1
0 52 59 56 27 32 29 1
0 52 56 55 27 29 21 1
0 60 61 62 33 34 35 1
0 61 63 62 34 36 35 1
0 62 63 64 35 36 37 1
0 62 64 65 35 37 38 1
0 65 64 66 38 37 39 1
0 64 67 66 37 40 39 1
0 66 67 68 39 40 29 1
0 66 68 69 39 29 30 1
0 69 68 70 30 29 41 1
0 68 71 70 29 42 41 1
0 70 71 61 41 42 34 1
0 70 61 60 41 34 33 1
0 60 62 70 33 35 41 1
0 70 62 69 41 35 30 1
0 69 62 65 30 35 38 1
0 65 66 69 38 39 30 1
0 61 71 63 34 42 36 1
0 63 71 64 36 42 37 1
0 64 71 68 37 42 29 1
0 64 68 67 37 29 40 1
0 72 73 74 43 44 45 1
0 72 75 73 43 46 44 1
0 76 75 72 47 46 43 1
0 77 76 72 48 47 43 1
0 78 76 77 49 47 48 1
0 78 79 76 49 50 47 1
0 80 79 78 22 50 49 1
0 81 80 78 9 22 49 1
0 82 80 81 51 22 9 1
0 82 83 80 51 52 22 1
0 73 83 82 44 52 51 1
0 74 73 82 45 44 51 1
0 82 72 74 51 43 45 1
0 81 72 82 9 43 51 1
0 77 72 81 48 43 9 1
0 81 78 77 9 49 48 1
0 75 83 73 46 52 44 1
0 76 83 75 47 52 46 1
0 80 83 76 22 52 47 1
0 79 80 76 50 22 47 1
"Duplicate32" 0 2
28
0 -46.760353 38.633774 78.333290 0.525905 0.391380 -1
0 -28.573898 22.666666 78.333290 0.525905 0.429649 -1
0 -28.573898 38.633774 78.333290 0.525905 0.391380 -1
0 -46.760353 22.666666 78.333290 0.525905 0.429649 -1
0 -46.760353 38.633774 -88.666710 0.114192 0.391380 -1
0 -46.760353 22.708500 -88.666710 0.114192 0.429549 -1
0 -28.573898 38.633774 -88.666710 0.114192 0.391380 -1
0 -28.573898 22.708500 -88.666710 0.114192 0.429549 -1
0 -46.760353 22.708506 -88.434631 0.114764 0.429549 -1
0 -46.760353 30.982050 -100.704185 0.084516 0.409719 -1
0 -46.760353 22.708506 -102.602905 0.079835 0.429549 -1
0 -28.572258 30.982050 -100.704185 0.084516 0.409719 -1
0 -28.572258 22.708506 -88.434631 0.114764 0.429549 -1
0 -28.572258 22.708506 -102.602905 0.079835 0.429549 -1
0 -46.760353 37.023392 -95.518349 0.097300 0.395239 -1
0 -28.572258 37.023392 -95.518349 0.097300 0.395239 -1
0 -46.760353 38.633774 -88.434631 0.114764 0.391380 -1
0 -28.572258 38.633774 -88.434631 0.114764 0.391380 -1
0 -46.760353 22.708506 92.269577 0.560262 0.429549 -1
0 -46.760353 30.982050 90.370857 0.555581 0.409719 -1
0 -46.760353 22.708506 78.101303 0.525333 0.429549 -1
0 -28.572258 22.708506 92.269577 0.560262 0.429549 -1
0 -28.572258 22.708506 78.101303 0.525333 0.429549 -1
0 -28.572258 30.982050 90.370857 0.555581 0.409719 -1
0 -46.760353 37.023392 85.185020 0.542796 0.395239 -1
0 -28.572258 37.023392 85.185020 0.542796 0.395239 -1
0 -46.760353 38.633774 78.101303 0.525333 0.391380 -1
0 -28.572258 38.633774 78.101303 0.525333 0.391380 -1
22
0.000000 0.000000 1.000000
-1.000000 0.000000 0.000000
0.000000 0.000000 -1.000000
1.000000 0.000000 0.000000
0.000000 1.000000 0.000000
0.000000 -1.000000 -0.000251
0.000000 0.450626 -0.892713
0.000000 -0.623026 -0.782201
0.000000 0.450626 -0.892713
0.000000 0.856424 -0.516273
0.000000 0.856424 -0.516273
0.000000 0.781562 0.623827
0.000000 -0.447214 0.894427
0.000000 -0.894427 0.447214
0.000000 -0.623026 0.782201
0.000000 0.450626 0.892713
0.000000 0.450626 0.892713
0.000000 0.856424 0.516273
0.000000 0.856424 0.516273
0.000000 0.781562 -0.623827
0.000000 -0.894427 -0.447214
0.000000 -0.447214 -0.894427
44
0 0 1 2 0 0 0 1
0 0 3 1 0 0 0 1
0 4 3 0 1 1 1 2
0 4 5 3 1 1 1 2
0 6 5 4 2 2 2 1
0 6 7 5 2 2 2 1
0 2 7 6 3 3 3 2
0 2 1 7 3 3 3 2
0 4 2 6 4 4 4 3
0 4 0 2 4 4 4 3
0 3 7 1 5 5 5 3
0 3 5 7 5 5 5 3
0 8 9 10 1 1 1 2
0 11 12 13 3 3 3 2
0 11 13 10 6 7 7 1
0 9 11 10 8 6 7 1
0 8 14 9 1 1 1 2
0 15 12 11 3 3 3 2
0 14 11 9 9 6 8 1
0 14 15 11 9 10 6 1
0 8 16 14 1 1 1 2
0 17 12 15 3 3 3 2
0 17 15 14 11 10 9 1
0 16 17 14 11 11 9 1
0 8 12 17 12 13 11 1
0 8 17 16 12 11 11 1
0 10 12 8 7 13 12 1
0 13 12 10 7 13 7 1
0 18 19 20 1 1 1 2
0 21 22 23 3 3 3 2
0 18 21 23 14 14 15 1
0 18 23 19 14 15 16 1
0 19 24 20 1 1 1 2
0 23 22 25 3 3 3 2
0 19 23 24 16 15 17 1
0 23 25 24 15 18 17 1
0 24 26 20 1 1 1 2
0 25 22 27 3 3 3 2
0 24 25 27 17 18 19 1
0 24 27 26 17 19 19 1
0 27 22 20 19 20 21 1
0 26 27 20 19 19 21 1
0 20 22 18 21 20 14 1
0 18 22 21 14 20 14 1
"Duplicate33" 0 1
82
0 46.214478 26.581951 90.731354 0.000000 1.000000 -1
0 31.578030 26.581951 90.731354 0.000000 0.000000 -1
0 46.214478 14.059582 89.614510 0.100000 1.000000 -1
0 31.578030 14.059582 89.614510 0.100000 0.000000 -1
0 31.578030 -0.403404 52.267052 0.200000 0.000000 -1
0 46.214478 -0.403404 52.267052 0.200000 1.000000 -1
0 46.214478 -0.403404 -53.194324 0.300000 1.000000 -1
0 31.578030 -0.403404 -53.194324 0.300000 0.000000 -1
0 31.578030 13.059582 -89.275459 0.400000 0.000000 -1
0 46.214478 13.059582 -89.275459 0.400000 1.000000 -1
0 46.214478 22.081957 -100.392227 0.500000 1.000000 -1
0 31.578030 22.081957 -100.392227 0.500000 0.000000 -1
0 31.578030 29.954475 -96.775444 0.600000 0.000000 -1
0 46.214478 29.954475 -96.775444 0.600000 1.000000 -1
0 46.214478 35.905247 -74.694321 0.700000 1.000000 -1
0 31.578030 35.905247 -74.694321 0.700000 0.000000 -1
0 31.578030 33.405247 52.267044 0.800000 0.000000 -1
0 46.214478 33.405247 52.267044 0.800000 1.000000 -1
0 46.214478 31.454475 66.614555 0.900000 1.000000 -1
0 31.578030 31.454475 66.614555 0.900000 0.000000 -1
0 31.578030 26.581951 90.731354 1.000000 0.000000 -1
0 46.214478 26.581951 90.731354 1.000000 1.000000 -1
0 46.214478 15.758701 88.269547 0.100000 1.000000 -1
0 31.578030 25.865501 89.334053 0.000000 0.000000 -1
0 46.214478 25.865501 89.334053 0.000000 1.000000 -1
0 31.578030 15.758701 88.269547 0.100000 0.000000 -1
0 31.578030 3.329282 51.209038 0.200000 0.000000 -1
0 46.214478 3.329282 51.209038 0.200000 1.000000 -1
0 46.214478 3.329282 -52.143112 0.300000 1.000000 -1
0 31.578030 3.329282 -52.143112 0.300000 0.000000 -1
0 31.578030 14.758701 -87.932625 0.400000 0.000000 -1
0 46.214478 14.758701 -87.932625 0.400000 1.000000 -1
0 46.214478 21.365509 -98.977058 0.500000 1.000000 -1
0 31.578030 21.365509 -98.977058 0.500000 0.000000 -1
0 31.578030 27.777725 -95.432610 0.600000 0.000000 -1
0 46.214478 27.777725 -95.432610 0.600000 1.000000 -1
0 46.214478 33.366638 -73.643105 0.700000 1.000000 -1
0 31.578030 33.366638 -73.643105 0.700000 0.000000 -1
0 31.578030 30.866638 51.209030 0.800000 0.000000 -1
0 46.214478 30.866638 51.209030 0.800000 1.000000 -1
0 46.214478 29.277723 65.269592 0.900000 1.000000 -1
0 31.578030 29.277723 65.269592 0.900000 0.000000 -1
0 31.578030 25.865501 89.334053 1.000000 0.000000 -1
0 46.214478 25.865501 89.334053 1.000000 1.000000 -1
0 46.214478 35.905247 -74.694321 0.000000 0.000000 -1
0 46.214478 33.405247 52.267044 0.000000 0.000000 -1
0 46.214478 30.866638 51.209030 0.000000 0.000000 -1
0 46.214478 33.366638 -73.643105 0.000000 0.000000 -1
0 46.214478 29.954475 -96.775444 0.000000 0.000000 -1
0 46.214478 27.777725 -95.432610 0.000000 0.000000 -1
0 46.214478 22.081957 -100.392227 0.000000 0.000000 -1
0 46.214478 21.365509 -98.977058 0.000000 0.000000 -1
0 46.214478 13.059582 -89.275459 0.000000 0.000000 -1
0 46.214478 14.758701 -87.932625 0.000000 0.000000 -1
0 46.214478 -0.403404 -53.194324 0.000000 0.000000 -1
0 46.214478 3.329282 -52.143112 0.000000 0.000000 -1
0 46.214478 -0.403404 52.267052 0.000000 0.000000 -1
0 46.214478 3.329282 51.209038 0.000000 0.000000 -1
0 46.214478 14.059582 89.614510 0.000000 0.000000 -1
0 46.214478 15.758701 88.269547 0.000000 0.000000 -1
0 46.214478 26.581951 90.731354 0.000000 0.000000 -1
0 46.214478 25.865501 89.334053 0.000000 0.000000 -1
0 46.214478 31.454475 66.614555 0.000000 0.000000 -1
0 46.214478 29.277723 65.269592 0.000000 0.000000 -1
0 31.578030 35.905247 -74.694321 0.000000 0.000000 -1
0 31.578030 33.366638 -73.643105 0.000000 0.000000 -1
0 31.578030 33.405247 52.267044 0.000000 0.000000 -1
0 31.578030 30.866638 51.209030 0.000000 0.000000 -1
0 31.578030 31.454475 66.614555 0.000000 0.000000 -1
0 31.578030 29.277723 65.269592 0.000000 0.000000 -1
0 31.578030 14.059582 89.614510 0.000000 0.000000 -1
0 31.578030 15.758701 88.269547 0.000000 0.000000 -1
0 31.578030 -0.403404 52.267052 0.000000 0.000000 -1
0 31.578030 3.329282 51.209038 0.000000 0.000000 -1
0 31.578030 -0.403404 -53.194324 0.000000 0.000000 -1
0 31.578030 3.329282 -52.143112 0.000000 0.000000 -1
0 31.578030 13.059582 -89.275459 0.000000 0.000000 -1
0 31.578030 14.758701 -87.932625 0.000000 0.000000 -1
0 31.578030 22.081957 -100.392227 0.000000 0.000000 -1
0 31.578030 21.365509 -98.977058 0.000000 0.000000 -1
0 31.578030 29.954475 -96.775444 0.000000 0.000000 -1
0 31.578030 27.777725 -95.432610 0.000000 0.000000 -1
40
0.895608 0.266103 0.356477
-0.709447 0.421582 0.564760
0.661939 -0.450716 0.598909
-0.870203 -0.296262 0.393671
-0.606585 -0.781491 0.146034
0.836403 -0.538788 0.100681
0.606151 -0.782703 -0.141269
-0.836118 -0.539827 -0.097432
-0.605078 -0.691144 -0.395221
0.835414 -0.477121 -0.272835
0.688467 -0.164767 -0.706304
-0.884768 -0.105873 -0.453846
-0.637918 0.588169 -0.497109
0.856127 0.394681 -0.333577
0.603854 0.791192 -0.096828
-0.834607 0.546767 -0.066915
-0.600640 0.797125 0.061831
0.832477 0.552401 0.042849
0.600198 0.788691 0.133149
-0.832182 0.546765 0.092307
0.665447 0.467075 -0.582255
-0.721536 -0.425874 -0.545909
0.901596 -0.266076 -0.341071
-0.872186 0.306092 -0.381574
-0.605045 0.785792 -0.128260
0.835392 0.542476 -0.088545
0.604603 0.787033 0.122619
-0.835101 0.543540 0.084683
-0.602544 0.727381 0.328417
0.833741 0.503239 0.227215
0.721834 0.180168 0.668203
-0.901741 0.112536 0.417372
-0.632619 -0.612552 0.473893
0.852903 -0.412924 0.319453
0.603537 -0.792019 0.091912
-0.834398 -0.547488 0.063535
-0.600411 -0.797936 -0.052960
0.832324 -0.553072 -0.036708
0.600039 -0.793560 -0.101079
-0.832076 -0.550216 -0.070083
80
0 0 1 2 0 1 2 1
0 1 3 2 1 3 2 1
0 2 3 4 2 3 4 1
0 2 4 5 2 4 5 1
0 5 4 6 5 4 6 1
0 4 7 6 4 7 6 1
0 6 7 8 6 7 8 1
0 6 8 9 6 8 9 1
0 9 8 10 9 8 10 1
0 8 11 10 8 11 10 1
0 10 11 12 10 11 12 1
0 10 12 13 10 12 13 1
0 13 12 14 13 12 14 1
0 12 15 14 12 15 14 1
0 14 15 16 14 15 16 1
0 14 16 17 14 16 17 1
0 17 16 18 17 16 18 1
0 16 19 18 16 19 18 1
0 18 19 20 18 19 1 1
0 18 20 21 18 1 0 1
0 22 23 24 20 21 22 1
0 22 25 23 20 23 21 1
0 26 25 22 24 23 20 1
0 27 26 22 25 24 20 1
0 28 26 27 26 24 25 1
0 28 29 26 26 27 24 1
0 30 29 28 28 27 26 1
0 31 30 28 29 28 26 1
0 32 30 31 30 28 29 1
0 32 33 30 30 31 28 1
0 34 33 32 32 31 30 1
0 35 34 32 33 32 30 1
0 36 34 35 34 32 33 1
0 36 37 34 34 35 32 1
0 38 37 36 36 35 34 1
0 39 38 36 37 36 34 1
0 40 38 39 38 36 37 1
0 40 41 38 38 39 36 1
0 42 41 40 21 39 38 1
0 43 42 40 22 21 38 1
0 44 45 46 14 17 37 1
0 44 46 47 14 37 34 1
0 44 47 48 14 34 13 1
0 48 47 49 13 34 33 1
0 48 49 50 13 33 10 1
0 50 49 51 10 33 30 1
0 50 51 52 10 30 9 1
0 52 51 53 9 30 29 1
0 52 53 54 9 29 6 1
0 54 53 55 6 29 26 1
0 54 55 56 6 26 5 1
0 56 55 57 5 26 25 1
0 56 57 58 5 25 2 1
0 59 58 57 20 2 25 1
0 58 59 60 2 20 0 1
0 60 59 61 0 20 22 1
0 60 61 62 0 22 18 1
0 62 61 63 18 22 38 1
0 62 63 45 18 38 17 1
0 45 63 46 17 38 37 1
0 64 65 66 15 35 16 1
0 66 65 67 16 35 36 1
0 66 67 68 16 36 19 1
0 68 67 69 19 36 39 1
0 68 69 1 19 39 1 1
0 1 69 23 1 39 21 1
0 1 23 70 1 21 3 1
0 70 23 71 3 21 23 1
0 70 71 72 3 23 4 1
0 72 71 73 4 23 24 1
0 72 73 74 4 24 7 1
0 74 73 75 7 24 27 1
0 74 75 76 7 27 8 1
0 76 75 77 8 27 28 1
0 76 77 78 8 28 11 1
0 78 77 79 11 28 31 1
0 78 79 80 11 31 12 1
0 80 79 81 12 31 32 1
0 80 81 64 12 32 15 1
0 64 81 65 15 32 35 1
"Duplicate34" 0 1
82
0 -46.214478 14.059582 89.614510 0.100000 1.000000 -1
0 -31.578030 26.581951 90.731354 0.000000 0.000000 -1
0 -46.214478 26.581951 90.731354 0.000000 1.000000 -1
0 -31.578030 14.059582 89.614510 0.100000 0.000000 -1
0 -31.578030 -0.403404 52.267052 0.200000 0.000000 -1
0 -46.214478 -0.403404 52.267052 0.200000 1.000000 -1
0 -46.214478 -0.403404 -53.194324 0.300000 1.000000 -1
0 -31.578030 -0.403404 -53.194324 0.300000 0.000000 -1
0 -31.578030 13.059582 -89.275459 0.400000 0.000000 -1
0 -46.214478 13.059582 -89.275459 0.400000 1.000000 -1
0 -46.214478 22.081957 -100.392227 0.500000 1.000000 -1
0 -31.578030 22.081957 -100.392227 0.500000 0.000000 -1
0 -31.578030 29.954475 -96.775444 0.600000 0.000000 -1
0 -46.214478 29.954475 -96.775444 0.600000 1.000000 -1
0 -46.214478 35.905247 -74.694321 0.700000 1.000000 -1
0 -31.578030 35.905247 -74.694321 0.700000 0.000000 -1
0 -31.578030 33.405247 52.267044 0.800000 0.000000 -1
0 -46.214478 33.405247 52.267044 0.800000 1.000000 -1
0 -46.214478 31.454475 66.614555 0.900000 1.000000 -1
0 -31.578030 31.454475 66.614555 0.900000 0.000000 -1
0 -31.578030 26.581951 90.731354 1.000000 0.000000 -1
0 -46.214478 26.581951 90.731354 1.000000 1.000000 -1
0 -46.214478 25.865501 89.334053 0.000000 1.000000 -1
0 -31.578030 25.865501 89.334053 0.000000 0.000000 -1
0 -46.214478 15.758701 88.269547 0.100000 1.000000 -1
0 -31.578030 15.758701 88.269547 0.100000 0.000000 -1
0 -31.578030 3.329282 51.209038 0.200000 0.000000 -1
0 -46.214478 3.329282 51.209038 0.200000 1.000000 -1
0 -46.214478 3.329282 -52.143112 0.300000 1.000000 -1
0 -31.578030 3.329282 -52.143112 0.300000 0.000000 -1
0 -31.578030 14.758701 -87.932625 0.400000 0.000000 -1
0 -46.214478 14.758701 -87.932625 0.400000 1.000000 -1
0 -46.214478 21.365509 -98.977058 0.500000 1.000000 -1
0 -31.578030 21.365509 -98.977058 0.500000 0.000000 -1
0 -31.578030 27.777725 -95.432610 0.600000 0.000000 -1
0 -46.214478 27.777725 -95.432610 0.600000 1.000000 -1
0 -46.214478 33.366638 -73.643105 0.700000 1.000000 -1
0 -31.578030 33.366638 -73.643105 0.700000 0.000000 -1
0 -31.578030 30.866638 51.209030 0.800000 0.000000 -1
0 -46.214478 30.866638 51.209030 0.800000 1.000000 -1
0 -46.214478 29.277723 65.269592 0.900000 1.000000 -1
0 -31.578030 29.277723 65.269592 0.900000 0.000000 -1
0 -31.578030 25.865501 89.334053 1.000000 0.000000 -1
0 -46.214478 25.865501 89.334053 1.000000 1.000000 -1
0 -46.214478 30.866638 51.209030 0.000000 0.000000 -1
0 -46.214478 33.405247 52.267044 0.000000 0.000000 -1
0 -46.214478 35.905247 -74.694321 0.000000 0.000000 -1
0 -46.214478 33.366638 -73.643105 0.000000 0.000000 -1
0 -46.214478 29.954475 -96.775444 0.000000 0.000000 -1
0 -46.214478 27.777725 -95.432610 0.000000 0.000000 -1
0 -46.214478 22.081957 -100.392227 0.000000 0.000000 -1
0 -46.214478 21.365509 -98.977058 0.000000 0.000000 -1
0 -46.214478 13.059582 -89.275459 0.000000 0.000000 -1
0 -46.214478 14.758701 -87.932625 0.000000 0.000000 -1
0 -46.214478 -0.403404 -53.194324 0.000000 0.000000 -1
0 -46.214478 3.329282 -52.143112 0.000000 0.000000 -1
0 -46.214478 -0.403404 52.267052 0.000000 0.000000 -1
0 -46.214478 3.329282 51.209038 0.000000 0.000000 -1
0 -46.214478 14.059582 89.614510 0.000000 0.000000 -1
0 -46.214478 15.758701 88.269547 0.000000 0.000000 -1
0 -46.214478 26.581951 90.731354 0.000000 0.000000 -1
0 -46.214478 25.865501 89.334053 0.000000 0.000000 -1
0 -46.214478 31.454475 66.614555 0.000000 0.000000 -1
0 -46.214478 29.277723 65.269592 0.000000 0.000000 -1
0 -31.578030 33.405247 52.267044 0.000000 0.000000 -1
0 -31.578030 33.366638 -73.643105 0.000000 0.000000 -1
0 -31.578030 35.905247 -74.694321 0.000000 0.000000 -1
0 -31.578030 30.866638 51.209030 0.000000 0.000000 -1
0 -31.578030 31.454475 66.614555 0.000000 0.000000 -1
0 -31.578030 29.277723 65.269592 0.000000 0.000000 -1
0 -31.578030 14.059582 89.614510 0.000000 0.000000 -1
0 -31.578030 15.758701 88.269547 0.000000 0.000000 -1
0 -31.578030 -0.403404 52.267052 0.000000 0.000000 -1
0 -31.578030 3.329282 51.209038 0.000000 0.000000 -1
0 -31.578030 -0.403404 -53.194324 0.000000 0.000000 -1
0 -31.578030 3.329282 -52.143112 0.000000 0.000000 -1
0 -31.578030 13.059582 -89.275459 0.000000 0.000000 -1
0 -31.578030 14.758701 -87.932625 0.000000 0.000000 -1
0 -31.578030 22.081957 -100.392227 0.000000 0.000000 -1
0 -31.578030 21.365509 -98.977058 0.000000 0.000000 -1
0 -31.578030 29.954475 -96.775444 0.000000 0.000000 -1
0 -31.578030 27.777725 -95.432610 0.000000 0.000000 -1
40
-0.661939 -0.450716 0.598909
0.709447 0.421582 0.564760
-0.895608 0.266103 0.356477
0.870203 -0.296262 0.393671
0.606585 -0.781491 0.146034
-0.836403 -0.538788 0.100681
-0.606151 -0.782703 -0.141269
0.836118 -0.539827 -0.097432
0.605078 -0.691144 -0.395221
-0.835414 -0.477121 -0.272835
-0.688467 -0.164767 -0.706304
0.884768 -0.105873 -0.453846
0.637918 0.588169 -0.497109
-0.856127 0.394681 -0.333577
-0.603854 0.791192 -0.096828
0.834607 0.546767 -0.066915
0.600640 0.797125 0.061831
-0.832477 0.552401 0.042849
-0.600198 0.788691 0.133149
0.832182 0.546765 0.092307
-0.901596 -0.266076 -0.341071
0.721536 -0.425874 -0.545909
-0.665447 0.467075 -0.582255
0.872186 0.306092 -0.381574
0.605045 0.785792 -0.128260
-0.835392 0.542476 -0.088545
-0.604603 0.787033 0.122619
0.835101 0.543540 0.084683
0.602544 0.727381 0.328417
-0.833741 0.503239 0.227215
-0.721834 0.180168 0.668203
0.901741 0.112536 0.417372
0.632619 -0.612552 0.473893
-0.852903 -0.412924 0.319453
-0.603537 -0.792019 0.091912
0.834398 -0.547488 0.063535
0.600411 -0.797936 -0.052960
-0.832324 -0.553072 -0.036708
-0.600039 -0.793560 -0.101079
0.832076 -0.550216 -0.070083
80
0 0 1 2 0 1 2 1
0 0 3 1 0 3 1 1
0 4 3 0 4 3 0 1
0 5 4 0 5 4 0 1
0 6 4 5 6 4 5 1
0 6 7 4 6 7 4 1
0 8 7 6 8 7 6 1
0 9 8 6 9 8 6 1
0 10 8 9 10 8 9 1
0 10 11 8 10 11 8 1
0 12 11 10 12 11 10 1
0 13 12 10 13 12 10 1
0 14 12 13 14 12 13 1
0 14 15 12 14 15 12 1
0 16 15 14 16 15 14 1
0 17 16 14 17 16 14 1
0 18 16 17 18 16 17 1
0 18 19 16 18 19 16 1
0 20 19 18 1 19 18 1
0 21 20 18 2 1 18 1
0 22 23 24 20 21 22 1
0 23 25 24 21 23 22 1
0 24 25 26 22 23 24 1
0 24 26 27 22 24 25 1
0 27 26 28 25 24 26 1
0 26 29 28 24 27 26 1
0 28 29 30 26 27 28 1
0 28 30 31 26 28 29 1
0 31 30 32 29 28 30 1
0 30 33 32 28 31 30 1
0 32 33 34 30 31 32 1
0 32 34 35 30 32 33 1
0 35 34 36 33 32 34 1
0 34 37 36 32 35 34 1
0 36 37 38 34 35 36 1
0 36 38 39 34 36 37 1
0 39 38 40 37 36 38 1
0 38 41 40 36 39 38 1
0 40 41 42 38 39 21 1
0 40 42 43 38 21 20 1
0 44 45 46 37 17 14 1
0 47 44 46 34 37 14 1
0 48 47 46 13 34 14 1
0 49 47 48 33 34 13 1
0 50 49 48 10 33 13 1
0 51 49 50 30 33 10 1
0 52 51 50 9 30 10 1
0 53 51 52 29 30 9 1
0 54 53 52 6 29 9 1
0 55 53 54 26 29 6 1
0 56 55 54 5 26 6 1
0 57 55 56 25 26 5 1
0 58 57 56 0 25 5 1
0 57 58 59 25 0 22 1
0 60 59 58 2 22 0 1
0 61 59 60 20 22 2 1
0 62 61 60 18 20 2 1
0 63 61 62 38 20 18 1
0 45 63 62 17 38 18 1
0 44 63 45 37 38 17 1
0 64 65 66 16 35 15 1
0 67 65 64 36 35 16 1
0 68 67 64 19 36 16 1
0 69 67 68 39 36 19 1
0 1 69 68 1 39 19 1
0 23 69 1 21 39 1 1
0 70 23 1 3 21 1 1
0 71 23 70 23 21 3 1
0 72 71 70 4 23 3 1
0 73 71 72 24 23 4 1
0 74 73 72 7 24 4 1
0 75 73 74 27 24 7 1
0 76 75 74 8 27 7 1
0 77 75 76 28 27 8 1
0 78 77 76 11 28 8 1
0 79 77 78 31 28 11 1
0 80 79 78 12 31 11 1
0 81 79 80 32 31 12 1
0 66 81 80 15 32 12 1
0 65 81 66 35 32 15 1
"Box16" 0 3
20
0 -45.436203 100.812866 -90.010254 0.000000 0.000000 -1
0 -45.436203 70.423759 -110.148018 0.000000 1.000000 -1
0 44.652271 100.812866 -90.010254 1.000000 0.000000 -1
0 44.652271 70.423759 -110.148018 1.000000 1.000000 -1
0 44.652271 100.812866 -90.010254 0.000000 0.000000 -1
0 44.652271 70.423759 -110.148018 0.000000 1.000000 -1
0 44.652271 102.347168 -93.156052 1.000000 0.000000 -1
0 44.652271 71.958069 -113.293762 1.000000 1.000000 -1
0 44.652271 102.347168 -93.156052 0.000000 0.000000 -1
0 44.652271 71.958069 -113.293762 0.000000 1.000000 -1
0 -45.436203 102.347168 -93.156052 1.000000 0.000000 -1
0 -45.436203 71.958069 -113.293762 1.000000 1.000000 -1
0 -45.436203 102.347168 -93.156052 0.000000 0.000000 -1
0 -45.436203 71.958069 -113.293762 0.000000 1.000000 -1
0 -45.436203 100.812866 -90.010254 1.000000 0.000000 -1
0 -45.436203 70.423759 -110.148018 1.000000 1.000000 -1
0 -45.436203 100.812866 -90.010254 0.000000 1.000000 -1
0 44.652271 100.812866 -90.010254 1.000000 1.000000 -1
0 -45.436203 70.423759 -110.148018 0.000000 0.000000 -1
0 44.652271 70.423759 -110.148018 1.000000 0.000000 -1
6
0.000000 -0.552388 0.833587
1.000000 0.000000 0.000000
0.000000 0.552387 -0.833588
-1.000000 0.000000 0.000000
0.000000 0.898795 0.438370
0.000000 -0.898791 -0.438377
12
0 0 1 2 0 0 0 1
0 1 3 2 0 0 0 1
0 4 5 6 1 1 1 2
0 5 7 6 1 1 1 2
0 8 9 10 2 2 2 1
0 9 11 10 2 2 2 1
0 12 13 14 3 3 3 2
0 13 15 14 3 3 3 2
0 12 16 6 4 4 4 3
0 16 17 6 4 4 4 3
0 18 13 19 5 5 5 3
0 13 7 19 5 5 5 3

Materials: 4
"white"
0.800000 0.800000 0.800000 1.000000
1.000000 1.000000 1.000000 1.000000
0.000000 0.000000 0.000000 1.000000
0.000000 0.000000 0.000000 1.000000
0.000000
1.000000
".\white.bmp"
""
"tread"
0.800000 0.800000 0.800000 1.000000
0.800000 0.800000 0.800000 1.000000
0.000000 0.000000 0.000000 1.000000
0.000000 0.000000 0.000000 1.000000
0.000000
1.000000
".\tread.bmp"
""
"camo"
0.800000 0.800000 0.800000 1.000000
0.800000 0.800000 0.800000 1.000000
0.000000 0.000000 0.000000 1.000000
0.000000 0.000000 0.000000 1.000000
0.000000
1.000000
".\camo.bmp"
""
"glass"
0.800000 0.800000 0.800000 1.000000
0.800000 0.800000 0.800000 1.000000
0.000000 0.000000 0.000000 1.000000
0.000000 0.000000 0.000000 1.000000
0.000000
1.000000
".\white.bmp"
".\chrome.bmp"

Bones: 0
